Place,Name,BodyweightKg,Squat1Kg,Squat2Kg,Squat3Kg,Best3SquatKg,Bench1Kg,Bench2Kg,Bench3Kg,Best3BenchKg,Deadlift1Kg,Deadlift2Kg,Deadlift3Kg,Best3DeadliftKg,TotalKg,WeightClassKg,Sex,CyrillicName,BirthYear,Equipment,Event,Division
1,Alexey Romanov,52,,,215,215,,,142.5,142.5,,,190,190,547.5,52,M,Алексей Романов,1981,Single-ply,SBD,Juniors
2,Alexander Baykov,51.9,,,215,215,,,135,135,,,157.5,157.5,507.5,52,M,Александр Байков,1982,Single-ply,SBD,Juniors
3,Evgeniy Karimov,51,,,185,185,,,110,110,,,195,195,490,52,M,Евгений Каримов,1983,Single-ply,SBD,Juniors
4,David Vartanov,51,,,180,180,,,107.5,107.5,,,175,175,462.5,52,M,Давид Вартанов,1986,Single-ply,SBD,Juniors
5,Oleg Noskov,52,160,170,175,175,85,90,92.5,92.5,170,182.5,187.5,187.5,455,52,M,Олег Носков,1984,Single-ply,SBD,Juniors
6,Maksim Streltsov,51,,,160,160,,,97.5,97.5,,,192.5,192.5,450,52,M,Максим Стрельцов,1982,Single-ply,SBD,Juniors
7,Alexander Kolbin,50,-160,165,175,175,100,-105,-150,100,165,-175,,165,440,52,M,Александр Колбин,1987,Single-ply,SBD,Juniors
8,Mikhail Dostovalov,51,160,-165,165,165,95,100,-105,100,175,-182.5,-182.5,175,440,52,M,Михаил Достовалов,1985,Single-ply,SBD,Juniors
9,Vasiliy Dunin,51,175,182.5,-187.5,182.5,75,82.5,-85,82.5,170,-180,-180,170,435,52,M,Василий Дунин,1984,Single-ply,SBD,Juniors
10,Dmitriy Nekrasov,51,160,170,177,177,82.5,87.5,-90,87.5,160,170,-175,170,434.5,52,M,Дмитрий Некрасов,1985,Single-ply,SBD,Juniors
11,Vladimir Druzhinin,50,140,150,-160,150,95,100,-102.5,100,140,150,160,160,410,52,M,Владимир Дружинин,1985,Single-ply,SBD,Juniors
12,Aleksey Nasonov,49,140,155,-165,155,85,-92.5,92.5,92.5,140,150,-155,150,397.5,52,M,Алексей Насонов,1986,Single-ply,SBD,Juniors
13,Pavel Dyakov,51,130,-142.5,142.5,142.5,80,82.5,85,85,-160,160,-165,160,387.5,52,M,Павел Дьяков,1986,Single-ply,SBD,Juniors
14,Sergey Korneychuk,46,-120,120,-130,120,55,60,-65,60,120,130,132.5,132.5,312.5,52,M,Сергей Корнейчук,1988,Single-ply,SBD,Juniors
1,Konstantin Danilov,56,,,240,240,,,127.5,127.5,,,230,230,597.5,56,M,Константин Данилов,1986,Single-ply,SBD,Juniors
2,Andrey Kostenko,55,,,195,195,,,105,105,,,192.5,192.5,492.5,56,M,Андрей Костенко,1988,Single-ply,SBD,Juniors
3,Arthur Mashinskiy,55,,,170,170,,,120,120,,,200,200,490,56,M,Артур Машинский,1987,Single-ply,SBD,Juniors
4,Nikolay Maslov,55,,,180,180,,,120,120,,,190,190,490,56,M,Николай Маслов,1983,Single-ply,SBD,Juniors
5,Sergey Zyuzin,56,,,200,200,,,95,95,,,160,160,455,56,M,Сергей Зюзин,1988,Single-ply,SBD,Juniors
DQ,Yuriy Elkin,55,,,,,,,,,,,,,,56,M,Юрий Елькин,1981,Single-ply,SBD,Juniors
1,Sergey Skochek,58,,,250,250,,,162.5,162.5,,,235,235,647.5,60,M,Сергей Скочек,1983,Single-ply,SBD,Juniors
2,Maksim Tyagushev,58,220,230,240,240,130,140,-145,140,230,242.5,-250,242.5,622.5,60,M,Максим Тягушев,1981,Single-ply,SBD,Juniors
3,Aleksandr Kolyshkin,60,,,230,230,,,150,150,,,235,235,615,60,M,Александр Колышкин,1981,Single-ply,SBD,Juniors
4,Sergey Agafonov,59,220,-240,240,240,-135,135,140,140,210,220,230,230,610,60,M,Сергей Агафонов,1984,Single-ply,SBD,Juniors
5,Sergey Savinykh,60,,,232.5,232.5,,,170,170,,,205,205,607.5,60,M,Сергей Савиных,1983,Single-ply,SBD,Juniors
6,Mikhail Moschyov,58,,,230,230,,,142.5,142.5,,,222.5,222.5,595,60,M,Михаил Мощёв,,Single-ply,SBD,Juniors
7,Mikhail Voskresenskiy,60,,,235,235,,,135,135,,,225,225,595,60,M,Михаил Воскресенский,1983,Single-ply,SBD,Juniors
8,Vitaliy Petrochenko,59,,,220,220,,,157.5,157.5,,,215,215,592.5,60,M,Виталий Петроченко,1982,Single-ply,SBD,Juniors
9,Aleksandr Vosrkesenskiy,59,230,240,-245,240,130,135,-140,135,200,210,-215,210,585,60,M,Александр Воскресенский,1986,Single-ply,SBD,Juniors
10,Aleksandr Begeev,59,,,225,225,,,140,140,,,220,220,585,60,M,Александр Бегеев,1984,Single-ply,SBD,Juniors
11,Dmitriy Alekseev,59,,,230,230,,,127.5,127.5,,,220,220,577.5,60,M,Дмитрий Алексеев,1983,Single-ply,SBD,Juniors
12,Dmitriy Shkurnik,59,-205,205,217.5,217.5,-127.5,127.5,135,135,210,-220,-220,210,562.5,60,M,Дмитрий Шкурник,1987,Single-ply,SBD,Juniors
13,Evgeniy Mukhomedyanov,59,,,230,230,,,125,125,,,200,200,555,60,M,Евгений Мухомедьянов,1981,Single-ply,SBD,Juniors
14,Rustam Nuriev,59,200,-210,-212.5,200,-132.5,137.5,-145,137.5,212.5,-232.5,-247.5,212.5,550,60,M,Рустам Нуриев,1985,Single-ply,SBD,Juniors
15,Denis Varyukhin,59,210,-220,220,220,115,122.5,-135,122.5,-202.5,,202.5,202.5,544.5,60,M,Денис Варюхин,1986,Single-ply,SBD,Juniors
16,Rodion Zboyu,59,190,200,205,205,-125,125,,125,200,-205,205,205,535,60,M,Родион Збою,1986,Single-ply,SBD,Juniors
17,Marat Fatykhov,59,190,200,210,210,95,100,102.5,102.5,190,200,-202.5,200,512.5,60,M,Марат Фатыхов,1985,Single-ply,SBD,Juniors
18,Igor Druy,60,-170,170,182,182,135,140,145,145,150,172.5,-190,172.5,499.5,60,M,Игорь Друй,1984,Single-ply,SBD,Juniors
19,Timofey Savin,59,170,182.5,-192.5,182.5,105,-110,-110,105,175,185,-187.5,185,472.5,60,M,Тимофей Савин,1985,Single-ply,SBD,Juniors
DQ,Evgeniy Ushakov,59,,,215,215,,,122,122,,,-235,,,60,M,Евгений Ушаков,1982,Single-ply,SBD,Juniors
1,Aleksandr Gromov,66,280,-295,295,295,170,190,-195,190,240,-255,-255,240,725,67.5,M,Александр Громов,1981,Single-ply,SBD,Juniors
2,Pavel Dyakov,67,245,255,265,265,147.5,155,157.5,157.5,260,265,270,270,692.5,67.5,M,Павел Дьяков,1986,Single-ply,SBD,Juniors
3,Vladimir Pak,67,-250,250,-257.5,250,135,142.5,-147.5,142.5,267.5,285,290.5,290.5,683,67.5,M,Владимир Пак,1982,Single-ply,SBD,Juniors
4,Vasiliy Tsvetkov,67,250,265,-270,265,145,152.5,157,157,237.5,257.5,-267.5,257.5,679.5,67.5,M,Василий Цветков,1981,Single-ply,SBD,Juniors
5,Maksim Beloborodov,66,,,260,260,,,160,160,,,245,245,665,67.5,M,Максим Белобородов,1983,Single-ply,SBD,Juniors
6,Konstantin Girin,66,260,-272.5,272.5,272.5,160,165,,165,210,225,-242.5,225,662.5,67.5,M,Константин Гирин,1981,Single-ply,SBD,Juniors
7,Aleksey Sayfutdinov,66,240,247.5,255,255,145,-155,155,155,230,250,-255,250,660,67.5,M,Алексей Сайфутдинов,1984,Single-ply,SBD,Juniors
8,Artem Pashiev,67,230,240,-245,240,170,-180,180,180,240,,,240,660,67.5,M,Артем Пашиев,1983,Single-ply,SBD,Juniors
9,Pavel Yudanov,67,250,265,-275,265,-130,130,-140,130,-255,-255,255,255,650,67.5,M,Павел Юданов,1982,Single-ply,SBD,Juniors
10,Anton Shvaygert,67,,,250,250,,,150,150,,,245,245,645,67.5,M,Антон Швайгерт,1982,Single-ply,SBD,Juniors
11,Rifat Nigmatullin,67,245,-260,-260,245,155,160,170,170,215,230,-245,230,645,67.5,M,Рифат Нигматуллин,1982,Single-ply,SBD,Juniors
12,Aslan Agaev,67,225,-237.5,245,245,130,140,145,145,220,237.5,-245,237.5,627.5,67.5,M,Аслан Агаев,1987,Single-ply,SBD,Juniors
13,Rustam Kadyrgulov,67,,,235,235,,,152.5,152.5,,,240,240,627.5,67.5,M,Рустам Кадыргулов,1982,Single-ply,SBD,Juniors
14,Ilia Pavlov,67,225,235,-242.5,235,135,140,-142.5,140,240,-250,250,250,625,67.5,M,Илья Павлов,1985,Single-ply,SBD,Juniors
15,Andrey Ignatev,65,,,220,220,,,142,142,,,237,237,599,67.5,M,Андрей Игнатьев,1985,Single-ply,SBD,Juniors
16,Sergey Serov,67,,,230,230,,,125,125,,,245,245,600,67.5,M,Сергей Серов,1981,Single-ply,SBD,Juniors
17,Mikhail Chistyakov,67,,,235,235,,,147,147,,,217,217,599,67.5,M,Михаил Чистяков,1983,Single-ply,SBD,Juniors
18,Evgeniy Vasin,67,,,215,215,,,125,125,,,220,220,560,67.5,M,Евгений Васин,1984,Single-ply,SBD,Juniors
19,Aleksey Sotnikov,66,,,200,200,,,140,140,,,200,200,540,67.5,M,Алексей Сотников,1985,Single-ply,SBD,Juniors
20,Pavel Nilov,67,,,190,190,,,125,125,,,205,205,520,67.5,M,Павел Нилов,1986,Single-ply,SBD,Juniors
21,Anton Yakovlev,65,,,190,190,,,115,115,,,205,205,510,67.5,M,Антон Яковлев,1986,Single-ply,SBD,Juniors
22,Egor Lutsenko,61,,,195,195,,,100,100,,,185,185,480,67.5,M,Егор Луценко,1987,Single-ply,SBD,Juniors
DQ,Sergey Shikhaleev,67,-235,-235,-235,,,,,,,,,,,67.5,M,Сергей Шихалеев,1981,Single-ply,SBD,Juniors
1,Dmitriy Dvornikov,75,300,317.5,325,325,190,200,-205,200,270,285,292.5,292.5,817.5,75,M,Дмитрий Дворников,1982,Single-ply,SBD,Juniors
2,Anton Pinchuk,74,290,300,310,310,190,200,205,205,270,280,-287.5,280,795,75,M,Антон Пинчук,1984,Single-ply,SBD,Juniors
3,Dmitriy Ivanenko,74,-310,310,-320,310,180,185,-187.5,185,285,290,-305,290,785,75,M,Дмитрий Иваненко,1981,Single-ply,SBD,Juniors
4,Alexander Govorin,73,300,-315,-315,300,-150,152.5,157,157,280,300,307,307,764,75,M,Александр Говорин,1985,Single-ply,SBD,Juniors
5,Vladimir Sholskiy,74,280,295,-305,295,-165,165,175,175,270,285,295,295,765,75,M,Владимир Шольский,1985,Single-ply,SBD,Juniors
6,Vladimir Manitsyn,73,285,295,302.5,302.5,167.5,-175,-175,167.5,255,265,272.5,272.5,742.5,75,M,Владимир Маницын,1982,Single-ply,SBD,Juniors
7,Vitaliy Kireev,74,290,-305,-305,290,167.5,177.5,182.5,182.5,-265,265,-287.5,265,737.5,75,M,Виталий Киреев,1985,Single-ply,SBD,Juniors
8,Izrail Musaev,74,270,-290,290,290,160,170,-177.5,170,-240,260,270,270,730,75,M,Израил Мусаев,1981,Single-ply,SBD,Juniors
9,Sergey Churzin,74,270,280,-285,280,175,185,-190,185,260,265,,265,730,75,M,Сергей Чурзин,1981,Single-ply,SBD,Juniors
10,Evgeniy Efimov,74,265,280,285,285,160,170,172.5,172.5,250,262.5,270,270,727.5,75,M,Евгений Ефимов,1982,Single-ply,SBD,Juniors
11,Maksim Gavrilov,73,280,-290,-295,280,152.5,-160,160,160,265,280,-285,280,720,75,M,Максим Гаврилов,1985,Single-ply,SBD,Juniors
12,Albert Valeev,74,255,270,275,275,170,180,190,190,240,250,255,255,720,75,M,Альберт Валеев,1983,Single-ply,SBD,Juniors
13,Evgeniy Vasyukov,74,275,-285,-285,275,170,177.5,180,180,240,265,-280,265,720,75,M,Евгений Васюков,1985,Single-ply,SBD,Juniors
14,Ruslan Guliev,74,-250,250,-260,250,190,200,-207.5,200,250,-260,-260,250,700,75,M,Руслан Гулиев,1981,Single-ply,SBD,Juniors
15,Maksim Gnatyuk,74,-275,275,-285,275,160,-167.5,-167.5,160,270,-285,,270,705,75,M,Максим Гнатюк,1982,Single-ply,SBD,Juniors
16,Artem Chaychenko,74,245,257.5,-265,257.5,172.5,180,185,185,240,260,-277.5,260,702.5,75,M,Артем Чайченко,1983,Single-ply,SBD,Juniors
17,Vasiliy Odintsov,74,270,285,295,295,-150,160,-170,160,230,245,-262.5,245,700,75,M,Василий Одинцов,1984,Single-ply,SBD,Juniors
18,Aleksey Rodin,73,275,290,-295,290,130,-140,-140,130,260,-280,-280,260,680,75,M,Алексей Родин,1983,Single-ply,SBD,Juniors
19,Maksim Nikin,73,260,270,-280,270,155,-162.5,-162.5,155,250,-260,,250,675,75,M,Максим Никин,1983,Single-ply,SBD,Juniors
20,Vladimir Smirnov,72,250,260,270,270,125,-135,-135,125,250,260,270,270,665,75,M,Владимир Смирнов,1985,Single-ply,SBD,Juniors
21,Vyacheslav Ivashnyov,74,240,250,255,255,145,147.5,150,150,245,-260,260,260,665,75,M,Вячеслав Ивашнёв,1982,Single-ply,SBD,Juniors
22,Konstantin Dyashkin,75,240,250,262.5,262.5,135,-145,145,145,250,-270,-270,250,657.5,75,M,Константин Дяшкин,1984,Single-ply,SBD,Juniors
23,Evgeniy Shurygin,74,230,240,-250,240,-180,180,192.5,192.5,220,-230,-230,220,652.5,75,M,Евгений Шурыгин,1983,Single-ply,SBD,Juniors
24,Vladimir Gurev,74,235,-245,250,250,-130,130,-135,130,230,250,-270,250,630,75,M,Владимир Гурьев,1984,Single-ply,SBD,Juniors
25,Evgeniy Smirnov,73,-230,-240,240,240,152.5,157.5,-162.5,157.5,230,-252.5,-252.5,230,627.5,75,M,Евгений Смирнов,1981,Single-ply,SBD,Juniors
26,Vyacheslav Burnaev,74,-240,240,-265,240,-137.5,-137.5,137.5,137.5,250,-260,,250,627.5,75,M,Вячеслав Бурнаев,1984,Single-ply,SBD,Juniors
27,Konstantin Kudryavtsev,71,245,255,265,265,120,125,-127.5,125,-230,230,,230,620,75,M,Константин Кудрявцев,1985,Single-ply,SBD,Juniors
28,Aleksey Fedoseev,74,-220,220,-230,220,150,-160,-160,150,220,-230,,220,590,75,M,Алексей Федосеев,1984,Single-ply,SBD,Juniors
29,Aleksandr Shumilov,74,220,225,-232.5,225,125,132.5,-137.5,132.5,215,-222.5,,215,572.5,75,M,Александр Шумилов,1987,Single-ply,SBD,Juniors
30,Aleksandr Romanenko,73,200,-210,,200,120,-125,,120,200,202.5,210,210,530,75,M,Александр Романенко,1984,Single-ply,SBD,Juniors
31,Mikhail Malyshev,73,195,205,-215,205,105,110,112.5,112.5,-200,200,210,210,527.5,75,M,Михаил Малышев,1984,Single-ply,SBD,Juniors
DQ,Stanislav Voronov,73,215,225,-230,225,-175,-175,-175,,,,,,,75,M,Станислав Воронов,1984,Single-ply,SBD,Juniors
DQ,Konstantin Scheglev,74,-235,-235,-235,,,,,,,,,,,75,M,Константин Щеглев,1985,Single-ply,SBD,Juniors
DQ,Aleksey Kirichenko,75,270,280,-290,280,145,-150,150,150,-260,-260,-260,,,75,M,Алексей Кириченко,1982,Single-ply,SBD,Juniors
DQ,Artem Avdeev,74,242.5,250,255,255,-147.5,-147.5,-147.5,,,,,,,75,M,Артем Авдеев,1981,Single-ply,SBD,Juniors
1,Sergey Bogdanov,82,310,322.5,-327.5,322.5,230,240,250,250,290,305,-312.5,305,877.5,82.5,M,Сергей Богданов,1985,Single-ply,SBD,Juniors
2,Alexey Ernandes-Ortega,80,310,320,-325,320,200,210,220,220,-275,-275,275,275,815,82.5,M,Алексей Эрнандес-Ортега,1984,Single-ply,SBD,Juniors
3,Maksim Matveyev,81,-285,285,300,300,190,200,210,210,265,280,290,290,800,82.5,M,Максим Матвеев,1981,Single-ply,SBD,Juniors
4,Ruslan Zhadukov,82,275,285,-292.5,285,-180,180,185,185,290,307.5,-310,307.5,777.5,82.5,M,Руслан Жадуков,1983,Single-ply,SBD,Juniors
5,Nikolai Bazunov,82,275,285,295,295,170,-180,180,180,270,285,295,295,770,82.5,M,Николай Базунов,1985,Single-ply,SBD,Juniors
6,Aleksey Malygin,82,290,-310,310,310,165,172.5,175,175,260,275,-280,275,760,82.5,M,Алексей Малыгин,1982,Single-ply,SBD,Juniors
7,Aleksandr Shilenkov,80,280,290,300,300,155,165,172.5,172.5,-280,280,-302.5,280,752.5,82.5,M,Александр Шиленков,1982,Single-ply,SBD,Juniors
8,Pavel Gerasimenko,81,260,275,290,290,165,170,172.5,172.5,270,280,-285,280,742.5,82.5,M,Павел Герасименко,1985,Single-ply,SBD,Juniors
9,Sergey Starkin,81,-280,280,290,290,-160,160,-165,160,280,290,-300,290,740,82.5,M,Сергей Старкин,1983,Single-ply,SBD,Juniors
10,Sergey Shulepov,80,270,285,290,290,165,170,-177.5,170,260,275,-282.5,275,735,82.5,M,Сергей Шулепов,1982,Single-ply,SBD,Juniors
11,Dmitriy Veretyokhin,82,270,285,292,292,160,167.5,-170,167.5,250,260,270,270,729.5,82.5,M,Дмитрий Веретёхин,1983,Single-ply,SBD,Juniors
12,Anton Poptsov,80,265,272.5,280,280,155,162.5,167.5,167.5,260,272.5,280,280,727.5,82.5,M,Антон Попцов,1982,Single-ply,SBD,Juniors
13,Aleksandr Revyako,82,270,-285,-290,270,-195,195,-200,195,260,-270,-270,260,725,82.5,M,Александр Ревяко,1985,Single-ply,SBD,Juniors
14,Mikhail Lebedev,81,-265,-270,270,270,-150,-155,155,155,260,-270,270,270,695,82.5,M,Михаил Лебедев,1985,Single-ply,SBD,Juniors
15,Ilya Beloverov,81,260,-262.5,270,270,160,167.5,-170,167.5,-250,262.5,-270,262.5,700,82.5,M,Илья Беловеров,1982,Single-ply,SBD,Juniors
16,Stanislav Chukhrov,80,230,245,255,255,145,155,-165,155,260,-270,-270,260,670,82.5,M,Станислав Чухров,1983,Single-ply,SBD,Juniors
17,Anton Boldyrev,82,-242.5,242.5,-252.5,242.5,162.5,172.5,-175,172.5,242.5,-250,,242.5,657.5,82.5,M,Антон Болдырев,1984,Single-ply,SBD,Juniors
18,Aleksandr Derevyashkin,80,220,-230,-230,220,130,140,-142.5,140,220,230,-235,230,590,82.5,M,Александр Деревяшкин,1983,Single-ply,SBD,Juniors
19,Aleksandr Vasilyev,80,200,-220,-220,200,110,120,-125,120,230,240,250,250,570,82.5,M,Александр Васильев,1986,Single-ply,SBD,Juniors
DQ,Aleksandr Shmelyov,82,-270,-270,-270,,,,,,,,,,,82.5,M,Александр Шмелёв,1983,Single-ply,SBD,Juniors
DQ,Roman Smolyar,82,295,305,-310,305,-187.5,-187.5,-187.5,,,,,,,82.5,M,Роман Смоляр,1983,Single-ply,SBD,Juniors
DQ,Vladimir Irgoleev,81,240,245,250,250,190,195,-200,195,-240,-250,-250,,,82.5,M,Владимир Ирголеев,1984,Single-ply,SBD,Juniors
1,Vadim Zamornikov,88,340,360,370,370,185,195,200,200,330,345,-350,345,915,90,M,Вадим Заморников,1982,Single-ply,SBD,Juniors
2,Konstantin Lebedko,87,330,-340,-345,330,225,-235,235,235,300,312.5,325,325,890,90,M,Константин Лебедко,1981,Single-ply,SBD,Juniors
3,Alexander Maximov,90,320,337.5,-350,337.5,195,-200,-200,195,310,325,340,340,872.5,90,M,Александр Максимов,1984,Single-ply,SBD,Juniors
4,Maksim Unt,89.05,315,325,335,335,175,-185,-190,175,290,315,325,325,835,90,M,Максим Унт,1981,Single-ply,SBD,Juniors
5,Arsen Abdulkarimov,88,330,-360,-360,330,190,200,-205,200,300,-320,-320,300,830,90,M,Арсен Абдулкаримов,1982,Single-ply,SBD,Juniors
6,Evgeniy Kirichenko,88,-315,325,-335,325,175,185,190,190,290,300,310,310,825,90,M,Евгений Кириченко,1981,Single-ply,SBD,Juniors
7,Vadim Kakhuta,89,285,300,310,310,-225,-225,230,230,165,275,285,285,825,90,M,Вадим Кахута,1981,Single-ply,SBD,Juniors
8,Nikolay Kozlovskiy,87,285,300,310,310,180,190,197.5,197.5,280,297.5,305,305,812.5,90,M,Николай Козловский,1981,Single-ply,SBD,Juniors
9,Denis Scherbakov,88,300,315,325,325,185,192.5,195,195,290,-305,-305,290,810,90,M,Денис Щербаков,1982,Single-ply,SBD,Juniors
10,Aleksandr Pupyshev,86,295,305,-312.5,305,190,200,205,205,280,295,,295,805,90,M,Александр Пупышев,1982,Single-ply,SBD,Juniors
11,Nikolay Randin,89,310,325,330,330,190,197.5,202.5,202.5,-272.5,272.5,-285,272.5,805,90,M,Николай Рандин,1984,Single-ply,SBD,Juniors
12,Sergey Tretyakov,89,310,320,327.5,327.5,170,180,-185,180,287.5,297.5,-307.5,297.5,805,90,M,Сергей Третьяков,1983,Single-ply,SBD,Juniors
13,Mikhail Martynov,89,290,-300,300,300,210,217.5,220,220,280,-295,,280,800,90,M,Михаил Мартынов,1981,Single-ply,SBD,Juniors
14,Andrey Ionov,89,295,307.5,315,315,165,172.5,177.5,177.5,280,290,295,295,787.5,90,M,Андрей Ионов,1984,Single-ply,SBD,Juniors
15,Viktor Koltakov,89,270,285,-295,285,-185,-185,185,185,310,-335,,310,780,90,M,Виктор Колтаков,1981,Single-ply,SBD,Juniors
16,Nikolay Demidov,88,290,305,-312.5,305,185,-192.5,192.5,192.5,280,-307.5,-307.5,280,777.5,90,M,Николай Демидов,1985,Single-ply,SBD,Juniors
17,Aleksandr Glovinov,89,295,310,320,320,175,-185,185,185,260,-275,-275,260,765,90,M,Александр Голованов,1983,Single-ply,SBD,Juniors
18,Pavel Nikiforov,88,300,315,-325,315,175,-190,-190,175,260,270,-280,270,760,90,M,Павел Никифоров,1982,Single-ply,SBD,Juniors
19,Konstantin Bezrukov,89,275,285,-295,285,165,175,185,185,275,290,-300,290,760,90,M,Константин Безруков,1984,Single-ply,SBD,Juniors
20,Sergey Igolkin,88,260,275,290,290,150,165,-170,165,270,300,-310,300,755,90,M,Сергей Иголкин,1983,Single-ply,SBD,Juniors
21,Mikhail Nosarev,86,270,280,290,290,165,172.5,-180,172.5,280,290,-295,290,752.5,90,M,Михаил Носарев,1984,Single-ply,SBD,Juniors
22,Mikhail Igoshev,89,270,-280,280,280,-175,175,180,180,260,280,-290,280,740,90,M,Михаил Игошев,1983,Single-ply,SBD,Juniors
23,Denis Suleymanov,89,270,285,295,295,165,175,180,180,250,-265,265,265,740,90,M,Денис Сулейманов,1981,Single-ply,SBD,Juniors
24,Roman Bogdanov,88,270,280,285,285,170,180,-190,180,-260,260,270,270,735,90,M,Роман Богданов,1986,Single-ply,SBD,Juniors
25,Yuriy Sakharov,86,280,290,300,300,150,160,165,165,255,265,-270,265,730,90,M,Юрий Сахаров,1984,Single-ply,SBD,Juniors
26,Stepan Kochkin,89,-290,-290,290,290,200,-205,-205,200,230,240,-250,240,730,90,M,Степан Кочкин,1986,Single-ply,SBD,Juniors
27,Zhaslan Akhmetov,89,270,-290,290,290,-180,180,-190,180,240,250,260,260,730,90,M,Жаслан Ахметов,1981,Single-ply,SBD,Juniors
28,Maksim Shiryaev,89,275,-280,-280,275,-180,180,185,185,250,260,265,265,725,90,M,Максим Ширяев,1981,Single-ply,SBD,Juniors
29,Albert Gilyazutdinov,87,270,280,-290,280,-195,-195,200,200,240,-255,,240,720,90,M,Альберт Гилязутдинов,1983,Single-ply,SBD,Juniors
30,Rinat Salakhetdinov,89,250,270,-280,270,150,160,-165,160,270,290,,290,720,90,M,Ринат Салахетдинов,1984,Single-ply,SBD,Juniors
31,Sergey Kurbatov,89,240,250,-260,250,-185,185,-195,185,270,285,,285,720,90,M,Сергей Курбатов,1984,Single-ply,SBD,Juniors
32,Vasiliy Karpov,89,260,275,282,282,165,175,180,180,240,257.5,-265,257.5,719.5,90,M,Василий Карпов,1983,Single-ply,SBD,Juniors
33,Vitaliy Vorobyov,89,-245,255,260,260,145,152.5,155,155,290,305,,305,720,90,M,Виталий Воробьёв,1982,Single-ply,SBD,Juniors
34,Pavel Berlin,89,270,280,,280,180,185,-187.5,185,245,255,-262.5,255,720,90,M,Павел Берлин,1986,Single-ply,SBD,Juniors
35,Nikolay Ponomarev,88,260,275,-285,275,160,-170,-170,160,260,275,-285,275,710,90,M,Николай Пономарев,1981,Single-ply,SBD,Juniors
36,Ernst Gross,88,-280,280,300,300,150,-155,155,155,-245,-245,245,245,700,90,M,Эрнст Гросс,1987,Single-ply,SBD,Juniors
37,Sergey Shipov,88,265,-275,280,280,145,152.5,155,155,255,-270,,255,690,90,M,Сергей Шипов,1984,Single-ply,SBD,Juniors
38,Sergey Matveev,88,-290,290,-295,290,-180,180,-185,180,220,-280,,220,690,90,M,Сергей Матвеев,1982,Single-ply,SBD,Juniors
39,Vladimir Komarov,89,240,-250,-250,240,160,-170,170,170,255,265,270,270,680,90,M,Владимир Комаров,1982,Single-ply,SBD,Juniors
40,Andrey Tsygankov,89,260,-280,-280,260,140,147.5,-150,147.5,240,260,-272.5,260,667.5,90,M,Андрей Цыганков,1987,Single-ply,SBD,Juniors
41,Sergey Timofeev,88,215,-227.5,230,230,140,145,-147.5,145,205,215,225,225,600,90,M,Сергей Тимофеев,1981,Single-ply,SBD,Juniors
DQ,Konstantin Pozdeev,89,330,345,352.5,352.5,180,187.5,-192.5,187.5,-332.5,-337.5,-337.5,,,90,M,Константин Поздеев,1984,Single-ply,SBD,Juniors
DQ,Dmitriy Stepanov,89,305,320,-330,320,190,-195,195,195,-310,-310,-310,,,90,M,Дмитрий Степанов,1982,Single-ply,SBD,Juniors
DQ,Vitaliy Gorbunov,89,285,292.5,297,297,190,-200,-200,190,-300,-300,,,,90,M,Віталій Горбунов,1983,Single-ply,SBD,Juniors
DQ,Ilya Lutsenko,87,-315,-315,-315,,,,,,,,,,,90,M,Илья Луценко,1981,Single-ply,SBD,Juniors
DQ,Aleksandr Kononov,87,-310,-315,-315,,,,,,,,,,,90,M,Александр Кононов,1984,Single-ply,SBD,Juniors
DQ,Aleksey Kuznetsov,88,-310,-310,-310,,,,,,,,,,,90,M,Алексей Кузнецов,,Single-ply,SBD,Juniors
DQ,Anton Babushkin,88,-275,-275,-275,,,,,,,,,,,90,M,Антон Бабушкин,1983,Single-ply,SBD,Juniors
DQ,Vitaliy Pilyukov,84,,,,,,,187.5,187.5,,,,,,90,M,Виталий Пилюков,1981,Single-ply,SBD,Juniors
DQ,Andrey Tikhonov,89,-300,-300,-300,,,,,,,,,,,90,M,Андрей Тихонов,1983,Single-ply,SBD,Juniors
1,Roman Gavrusik,99,340,-350,-350,340,210,215,,215,310,320,325,325,880,100,M,Роман Гаврусик,1982,Single-ply,SBD,Juniors
2,Konstantin Ganovsky,99,310,-325,-330,310,200,210,220,220,305,330,340,340,870,100,M,Константин Гановский,1982,Single-ply,SBD,Juniors
3,Vitaliy Bobrov,95,340,355,,355,195,205,-212.5,205,290,305,-312.5,305,865,100,M,Виталий Бобров,1981,Single-ply,SBD,Juniors
4,Ivan Solovyev,98,310,330,340,340,190,200,210,210,280,300,-310,300,850,100,M,Иван Соловьев,1984,Single-ply,SBD,Juniors
5,Alexey Shashurin,99,320,340,-350,340,205,215,222.5,222.5,287.5,-302.5,-302.5,287.5,850,100,M,Алексей Шашурин,1984,Single-ply,SBD,Juniors
6,Aleksandr Kotenko,99,340,-360,-360,340,185,190,-195,190,300,310,-320,310,840,100,M,Александр Котенко,1981,Single-ply,SBD,Juniors
7,Mikhail Schutskiy,97,310,325,-335,325,205,-212.5,212.5,212.5,280,290,-300,290,827.5,100,M,Михаил Щуцкий,1981,Single-ply,SBD,Juniors
8,Ildar Gilfanov,99,305,-315,-315,305,185,-192.5,-192.5,185,-290,290,,290,780,100,M,Ильдар Гильфанов,1982,Single-ply,SBD,Juniors
9,Roman Obidin,99,280,295,300,300,160,165,-167.5,165,275,285,-292.5,285,750,100,M,Роман Обидин,1982,Single-ply,SBD,Juniors
10,Aleksandr Bormotov,99,265,-275,280,280,170,-180,180,180,-265,270,-290,270,730,100,M,Александр Бормотов,1982,Single-ply,SBD,Juniors
11,Ruslan Amirov,98,280,295,-305,295,-175,180,-185,180,250,-265,-275,250,725,100,M,Руслан Амиров,1984,Single-ply,SBD,Juniors
12,Oleg Slyadnev,90.01,235,245,250,250,150,-155,-155,150,-260,260,-270,260,660,100,M,Олег Сляднев,1982,Single-ply,SBD,Juniors
13,Evgeniy Pertsev,94,260,275,285,285,145,150,-155,150,230,-240,-240,230,665,100,M,Евгений Перцев,1982,Single-ply,SBD,Juniors
14,Maksim Osipov,96,235,-247.5,-247.5,235,155,160,-165,160,210,222.5,-230,222.5,617.5,100,M,Максим Осипов,1986,Single-ply,SBD,Juniors
DQ,Dmitriy Beryozkin,90.01,,,,,,,,,,,,,,100,M,Дмитрий Берёзкин,1983,Single-ply,SBD,Juniors
DQ,Dmitriy Saltykov,90.01,330,340,345,345,-185,185,192.5,192.5,-320,-320,-322.5,,,100,M,Дмитрий Салтыков,1984,Single-ply,SBD,Juniors
1,Sergey Sosnovskiy,109,350,-370,370,370,205,210,217.5,217.5,325,340,-350,340,927.5,110,M,Сергей Сосновский,1983,Single-ply,SBD,Juniors
2,Marat Chirkov,109,-340,340,-350,340,210,220,225,225,325,350.5,-365,350.5,915.5,110,M,Марат Чирков,1984,Single-ply,SBD,Juniors
3,Pavel Gatsenko,107,310,-330,350,350,175,182.5,187.5,187.5,300,322.5,332.5,332.5,870,110,M,Павел Гаценко,1985,Single-ply,SBD,Juniors
4,Sergey Davydov,108,300,-310,310,310,200,212.5,217.5,217.5,325,342.5,,342.5,870,110,M,Сергей Давыдов,1983,Single-ply,SBD,Juniors
5,Artem Kovalchuk,108,335,-350,355,355,192.5,200,-202.5,200,280,300,315,315,870,110,M,Артём Ковальчук,1982,Single-ply,SBD,Juniors
6,Aleksey Zaglyada,107,335,350,-360,350,210,217.5,-220,217.5,280,-302.5,-302.5,280,847.5,110,M,Алексей Загляда,1983,Single-ply,SBD,Juniors
7,Andrey Komissarov,105,275,-290,292.5,292.5,185,195,205,205,275,287.5,300,300,797.5,110,M,Андрей Комиссаров,1984,Single-ply,SBD,Juniors
8,Nikolay Stolyarov,108,300,310,315,315,180,187.5,192.5,192.5,267.5,272.5,277.5,277.5,785,110,M,Николай Столяров,1983,Single-ply,SBD,Juniors
9,Arkadiy Semelev,104,-310,310,-320,310,170,180,185,185,275,285,,285,780,110,M,Аркадий Семелев,1985,Single-ply,SBD,Juniors
10,Ildar Shakirov,109,290,300,-310,300,185,187.5,195,195,285,295,,295,790,110,M,Ильдар Шакиров,1982,Single-ply,SBD,Juniors
11,Konstantin Gafarov,107,260,275,280,280,175,180,185,185,300,-305,305,305,770,110,M,Константин Гафаров,1984,Single-ply,SBD,Juniors
12,Stanislav Shapkov,107,290,-300,,290,-190,190,,190,-200,200,,200,680,110,M,Станислав Шапков,1983,Single-ply,SBD,Juniors
DQ,Mikhail Viasovskiy,109,-275,-275,-275,,,,,,,,,,,110,M,Михаил Виасовский,1984,Single-ply,SBD,Juniors
DQ,Timur Gadiev,109,-315,-322.5,-325,,,,,,,,,,,110,M,Тимур Гадиев,1985,Single-ply,SBD,Juniors
DQ,Aleksandr Gritsay,108,310,-330,-330,310,190,200,207.5,207.5,-300,-300,-300,,,110,M,Александр Грицай,1984,Single-ply,SBD,Juniors
DQ,Aleksey Chakin,107,,,,,,,,,,,,,,110,M,Алексей Чакин,1982,Single-ply,SBD,Juniors
DQ,Nikolay Serikov,102,335,-350,-350,335,-315,-315,-315,,,,,,,110,M,Николай Сериков,1984,Single-ply,SBD,Juniors
1,Arsen Baykov,115,-365,365,-380,365,245,-255,-255,245,320,335,345,345,955,125,M,Арсен Байков,1981,Single-ply,SBD,Juniors
2,Aleksey Pankov,120,320,330,335,335,210,-220,-220,210,335,365,377.5,377.5,922.5,125,M,Алексей Панков,1983,Single-ply,SBD,Juniors
3,Lev Levchenko,112,330,-350,350,350,200,210,220,220,310,340,350,350,920,125,M,Лев Левченко,1981,Single-ply,SBD,Juniors
4,Anton Kibirev,123,350,370,377.5,377.5,200,212.5,-217.5,212.5,310,320,327.5,327.5,917.5,125,M,Антон Кибирев,1982,Single-ply,SBD,Juniors
5,Anton Solodov,118,360,370,-380,370,200,210,215,215,300,315,-325,315,900,125,M,Антон Солодов,1985,Single-ply,SBD,Juniors
6,Roman Melnikov,119,335,-350,350,350,230,-237.5,-237.5,230,290,307.5,-320,307.5,887.5,125,M,Роман Мельников,1983,Single-ply,SBD,Juniors
7,Dmitriy Ivanov,119,310,325,335,335,185,195,202.5,202.5,300,315,-322.5,315,852.5,125,M,Дмитрий Иванов,1984,Single-ply,SBD,Juniors
8,Stanislav Alekseykin,115,300,-320,320,320,200,215,225,225,-290,290,300,300,845,125,M,Станислав Алексейкин,1982,Single-ply,SBD,Juniors
9,Andrei Ageev,121,300,330,-350,330,190,205,212.5,212.5,250,270,-285,270,812.5,125,M,Андрей Агеев,1985,Single-ply,SBD,Juniors
10,Pavel Artemev,124,315,-330,330,330,190,-200,,190,275,290,-300,290,810,125,M,Павел Артемьев,1984,Single-ply,SBD,Juniors
11,Dmitriy Kozlov,117,-315,315,330,330,202.5,207.5,,207.5,270,-282.5,-282.5,270,807.5,125,M,Дмитрий Козлов,1981,Single-ply,SBD,Juniors
12,Anton Fedosyuk,115,290,300,305,305,175,180,185,185,290,300,310,310,800,125,M,Антон Федосюк,1981,Single-ply,SBD,Juniors
13,Dmitry Alekseev,119,270,-285,285,285,-200,205,-210,205,275,-295,-295,275,765,125,M,Дмитрий Алексеев,1981,Single-ply,SBD,Juniors
1,Alexander Klyushev,125.01,365,385,400,400,215,220,,220,360,380,-390.5,380,1000,125+,M,Александр Клюшев,1983,Single-ply,SBD,Juniors
2,Sergey Pavlov,131,340,-350,350,350,240,255,265,265,300,310,-315,310,925,125+,M,Сергей Павлов,1982,Single-ply,SBD,Juniors
3,Aleksandr Kashtanov,133,330,-340,-350,330,230,245,-260,245,300,315,-325,315,890,125+,M,Александр Каштанов,1981,Single-ply,SBD,Juniors
4,Vyacheslav Aksenov,135,315,-332.5,332.5,332.5,-210,210,217.5,217.5,312.5,332.5,-342.5,332.5,882.5,125+,M,Вячеслав Аксенов,1981,Single-ply,SBD,Juniors
5,Anatoliy Fokin,128,340,-355,-355,340,220,230,240,240,300,-315,-320,300,880,125+,M,Анатолий Фокин,1982,Single-ply,SBD,Juniors
6,Mikhail Korostin,128,-330,330,350,350,-200,205,215,215,250,270,-285,270,835,125+,M,Михаил Коростин,1984,Single-ply,SBD,Juniors
7,Stanislav Seleznyov,138,300,315,-322.5,315,190,205,212.5,212.5,282.5,-292.5,-292.5,282.5,810,125+,M,Станислав Селезнёв,1981,Single-ply,SBD,Juniors
1,Valentina Vermenyuk,43.3,130,137.5,142.5,142.5,70,75,-77.5,75,135,145,-155,145,362.5,44,F,Валентина Верменюк,1986,Single-ply,SBD,Juniors
2,Tatyana Koroleva,44,120,127.5,-132.5,127.5,52.5,-55,-55,52.5,120,130,135,135,315,44,F,Татьяна Королёва,1986,Single-ply,SBD,Juniors
3,Alena Nastyushenko,43.85,-110,110,115,115,-65,-70,70,70,105,115,117.5,117.5,302.5,44,F,Алена Настюшенко,1983,Single-ply,SBD,Juniors
4,Anna Moskaleva,43.6,105,-115,115,115,-45,45,-47.5,45,130,140,-142.5,140,300,44,F,Анна Москалева,1981,Single-ply,SBD,Juniors
5,Irina Kondrashova,43.55,115,-120,120,120,50,-55,-55,50,110,115,-120,115,285,44,F,Ирина Кондрашова,1988,Single-ply,SBD,Juniors
6,Yuliya Mukha,43.25,97.5,105,112.5,112.5,50,55,57.5,57.5,85,-92.5,92.5,92.5,262.5,44,F,Юлія Муха,1989,Single-ply,SBD,Juniors
7,Olga Pavlova,43.65,97.5,102.5,105,105,40,45,47.5,47.5,92.5,-100,100,100,252.5,44,F,Ольга Павлова,1987,Single-ply,SBD,Juniors
8,Svetlana Anoshina,41.6,87.5,-92.5,92.5,92.5,47.5,50,-52.5,50,102.5,107.5,-117.5,107.5,250,44,F,Светлана Аношина,1981,Single-ply,SBD,Juniors
9,Lyubov Kudryavtseva,42.95,95,-100,-100,95,37.5,-42.5,-42.5,37.5,95,-102.5,-102.5,95,227.5,44,F,Любовь Кудрявцева,1984,Single-ply,SBD,Juniors
10,Kristina Roman,43.8,90,-100,-100,90,-32.5,-35,35,35,90,100,-105,100,225,44,F,Кристина Роман,1990,Single-ply,SBD,Juniors
11,Ekaterina Shibalova,41.55,70,-75,-80,70,30,35,-37.5,35,80,90,-95,90,195,44,F,Екатерина Шибалова,1986,Single-ply,SBD,Juniors
DQ,Natalya Krikunova,42.3,132.5,137.5,-140,137.5,-67.5,-67.5,-67.5,,,,,,,44,F,Наталья Крикунова,1981,Single-ply,SBD,Juniors
1,Yana Zadorina,47.65,140,150,157.5,157.5,95,105,-112.5,105,120,127.5,132.5,132.5,395,48,F,Яна Задорина,1982,Single-ply,SBD,Juniors
2,Natalya Mazilova,48,140,147.5,152.5,152.5,70,75,-77.5,75,140,147.5,152.5,152.5,380,48,F,Наталья Мазилова,1986,Single-ply,SBD,Juniors
3,Marina Poduzova,47.85,140,-150,-150,140,65,70,-75,70,140,150,152.5,152.5,362.5,48,F,Марина Подузова,1985,Single-ply,SBD,Juniors
4,Yuliya Ostapenko #1,48,145,150,-155,150,62.5,65,-67.5,65,140,-147.5,-147.5,140,355,48,F,Юлия Остапенко,1988,Single-ply,SBD,Juniors
5,Natalia Salnikova,47.75,125,-132.5,135,135,65,-70,-70,65,125,130,-135,130,330,48,F,Наталья Сальникова,1986,Single-ply,SBD,Juniors
6,Natalya Volkova,47.55,130,-137.5,-137.5,130,70,75,-77.5,75,110,-120,-125,110,315,48,F,Наталья Волкова,1987,Single-ply,SBD,Juniors
7,Elena Serebryakova,47.65,120,125,127.5,127.5,62.5,-67.5,-67.5,62.5,115,120,122.5,122.5,312.5,48,F,Елена Серебрякова,1984,Single-ply,SBD,Juniors
8,Aleksandra Kuschiy,47.35,107.5,112.5,-115,112.5,52.5,-55,-55,52.5,130,132.5,-135,132.5,297.5,48,F,Александра Кущий,1981,Single-ply,SBD,Juniors
9,Anna Alatkina,47.1,115,-125,127.5,127.5,40,47.5,-52.5,47.5,105,115,-122.5,115,290,48,F,Анна Алаткина,1986,Single-ply,SBD,Juniors
10,Alena Zasorina,47.95,-100,100,-110,100,45,-50,50,50,-110,110,-125,110,260,48,F,Алена Засорина,1985,Single-ply,SBD,Juniors
DQ,Aliya Satpaeva,46.15,97.5,-102.5,-107.5,97.5,-55,-55,-55,,,,,,,48,F,Алия Сатпаева,1987,Single-ply,SBD,Juniors
1,Natalya Tokareva,51.6,170,-187.5,190,190,85,-90,90,90,155,-162.5,-162.5,155,435,52,F,Наталья Токарева,1984,Single-ply,SBD,Juniors
2,Aleksandra Chepugova,51.65,135,145,-150,145,70,75,-77.5,75,135,137.5,-142.5,137.5,357.5,52,F,Александра Чепугова,1984,Single-ply,SBD,Juniors
3,Ekaterina Shaynova,50.85,127.5,132.5,-135,132.5,65,70,-72.5,70,135,142.5,-147.5,142.5,345,52,F,Екатерина Шайнова,1981,Single-ply,SBD,Juniors
4,Irina Sergeeva,50.8,135,140,-145,140,57.5,-60,60,60,120,130,-137.5,130,330,52,F,Ирина Сергеева,1987,Single-ply,SBD,Juniors
5,Yuliana Dyakonova,51.05,135,-145,-150,135,60,65,-67.5,65,120,130,-137.5,130,330,52,F,Юлиана Дьяконова,1983,Single-ply,SBD,Juniors
6,Oksana Lisitskaya,51.1,115,125,-130,125,55,-60,-60,55,125,140,-150,140,320,52,F,Оксана Лисицкая,1983,Single-ply,SBD,Juniors
7,Darina Yaroslavskaya,51.85,105,112.5,-117.5,112.5,52,-57.5,-57.5,52,120,125,135,135,299.5,52,F,Дарина Ярославская,1985,Single-ply,SBD,Juniors
8,Tatyana Bashmanova,52,107.5,115,120,120,52.5,-57.5,57.5,57.5,107.5,112.5,115,115,292.5,52,F,Татьяна Башманова,1986,Single-ply,SBD,Juniors
9,Svetlana Turikova,50.45,-105,105,115,115,50,55,-57.5,55,110,120,-125,120,290,52,F,Светлана Турикова,1986,Single-ply,SBD,Juniors
10,Oksana Yureva,51.85,100,110,115,115,50,55,-57.5,55,110,120,-125,120,290,52,F,Оксана Юрьева,1984,Single-ply,SBD,Juniors
DQ,Anastasiya Samsonova,50.9,120,-127.5,130,130,-65,-65,-65,,,,,,,52,F,Анастасия Самсонова,1987,Single-ply,SBD,Juniors
1,Kira Pavlovskaya,55.25,-177.5,185,195,195,102.5,107.5,110,110,177.5,187.5,195,195,500,56,F,Кира Павловская,1983,Single-ply,SBD,Juniors
2,Anna Ryzhkova,53.4,170,180,185,185,82.5,-87.5,,82.5,162.5,170,,170,437.5,56,F,Анна Рыжкова,1986,Single-ply,SBD,Juniors
3,Irina Khasanova,56,155,165,-175,165,75,-80,80,80,-155,160,170,170,415,56,F,Ирина Хасанова,1987,Single-ply,SBD,Juniors
4,Ekaterina Nalobina,55.55,150,160,165,165,85,-90,-90,85,155,162.5,-165,162.5,412.5,56,F,Екатерина Налобина,1984,Single-ply,SBD,Juniors
5,Maria Chushchina,55.6,155,165,170,170,72.5,77.5,80,80,-160,160,-165,160,410,56,F,Мария Чущина,1985,Single-ply,SBD,Juniors
6,Anastasiya Lyubimova,55.6,-145,145,152.5,152.5,75,80,82.5,82.5,145,152.5,,152.5,387.5,56,F,Анастасия Любимова,1982,Single-ply,SBD,Juniors
7,Yulia Chistiakova,55.85,-150,150,-160,150,75,80,-85,80,122.5,132.5,-140,132.5,362.5,56,F,Юлия Чистякова,1989,Single-ply,SBD,Juniors
8,Viktoriya Poltoratskaya,55.8,-140,142.5,-150,142.5,80,-85,,80,135,,,135,357.5,56,F,Виктория Полторацкая,1981,Single-ply,SBD,Juniors
9,Kseniya Zobnina,55.35,112.5,122.5,130,130,55,57.5,-60,57.5,157.5,165,-167.5,165,352.5,56,F,Ксения Зобнина,1987,Single-ply,SBD,Juniors
10,Natalya Orlova,55.75,130,-140,140,140,62.5,70,72.5,72.5,130,-135,-135,130,342.5,56,F,Наталья Орлова,1986,Single-ply,SBD,Juniors
11,Irina Krasnoperova,55.7,127.5,135,137.5,137.5,60,62.5,65,65,110,117.5,-122.5,117.5,320,56,F,Ирина Красноперова,1986,Single-ply,SBD,Juniors
12,Yuliya Inyaeva,55.9,122.5,127,-132.5,127,52.5,57.5,-60,57.5,125,135,-140,135,319.5,56,F,Юлия Иняева,1982,Single-ply,SBD,Juniors
1,Natalya Igosheva,59.95,165,170,177.5,177.5,-115,115,117.5,117.5,160,170,180,180,475,60,F,Наталья Игошева,1981,Single-ply,SBD,Juniors
2,Elena Romadanova,60,170,175,-180,175,-110,110,-115,110,150,160,165,165,450,60,F,Елена Ромаданова,1981,Single-ply,SBD,Juniors
3,Tatyana Elistratova,59.25,145,152.5,160,160,100,105,107.5,107.5,160,167.5,-170,167.5,435,60,F,Татьяна Елистратова,1983,Single-ply,SBD,Juniors
4,Marina Bemova,59.15,160,170,175,175,72.5,77.5,-82.5,77.5,157.5,160,162.5,162.5,415,60,F,Марина Бемова,1981,Single-ply,SBD,Juniors
5,Ekaterina Makina,59.7,167.5,175,,175,-82.5,82.5,-90,82.5,155,-160,,155,412.5,60,F,Екатерина Макина,1986,Single-ply,SBD,Juniors
6,Elena Malykh,59.65,150,160,-165,160,75,80,-85,80,130,142.5,-147.5,142.5,382.5,60,F,Елена Малых,1983,Single-ply,SBD,Juniors
7,Mariya Davydova,60,125,130,-135,130,-45,47.5,-55,47.5,115,120,127.5,127.5,305,60,F,Мария Давыдова,1985,Single-ply,SBD,Juniors
DQ,Ulyana Deniskina,59.55,-130,-135,-135,,,,,,,,,,,60,F,Ульяна Денискина,1988,Single-ply,SBD,Juniors
1,Natalya Barybina,66.2,210,222.5,-227.5,222.5,125,130,135,135,210,217.5,-228.5,217.5,575,67.5,F,Наталья Барыбина,1983,Single-ply,SBD,Juniors
2,Anastasia Yakovleva,65.1,-220,220,-230,220,130,-135,-135,130,200,210,215,215,565,67.5,F,Анастасия Яковлева,1983,Single-ply,SBD,Juniors
3,Marina Mikhaylova,67.05,215,-225,-230,215,112.5,120,-122.5,120,185,195,-200,195,530,67.5,F,Марина Михайлова,1981,Single-ply,SBD,Juniors
4,Sofya Shtykova,66.7,180,190,-195,190,110,-120,120,120,180,-185,-185,180,490,67.5,F,Софья Штыкова,1982,Single-ply,SBD,Juniors
5,Marina Nikolaeva,66.85,160,175,182.5,182.5,95,105,-110,105,160,175,-180,175,462.5,67.5,F,Марина Николаева,1983,Single-ply,SBD,Juniors
6,Anna Valiullina,66.35,180,-185,-185,180,85,-92.5,-92.5,85,180,195,-205,195,460,67.5,F,Анна Валиуллина,1984,Single-ply,SBD,Juniors
7,Victoria Bedoidze,65.85,170,180,,180,85,90,-92.5,90,170,180,-190,180,450,67.5,F,Виктория Бедоидзе,1987,Single-ply,SBD,Juniors
8,Elena Podzina,65.6,150,160,165,165,87.5,92.5,95,95,160,170,175,175,435,67.5,F,Елена Подзина,1982,Single-ply,SBD,Juniors
9,Lyudmila Chechulina,67.25,165,175,185,185,82.5,-87.5,87.5,87.5,150,-162.5,162.5,162.5,435,67.5,F,Людмила Чечулина,1984,Single-ply,SBD,Juniors
10,Lyudmila Tsarkova,67.2,155,165,-167.5,165,82.5,90,92.5,92.5,160,-177.5,-177.5,160,417.5,67.5,F,Людмила Царькова,1981,Single-ply,SBD,Juniors
11,Irina Mostovaya,65.85,140,150,157.5,157.5,80,-85,85,85,125,-135,-135,125,367.5,67.5,F,Ирина Мостовая,1983,Single-ply,SBD,Juniors
12,Olga Ponomareva,67.4,127.5,135,140,140,70,-75,-75,70,135,-150,-150,135,345,67.5,F,Ольга Пономарева,1983,Single-ply,SBD,Juniors
1,Evgeniya Yudakova,74.6,200,210,220,220,100,110,-115,110,180,190,-200,190,520,75,F,Евгения Юдакова,1983,Single-ply,SBD,Juniors
2,Elena Didyk,70.25,190,200,-205,200,100,110,112.5,112.5,180,190,-195,190,502.5,75,F,Елена Дидык,1984,Single-ply,SBD,Juniors
3,Svetlana Kulaeva,69.85,180,195,200,200,100,-105,-105,100,180,-187.5,187.5,187.5,487.5,75,F,Светлана Кулаева,1984,Single-ply,SBD,Juniors
4,Yulia Goman,70.1,185,-195,195,195,95,100,-105,100,180,190,-200,190,485,75,F,Юлия Гоман,1984,Single-ply,SBD,Juniors
5,Anastasiya Ivanova,72.7,150,157.5,160,160,72.5,77.5,82.5,82.5,150,160,162.5,162.5,405,75,F,Анастасия Иванова,1986,Single-ply,SBD,Juniors
1,Irina Dergunova,75.25,180,195,-210,195,100,110,115,115,180,190,-200,190,500,82.5,F,Ирина Дергунова,1983,Single-ply,SBD,Juniors
2,Tamara Nekoshnova,82.5,155,165,175,175,-115,115,125,125,150,160,-165,160,460,82.5,F,Тамара Некошнова,1982,Single-ply,SBD,Juniors
3,Irina Kashuba,76.4,130,140,-150,140,-85,85,90,90,160,170,-180,170,400,82.5,F,Ирина Кашуба,1982,Single-ply,SBD,Juniors
4,Elena Gaysina,75.55,140,150,157.5,157.5,62.5,-65,65,65,120,-130,-130,120,342.5,82.5,F,Елена Гайсина,1983,Single-ply,SBD,Juniors
5,Yuliya Fedorova,76.3,-100,100,-110,100,45,-50,-50,45,120,130,135,135,280,82.5,F,Юлия Федорова,1986,Single-ply,SBD,Juniors
DQ,Lyudmila Protchenko,79.75,155,170,180,180,-75,-80,-85,,,,,,,82.5,F,Людмила Протченко,1986,Single-ply,SBD,Juniors
1,Yulia Kurina,84.65,255,272.5,277.5,277.5,135,142.5,-145,142.5,212.5,225,230,230,650,90,F,Юлия Курина,1981,Single-ply,SBD,Juniors
2,Erin Shel-Fetengof,86.3,190,200,-210,200,-90,90,-100,90,160,170,-180,170,460,90,F,Эрин Шель-Фетенгоф,1983,Single-ply,SBD,Juniors
3,Svetlana Shiganova,85.65,100,-110,110,110,45,50,55,55,110,120,-125,120,285,90,F,Светлана Шиганова,1984,Single-ply,SBD,Juniors
1,Tatyana Ilyina,93,-190,190,,190,110,112.5,-115,112.5,200,205,210,210,512.5,90+,F,Татьяна Ильина,1982,Single-ply,SBD,Juniors
2,Natalya Savinykh,90.1,200,210,-212.5,210,-100,100,105,105,180,190,-192.5,190,505,90+,F,Наталья Савиных,1985,Single-ply,SBD,Juniors
3,Alexandra Rogova,94.5,140,150,157.5,157.5,85,90,95,95,140,150,160,160,412.5,90+,F,Александра Рогова,1984,Single-ply,SBD,Juniors
