Division,WeightClassKg,Place,Name,Team,BodyweightKg,Best3SquatKg,Best3BenchKg,Best3DeadliftKg,TotalKg,Equipment,Event,Sex
Girls,44.23,1,LeighAnn Sitzman,Decatur,42.37,92.99,43.09,70.31,206.38,Single-ply,SBD,F
Girls,44.23,2,Julie Rico,Kennedale,39.64,77.11,34.02,86.18,197.31,Single-ply,SBD,F
Girls,44.23,3,Isabelle Castillo,Castleberry,42.37,70.31,36.29,88.45,195.04,Single-ply,SBD,F
Girls,47.85,1,Beatriz Martinez,Mineral Wells,46.99,90.72,43.09,106.59,240.4,Single-ply,SBD,F
Girls,47.85,2,Carolina Dominguez,Castleberry,47.72,83.91,56.7,90.72,231.33,Single-ply,SBD,F
Girls,47.85,3,Janie Aguero,Mesquite Horn,46.95,68.04,34.02,74.84,176.9,Single-ply,SBD,F
Girls,51.94,1,Nancy Martinez,Decatur,51.17,117.93,56.7,142.88,317.51,Single-ply,SBD,F
Girls,51.94,2,Alexis Buentello,Decatur,50.35,99.79,58.97,92.99,251.74,Single-ply,SBD,F
Girls,51.94,3,Kenya Gomez,Bridgeport,49.71,74.84,47.63,92.99,215.46,Single-ply,SBD,F
Girls,56.02,1,Ruth Mitchell #1,Kennedale,55.61,111.13,63.5,122.47,297.1,Single-ply,SBD,F
Girls,56.02,2,Valerie Pina,Fort Worth Diamond Hill-Jarvis,55.79,104.33,47.63,122.47,274.42,Single-ply,SBD,F
Girls,56.02,3,Macie Dickerson,Decatur,53.16,113.4,45.36,104.33,263.08,Single-ply,SBD,F
Girls,56.02,4,Melanie Rodriguez,Mineral Wells,53.8,65.77,31.75,83.91,181.44,Single-ply,SBD,F
Girls,56.02,5,Paige Gopffarth,Mineral Wells,55.16,61.23,43.09,74.84,179.17,Single-ply,SBD,F
Girls,60.1,1,Paxtynn Booher,Kennedale,59.96,97.52,54.43,108.86,260.82,Single-ply,SBD,F
Girls,60.1,2,Joana Rodriguez,Fort Worth Diamond Hill-Jarvis,59.15,95.25,43.09,97.52,235.87,Single-ply,SBD,F
Girls,60.1,3,Juanita Perez,Bridgeport,58.51,97.52,43.09,92.99,233.6,Single-ply,SBD,F
Girls,60.1,4,Avery Quarles,Decatur,57.52,88.45,38.56,97.52,224.53,Single-ply,SBD,F
Girls,67.36,1,Rita Spirrison,Kennedale,66.32,131.54,70.31,108.86,310.71,Single-ply,SBD,F
Girls,67.36,2,Caren Pena,Kennedale,66.68,136.08,58.97,113.4,308.44,Single-ply,SBD,F
Girls,67.36,3,Cassie Cobb,Lake Worth,62.96,108.86,49.9,113.4,272.16,Single-ply,SBD,F
Girls,67.36,4,Arlene Sanchez,Castleberry,66.13,97.52,49.9,117.93,265.35,Single-ply,SBD,F
Girls,67.36,5,Emily Dobbins,Lake Worth,66.77,99.79,52.16,106.59,258.55,Single-ply,SBD,F
Girls,67.36,6,Lrene Lopez,Decatur,63.78,102.06,49.9,102.06,254.01,Single-ply,SBD,F
Girls,67.36,7,Sabina Torres,Bridgeport,61.14,95.25,49.9,102.06,247.21,Single-ply,SBD,F
Girls,67.36,8,Mia Macias,Bridgeport,64.5,97.52,43.09,97.52,238.14,Single-ply,SBD,F
Girls,67.36,9,Anahi Oliva,Decatur,61.87,70.31,38.56,86.18,195.04,Single-ply,SBD,F
Girls,75.07,1,Angel Beavers,Mineral Wells,72.3,145.15,58.97,136.08,340.19,Single-ply,SBD,F
Girls,75.07,2,Alissa Ivanoski,Mineral Wells,75.02,115.67,47.63,117.93,281.23,Single-ply,SBD,F
Girls,75.07,3,RayAnn Schooling,Decatur,73.21,102.06,56.7,115.67,274.42,Single-ply,SBD,F
Girls,75.07,4,Darlyann Arriaga,Bridgeport,67.95,102.06,56.7,90.72,249.48,Single-ply,SBD,F
Girls,75.07,5,Marissa McDuff,Decatur,67.77,88.45,56.7,92.99,238.14,Single-ply,SBD,F
Girls,75.07,6,Reghan Thurston,Mesquite Horn,70.49,86.18,49.9,102.06,238.14,Single-ply,SBD,F
Girls,75.07,7,Hope Arnold,Decatur,69.67,77.11,29.48,77.11,183.7,Single-ply,SBD,F
Girls,82.33,1,Sindi Ortiz,Bridgeport,79.92,151.95,61.23,136.08,349.27,Single-ply,SBD,F
Girls,82.33,2,Lizbeth Olmos,Bridgeport,78.74,122.47,58.97,122.47,303.91,Single-ply,SBD,F
Girls,82.33,3,Kehsslyn Henderson,Kennedale,75.84,113.4,54.43,124.74,292.57,Single-ply,SBD,F
Girls,82.33,4,Catelynn Black,Decatur,77.2,95.25,49.9,104.33,249.48,Single-ply,SBD,F
Girls,82.33,5,Carly Arwood,Mineral Wells,79.11,102.06,45.36,102.06,249.48,Single-ply,SBD,F
Girls,82.33,6,Lexie Benge,Kennedale,76.11,102.06,52.16,92.99,247.21,Single-ply,SBD,F
Girls,90.04,1,Brianna Sims,Castleberry,88.27,156.49,99.79,172.37,428.64,Single-ply,SBD,F
Girls,90.04,2,Kara Harper,Decatur,84.46,138.35,65.77,131.54,335.66,Single-ply,SBD,F
Girls,90.04,3,Kaela Roberds,Decatur,87.45,122.47,72.57,108.86,303.91,Single-ply,SBD,F
Girls,90.04,4,Jaalah Puryear,Lake Worth,82.55,104.33,56.7,129.27,290.3,Single-ply,SBD,F
Girls,90.04,5,Nadia Arriaga,Bridgeport,85.64,108.86,58.97,104.33,272.16,Single-ply,SBD,F
Girls,100.02,1,Yadira Abreu,Castleberry,97.61,129.27,83.91,149.69,362.87,Single-ply,SBD,F
Girls,100.02,2,Desiree Garcia,Mineral Wells,94.62,133.81,65.77,136.08,335.66,Single-ply,SBD,F
Girls,100.02,3,Sophia Perez,Lake Worth,97.34,149.69,52.16,127.01,328.85,Single-ply,SBD,F
Girls,100.02,4,Lizeth Olmos,Bridgeport,92.71,124.74,65.77,99.79,290.3,Single-ply,SBD,F
Girls,100.02,5,Celeste Sanchez,Castleberry,98.07,102.06,52.16,120.2,274.42,Single-ply,SBD,F
Girls,117.71,1,Brenda Sanchez,Fort Worth Diamond Hill-Jarvis,105.32,167.83,70.31,165.56,403.7,Single-ply,SBD,F
Girls,117.71+,1,Erlyna Morgan,Kennedale,118.12,231.33,95.25,185.97,512.56,Single-ply,SBD,F
Girls,117.71+,2,Andrea Butler,Mineral Wells,131.54,133.81,58.97,127.01,319.78,Single-ply,SBD,F
