Division,WeightClassKg,Place,Name,Team,BodyweightKg,Best3SquatKg,Best3BenchKg,Best3DeadliftKg,TotalKg,Equipment,Event,Sex
Girls,44.23,1,April Phillips,Belton,43.73,45.36,22.68,68.04,136.08,Single-ply,SBD,F
Girls,44.23,2,Karla Esquivel,Waco Midway,36.92,34.02,20.41,34.02,88.45,Single-ply,SBD,F
Girls,47.85,1,Mirella Jaimes,Belton,47.17,117.93,52.16,122.47,292.57,Single-ply,SBD,F
Girls,47.85,2,Cierra Colbert,Copperas Cove,47.08,79.38,45.36,108.86,233.6,Single-ply,SBD,F
Girls,47.85,3,Amanda Hubbard,Moody,47.36,81.65,47.63,90.72,219.99,Single-ply,SBD,F
Girls,47.85,4,Mia Garcia,Belton,47.63,79.38,38.56,86.18,204.12,Single-ply,SBD,F
Girls,47.85,5,Caroline Darling,Copperas Cove,47.26,72.57,34.02,88.45,195.04,Single-ply,SBD,F
Girls,47.85,6,Kathryn Blevins,Belton,44.54,43.09,27.22,52.16,122.47,Single-ply,SBD,F
Girls,47.85,DQ,Chanel Taylor,Copperas Cove,47.72,58.97,,,,Single-ply,SBD,F
Girls,51.94,1,Pashence Barrera,Moody,51.89,108.86,63.5,104.33,276.69,Single-ply,SBD,F
Girls,51.94,2,Lexi Smock,Waco Midway,49.71,92.99,49.9,104.33,247.21,Single-ply,SBD,F
Girls,51.94,3,Maria Martinez,Belton,51.89,95.25,34.02,108.86,238.14,Single-ply,SBD,F
Girls,51.94,4,Samantha Parlato,Copperas Cove,50.35,83.91,40.82,92.99,217.72,Single-ply,SBD,F
Girls,51.94,5,Aniessa Vega,Copperas Cove,50.17,79.38,34.02,86.18,199.58,Single-ply,SBD,F
Girls,51.94,6,Allison Contreras,Waco Midway,50.44,70.31,34.02,77.11,181.44,Single-ply,SBD,F
Girls,51.94,7,Jamie Merriam,Belton,51.8,65.77,29.48,86.18,181.44,Single-ply,SBD,F
Girls,56.02,1,Jayce Cummings,Moody,55.97,106.59,49.9,108.86,265.35,Single-ply,SBD,F
Girls,56.02,2,Amber Boyd,Copperas Cove,52.44,92.99,40.82,120.2,254.01,Single-ply,SBD,F
Girls,56.02,3,Alissa Sturdy,Copperas Cove,53.8,88.45,38.56,99.79,226.8,Single-ply,SBD,F
Girls,56.02,4,Brittney Hebert,Belton,55.34,81.65,40.82,95.25,217.72,Single-ply,SBD,F
Girls,56.02,5,Erica Garcia,Temple,54.25,70.31,40.82,102.06,213.19,Single-ply,SBD,F
Girls,56.02,6,Cecilia Gomez,Temple,54.61,72.57,40.82,95.25,208.65,Single-ply,SBD,F
Girls,56.02,7,Elizabeth Davis,Copperas Cove,54.25,77.11,34.02,86.18,197.31,Single-ply,SBD,F
Girls,60.1,1,Dana Young,Belton,59.24,113.4,58.97,122.47,294.84,Single-ply,SBD,F
Girls,60.1,2,Darian Gibson,Copperas Cove,59.69,102.06,49.9,95.25,247.21,Single-ply,SBD,F
Girls,60.1,3,Alexis Foret,Copperas Cove,58.97,88.45,40.82,113.4,242.67,Single-ply,SBD,F
Girls,60.1,4,Sierra Brown,Copperas Cove,59.69,95.25,47.63,97.52,240.4,Single-ply,SBD,F
Girls,60.1,5,Chassie Fischer,Moody,57.06,86.18,49.9,95.25,231.33,Single-ply,SBD,F
Girls,60.1,6,Michaela Curry,Belton,56.79,97.52,40.82,90.72,229.06,Single-ply,SBD,F
Girls,60.1,7,Logan Eidson,Belton,58.24,81.65,43.09,97.52,222.26,Single-ply,SBD,F
Girls,60.1,8,Madelyn Guerra,Temple,59.06,79.38,34.02,81.65,195.04,Single-ply,SBD,F
Girls,60.1,9,Emma Foster,Moody,58.15,65.77,38.56,74.84,179.17,Single-ply,SBD,F
Girls,67.36,1,Kiana Hayes,Moody,65.68,108.86,54.43,140.61,303.91,Single-ply,SBD,F
Girls,67.36,2,Jayda Fullbright,Waco Midway,66.04,115.67,52.16,124.74,292.57,Single-ply,SBD,F
Girls,67.36,3,Lauren Eckles,Waco Midway,66.59,122.47,52.16,106.59,281.23,Single-ply,SBD,F
Girls,67.36,4,Merry Francis,Belton,66.41,104.33,45.36,102.06,251.74,Single-ply,SBD,F
Girls,67.36,5,Brittni Castillo,Belton,67.22,92.99,45.36,111.13,249.48,Single-ply,SBD,F
Girls,67.36,6,Alexus Whitaker,Waco Midway,65.68,92.99,49.9,99.79,242.67,Single-ply,SBD,F
Girls,67.36,7,Kaylyn Kirkpatrick,Copperas Cove,66.22,92.99,47.63,102.06,242.67,Single-ply,SBD,F
Girls,67.36,8,Isabella Donoso,Temple,66.59,97.52,34.02,106.59,238.14,Single-ply,SBD,F
Girls,67.36,9,Lasha Wineinger,Waco Midway,61.87,83.91,47.63,99.79,231.33,Single-ply,SBD,F
Girls,67.36,10,Aspen Fisher,Copperas Cove,66.77,86.18,47.63,95.25,229.06,Single-ply,SBD,F
Girls,67.36,11,Hope Davis,Temple,63.59,86.18,40.82,90.72,217.72,Single-ply,SBD,F
Girls,67.36,12,Camryn Ward,Belton,60.6,65.77,38.56,106.59,210.92,Single-ply,SBD,F
Girls,67.36,13,Alexis Barnett,Belton,62.87,86.18,36.29,86.18,208.65,Single-ply,SBD,F
Girls,67.36,14,Caroline Arthur,Temple,65.05,68.04,29.48,97.52,195.04,Single-ply,SBD,F
Girls,67.36,15,Addison Todd,Belton,65.32,72.57,34.02,83.91,190.51,Single-ply,SBD,F
Girls,67.36,16,Carleigh Dickson,Temple,67.13,61.23,43.09,81.65,185.97,Single-ply,SBD,F
Girls,67.36,17,Paige Wilson,Belton,64.68,68.04,36.29,77.11,181.44,Single-ply,SBD,F
Girls,75.07,1,Courtney Schiller,Holland,72.39,108.86,63.5,131.54,303.91,Single-ply,SBD,F
Girls,75.07,2,Raelynn Morris-Utu,Copperas Cove,73.48,108.86,54.43,129.27,292.57,Single-ply,SBD,F
Girls,75.07,3,Morgan Callin,Belton,73.66,113.4,52.16,127.01,292.57,Single-ply,SBD,F
Girls,75.07,4,Kianna Childers,Copperas Cove,70.4,111.13,56.7,120.2,288.03,Single-ply,SBD,F
Girls,75.07,5,Samantha Blevins,Copperas Cove,70.22,108.86,52.16,113.4,274.42,Single-ply,SBD,F
Girls,75.07,6,Cheyenne Wallace,Temple,72.76,104.33,45.36,113.4,263.08,Single-ply,SBD,F
Girls,75.07,7,Anna Hinojosa,Moody,67.4,104.33,40.82,111.13,256.28,Single-ply,SBD,F
Girls,75.07,8,Pyton Strouse,Waco Midway,73.3,83.91,56.7,113.4,254.01,Single-ply,SBD,F
Girls,75.07,9,Samantha Cooper #2,Belton,71.49,97.52,43.09,108.86,249.48,Single-ply,SBD,F
Girls,75.07,10,Allison Janke,Holland,73.75,65.77,63.5,83.91,213.19,Single-ply,SBD,F
Girls,75.07,DQ,Kyli Boyd,Copperas Cove,74.84,,,,,Single-ply,SBD,F
Girls,82.33,1,Danielle Garcia,Copperas Cove,79.47,117.93,54.43,120.2,292.57,Single-ply,SBD,F
Girls,82.33,2,Antanese Kinnard,Copperas Cove,81.47,104.33,58.97,111.13,274.42,Single-ply,SBD,F
Girls,90.04,1,Beth Bounds,Moody,86.64,136.08,70.31,136.08,342.46,Single-ply,SBD,F
Girls,90.04,2,Abbey Dolan,Belton,86.82,136.08,63.5,138.35,337.93,Single-ply,SBD,F
Girls,90.04,3,Macy Gerry,Waco Midway,88.54,113.4,54.43,131.54,299.37,Single-ply,SBD,F
Girls,90.04,4,Brittany Hernandez,Moody,86.55,115.67,45.36,120.2,281.23,Single-ply,SBD,F
Girls,90.04,5,Alicia Goodridge,Belton,88.27,106.59,45.36,127.01,278.96,Single-ply,SBD,F
Girls,90.04,6,Aaliyah Petty,Waco Midway,85,111.13,54.43,106.59,272.16,Single-ply,SBD,F
Girls,90.04,7,Kaitlin Williamson,Moody,84.28,117.93,45.36,102.06,265.35,Single-ply,SBD,F
Girls,90.04,8,Danessa Ruiz,Belton,88.72,102.06,54.43,108.86,265.35,Single-ply,SBD,F
Girls,90.04,9,Yulissa Recio,Moody,84.55,108.86,47.63,95.25,251.74,Single-ply,SBD,F
Girls,100.02,1,Chloe Lewis,Belton,94.44,149.69,79.38,158.76,387.82,Single-ply,SBD,F
Girls,100.02,2,Antonia Rodriguez,Copperas Cove,99.06,140.61,68.04,154.22,362.87,Single-ply,SBD,F
Girls,100.02,3,Maria Avila,Temple,95.35,167.83,56.7,133.81,358.34,Single-ply,SBD,F
Girls,100.02,4,Allison Cox,Copperas Cove,95.62,122.47,63.5,129.27,315.25,Single-ply,SBD,F
Girls,100.02+,1,Olivia de la Cruz,Copperas Cove,106.59,188.24,74.84,163.29,426.38,Single-ply,SBD,F
Girls,100.02+,2,Kaitlynn King,Belton,104.69,136.08,68.04,127.01,331.12,Single-ply,SBD,F
Girls,100.02+,3,Ashlyn Medina,Temple,118.48,88.45,49.9,124.74,263.08,Single-ply,SBD,F
