Tested,Equipment,Place,Name,Division,BirthYear,BodyweightKg,Bench1Kg,Bench2Kg,Bench3Kg,Best3BenchKg,Bench4Kg,WeightClassKg,Sex,CyrillicName,Squat1Kg,Squat2Kg,Squat3Kg,Best3SquatKg,Deadlift1Kg,Deadlift2Kg,Deadlift3Kg,Best3DeadliftKg,TotalKg,Event
No,Raw,1,Mariya Minibaeva,Pro Youth,1999,43.2,30,35,-40,35,,44,F,Мария Минибаева,,,,,,,,,35,B
No,Raw,1,Natalya Lovtsova,Pro Open,1986,70.95,102.5,-107.5,-107.5,102.5,,75,F,Наталья Ловцова,,,,,,,,,102.5,B
No,Raw,1,Natalya Medvedeva,Pro Juniors 20-23,1987,77,55,60,65,65,,82.5,F,Наталья Медведева,,,,,,,,,65,B
No,Raw,1,Elena Sheverdina,Pro Open,1968,75.95,120,125,130,130,-133,82.5,F,Елена Шевердина,,,,,,,,,130,B
No,Raw,1,Elena Sheverdina,Pro Masters 40-44,1968,75.95,120,125,130,130,-133,82.5,F,Елена Шевердина,,,,,,,,,130,B
No,Raw,1,Pavel Nekrasov,Pro Youth,2001,29.3,25,30,-32.5,30,,52,M,Павел Некрасов,,,,,,,,,30,B
No,Raw,1,Dmitriy Davydov,Pro Juniors 20-23,1987,55.6,92.5,97.5,100,100,,56,M,Дмитрий Давыдов,,,,,,,,,100,B
No,Raw,1,Anton Noskov,Pro Teen 16-17,1993,60,-85,90,-95,90,,60,M,Антон Носков,,,,,,,,,90,B
No,Raw,1,Aleksandr Babkin,Pro Teen 16-17,1994,66.1,90,95,-100,95,,67.5,M,Александр Бабкин,,,,,,,,,95,B
No,Raw,1,Semen Filyakin,Pro Teen 18-19,1991,66.5,110,115,-122.5,115,,67.5,M,Семён Филякин,,,,,,,,,115,B
No,Raw,1,Vladimir Ustinov,Pro Open,1986,67.2,140,147.5,152.5,152.5,,67.5,M,Владимир Устинов,,,,,,,,,152.5,B
No,Raw,1,Aleksandr Levin,Pro Teen 16-17,1994,74.2,120,130,-140,130,,75,M,Александр Левин,,,,,,,,,130,B
No,Raw,1,Pavel Berezin,Pro Juniors 20-23,1987,71.2,120,-130,-145,120,,75,M,Павел Березин,,,,,,,,,120,B
No,Raw,1,Maksim Kryukov,Pro Open,1985,73.7,147.5,155,160,160,,75,M,Максим Крюков,,,,,,,,,160,B
No,Raw,2,Dmitriy Volkov,Pro Open,1982,68.1,-140,-140,140,140,,75,M,Дмитрий Волков,,,,,,,,,140,B
No,Raw,3,Ilya Ilinykh,Pro Open,1977,71.7,135,-145,-145,135,,75,M,Илья Ильиных,,,,,,,,,135,B
No,Raw,4,Roman Shamrikov,Pro Open,1981,73.1,110,115,-120,115,,75,M,Роман Шамриков,,,,,,,,,115,B
No,Raw,1,Gennadiy Pereladov,Pro Masters 70-74,1939,72,85,90,-95,90,,75,M,Геннадий Переладов,,,,,,,,,90,B
No,Raw,1,Danil Shagin,Pro Juniors 20-23,1988,81.95,160,167.5,-172.5,167.5,,82.5,M,Данил Шагин,,,,,,,,,167.5,B
No,Raw,1,Aleksandr Alyaev,Pro Open,1984,77.45,-160,160,177.5,177.5,,82.5,M,Александр Аляев,,,,,,,,,177.5,B
No,Raw,2,Dmitriy Kukharenko,Pro Open,1969,80.2,170,175,-180,175,,82.5,M,,,,,,,,,,175,B
No,Raw,3,Roman Lepeshkin,Pro Open,1978,81.05,160,172.5,-177.5,172.5,,82.5,M,Роман Лепешкин,,,,,,,,,172.5,B
No,Raw,4,Denis Maslakov,Pro Open,1982,79.3,155,165,-167.5,165,,82.5,M,Денис Маслаков,,,,,,,,,165,B
No,Raw,5,Vladimir Borisov,Pro Open,1981,77.4,155,160,-165,160,,82.5,M,Владимир Борисов,,,,,,,,,160,B
No,Raw,6,Konstantin Kuznetsov,Pro Open,1983,81.6,-147.5,150,157.5,157.5,,82.5,M,Константин Кузнецов,,,,,,,,,157.5,B
No,Raw,7,Yuriy Reshetnikov,Pro Open,1985,80.95,145,155,-157.5,155,,82.5,M,Юрий Решетников,,,,,,,,,155,B
No,Raw,8,Stanislav Dmitriev,Pro Open,1979,82.35,137.5,145,-150,145,,82.5,M,Станислав Дмитриев,,,,,,,,,145,B
No,Raw,9,Sergey Kuznetsov,Pro Open,1975,76.3,125,130,140,140,,82.5,M,Сергей Кузнецов,,,,,,,,,140,B
No,Raw,1,Dmitriy Kukharenko,Pro Masters 40-44,1969,80.2,170,175,-180,175,,82.5,M,,,,,,,,,,175,B
No,Raw,1,Svyatoslav Gaisin,Pro Juniors 20-23,1989,89.5,210,215,220,220,,90,M,Святослав Гайсин,,,,,,,,,220,B
No,Raw,1,Svyatoslav Gaisin,Pro Open,1989,89.5,210,215,220,220,,90,M,Святослав Гайсин,,,,,,,,,220,B
No,Raw,2,Aleksey Ponosov,Pro Open,1983,89.05,187.5,195,200,200,,90,M,Алексей Поносов,,,,,,,,,200,B
No,Raw,3,Sergey Panin,Pro Open,1975,87.5,190,197.5,-200,197.5,,90,M,Сергей Панин,,,,,,,,,197.5,B
No,Raw,4,Gennadiy Khvan,Pro Open,1958,88.8,180,,195,195,,90,M,,,,,,,,,,195,B
No,Raw,5,Anatoliy Alyaev,Pro Open,1984,88.8,175,-185,-185,175,,90,M,Анатолий Аляев,,,,,,,,,175,B
No,Raw,6,Aleksandr Baranov,Pro Open,1985,87.15,150,155,-162.5,155,,90,M,Александр Баранов,,,,,,,,,155,B
No,Raw,1,Eduard Pershin,Pro Open,1979,88.9,180,185,192.5,192.5,-197.5,90,M,Эдуард Першин,,,,,,,,,192.5,B
No,Raw,2,Sergey Stelmashenko,Pro Masters 40-44,1965,87.15,160,170,-180,170,,90,M,Сергей Стельмашенко,,,,,,,,,170,B
No,Raw,3,Aleksandr Fedorov,Pro Masters 40-44,1968,88.55,135,142.5,-150,142.5,,90,M,Александр Федоров,,,,,,,,,142.5,B
No,Raw,4,Aleksandr Zhilin,Pro Masters 40-44,1965,86.65,125,130,-137.5,130,,90,M,Александр Жилин,,,,,,,,,130,B
No,Raw,1,Gennadiy Khvan,Pro Masters 50-54,1958,88.8,180,,195,195,,90,M,,,,,,,,,,195,B
No,Raw,2,Vladimir Kopchuk,Pro Masters 50-54,1957,88.25,110,120,130,130,,90,M,Владимир Копчук,,,,,,,,,130,B
No,Raw,1,Evgeniy Basov,Pro Masters 55-59,1955,84.4,110,120,-127.5,120,,90,M,Евгений Басов,,,,,,,,,120,B
No,Raw,1,Valeriy Nugumanov,Pro Masters 70-74,1939,89.65,115,120,,120,,90,M,Валерий Нугуманов,,,,,,,,,120,B
No,Raw,1,Ivan Minko,Pro Juniors 20-23,1988,96.15,175,185,-195,185,,100,M,Иван Минко,,,,,,,,,185,B
No,Raw,1,Ruslan Khakimyanov,Pro Open,1977,92.65,-180,185,195,195,-197.5,100,M,Руслан Хакимьянов,,,,,,,,,195,B
No,Raw,2,Aleksandr Prozorov,Pro Open,1973,99.05,-195,-195,195,195,,100,M,Александр Прозоров,,,,,,,,,195,B
No,Raw,3,Denis Chernyshev,Pro Open,1985,100,190,-195,-195,190,,100,M,Денис Чернышев,,,,,,,,,190,B
No,Raw,4,Aleksey Yakimov,Pro Open,1976,96.55,-172.5,-180,180,180,,100,M,Алексей Якимов,,,,,,,,,180,B
No,Raw,5,Artem Yakovenko,Pro Open,1972,91,-160,-160,170,170,,100,M,Артем Яковенко,,,,,,,,,170,B
No,Raw,6,Maksim Sveyko,Pro Open,1979,97.05,170,-175,-175,170,,100,M,Максим Свейко,,,,,,,,,170,B
No,Raw,7,Dmitriy Zhukov,Pro Open,1976,92.4,155,-162.5,-162.5,155,,100,M,Дмитрий Жуков,,,,,,,,,155,B
No,Raw,1,Aleksandr Gorshkov,Pro Masters 40-44,1967,98.7,185,-195,-195,185,,100,M,Александр Горшков,,,,,,,,,185,B
No,Raw,1,Aleksandr Babkin,Pro Masters 55-59,1955,94.6,120,130,-135,130,,100,M,Александр Бабкин,,,,,,,,,130,B
No,Raw,1,Vladimir Bolshov,Pro Masters 60-64,1947,94.55,130,140,,140,,100,M,Владимир Большов,,,,,,,,,140,B
No,Raw,1,Oleg Saydentsal,Pro Open,1975,107.1,230,240,-243,240,,110,M,Олег Сайденцаль,,,,,,,,,240,B
No,Raw,2,Stanislav Dmitryuk,Pro Open,1975,107,210,220,227.5,227.5,,110,M,Станислав Димитрюк,,,,,,,,,227.5,B
No,Raw,3,Konstantin Bobrov,Pro Open,1957,108.9,200,210,-212.5,210,,110,M,Константин Бобров,,,,,,,,,210,B
No,Raw,4,Roman Shevelev,Pro Open,1976,109.3,195,202.5,205,205,,110,M,Роман Шевелев,,,,,,,,,205,B
No,Raw,5,Dmitriy Bal,Pro Open,1974,109.2,180,190,-202.5,190,,110,M,Дмитрий Баль,,,,,,,,,190,B
No,Raw,6,Aleksey Melnik,Pro Open,1977,100.6,175,180,185,185,,110,M,Алексей Мельник,,,,,,,,,185,B
No,Raw,7,Dmitriy Bubnov,Pro Open,1973,109.4,175,185,-200,185,,110,M,Дмитрий Бубнов,,,,,,,,,185,B
No,Raw,8,Mikhail Fisunov,Pro Open,1970,104.7,170,177.5,180,180,,110,M,,,,,,,,,,180,B
No,Raw,9,Evgeniy Pozdin,Pro Open,1981,103.5,165,170,-175,170,,110,M,Евгений Поздин,,,,,,,,,170,B
No,Raw,1,Aleksey Kozlov #1,Pro Masters 40-44,1970,101.6,175,180,185,185,-190,110,M,Алексей Козлов,,,,,,,,,185,B
No,Raw,2,Mikhail Fisunov,Pro Masters 40-44,1970,104.7,170,177.5,180,180,,110,M,,,,,,,,,,180,B
No,Raw,1,Sergey Kudinov,Pro Masters 45-49,1963,108.45,180,190,-195,190,,110,M,Сергей Кудинов,,,,,,,,,190,B
No,Raw,2,Andrey Tachanov,Pro Masters 45-49,1964,109.95,180,185,190,190,192.5,110,M,Андрей Тачанов,,,,,,,,,190,B
No,Raw,3,Aleksandr Vakhrushev,Pro Masters 45-49,1962,108.3,165,172.5,-180,172.5,,110,M,Александр Вахрушев,,,,,,,,,172.5,B
No,Raw,1,Viktor Pozdnyakov,Pro Masters 50-54,1958,107.5,170,180,190,190,,110,M,Виктор Поздняков,,,,,,,,,190,B
No,Raw,1,Andrey Ovechkin,Pro Open,1979,116.5,200,215,-225,215,,125,M,Андрей Овечкин,,,,,,,,,215,B
No,Raw,2,Ivan Regulyarnyy,Pro Open,1984,111.15,175,185,-190,185,,125,M,Иван Регулярный,,,,,,,,,185,B
No,Raw,1,Sergey Kirillov,Pro Masters 45-49,1964,117.25,170,180,-195,180,,125,M,Сергей Кириллов,,,,,,,,,180,B
No,Raw,2,Maksim Vanin,Pro Masters 45-49,1963,118,145,155,165,165,,125,M,Максим Ванин,,,,,,,,,165,B
No,Raw,1,Aleksandr Sichev,Pro Masters 50-54,1960,111.7,-150,155,165,165,,125,M,Александр Сычев,,,,,,,,,165,B
No,Raw,1,Fedor Korolev,Pro Open,1980,128.6,-230,230,-240,230,,140,M,Федор Королев,,,,,,,,,230,B
No,Raw,2,Sergey Kolesnichenko,Pro Open,1979,137.15,-200,200,205,205,,140,M,Сергей Колесниченко,,,,,,,,,205,B
No,Raw,3,Nikolay Schukin,Pro Open,1974,131.45,160,-170,-175,160,,140,M,Николай Щукин,,,,,,,,,160,B
No,Raw,1,Roman Polyakov,Pro Open,1975,156.15,230,250,-270,250,,140+,M,Роман Поляков,,,,,,,,,250,B
No,Multi-ply,1,Anastasiya Amelina,Pro Juniors 20-23,1988,58.8,92.5,-102.5,-102.5,92.5,,60,F,Анастасия Амелина,,,,,,,,,92.5,B
No,Multi-ply,1,Elena Tokareva,Pro Juniors 20-23,1988,67.2,-77.5,77.5,-82.5,77.5,,67.5,F,Елена Токарева,,,,,,,,,77.5,B
No,Multi-ply,1,Svetlana Vakueva,Pro Open,1973,66.5,87.5,-92.5,92.5,92.5,,67.5,F,Светлана Вакуева,,,,,,,,,92.5,B
No,Multi-ply,DQ,Natalya Medvedeva,Pro Juniors 20-23,1987,77,-70,-77.5,-77.5,,,82.5,F,Наталья Медведева,,,,,,,,,,B
No,Multi-ply,1,Yulia Medvedeva,Pro Open,1979,79.5,177.5,183,-200,183,,82.5,F,Юлия Медведева,,,,,,,,,183,B
No,Multi-ply,1,Semen Paley,Pro Youth,1999,37.95,35,40,42.5,42.5,,52,M,Семен Палей,,,,,,,,,42.5,B
No,Multi-ply,1,Danil Bulgakov,Pro Juniors 20-23,1989,56,115,125,-130.5,125,,56,M,Данил Булгаков,,,,,,,,,125,B
No,Multi-ply,1,Danil Bulgakov,Pro Open,1989,56,115,125,-130.5,125,,56,M,Данил Булгаков,,,,,,,,,125,B
No,Multi-ply,1,Andrey Chesnokov #1,Pro Juniors 20-23,1988,74.35,-185,-185,185,185,,75,M,Андрей Чесноков,,,,,,,,,185,B
No,Multi-ply,2,Sergey Kislyakov,Pro Juniors 20-23,1987,74.6,160,-170,-170,160,,75,M,Сергей Кисляков,,,,,,,,,160,B
No,Multi-ply,1,Maksim Popov #4,Pro Open,1979,72.2,160,170,180,180,,75,M,Максим Попов,,,,,,,,,180,B
No,Multi-ply,2,Andrey Krasnozhon,Pro Open,1982,74.2,135,145,-157.5,145,,75,M,Андрей Красножон,,,,,,,,,145,B
No,Multi-ply,1,Igor Kuimov,Pro Masters 45-49,1962,74.85,190,210,-215,210,,75,M,Игорь Куимов,,,,,,,,,210,B
No,Multi-ply,1,Stanislav Tolstov,Pro Juniors 20-23,1988,82,180,-192.5,-192.5,180,,82.5,M,Станислав Толстов,,,,,,,,,180,B
No,Multi-ply,DQ,Nikolay Maslov,Pro Juniors 20-23,1986,80.45,-210,-210,-210,,,82.5,M,Николай Маслов,,,,,,,,,,B
No,Multi-ply,1,Yuriy Korikov,Pro Open,1962,82.25,-195,195,205,205,-210,82.5,M,Юрий Кориков,,,,,,,,,205,B
No,Multi-ply,2,Andrey Stepanov,Pro Open,1984,81.8,192.5,200,-210,200,,82.5,M,Андрей Степанов,,,,,,,,,200,B
No,Multi-ply,3,Andrey Miroshnichenko,Pro Open,1975,81.5,192.5,-205,-205,192.5,,82.5,M,Андрей Мирошниченко,,,,,,,,,192.5,B
No,Multi-ply,4,Evgeniy Kataev,Pro Open,1983,81.4,170,180,-192.5,180,,82.5,M,Евгений Катаев,,,,,,,,,180,B
No,Multi-ply,5,Artur Kasyanov,Pro Open,1984,79.3,170,-180,-195,170,,82.5,M,Артур Касьянов,,,,,,,,,170,B
No,Multi-ply,DQ,Nikolay Maslov,Pro Open,1986,80.45,-210,-210,-210,,,82.5,M,Николай Маслов,,,,,,,,,,B
No,Multi-ply,DQ,Sergey Zubkov,Pro Open,1983,80.55,-175,-175,-192.5,,,82.5,M,Сергей Зубков,,,,,,,,,,B
No,Multi-ply,1,Yuriy Korikov,Pro Masters 45-49,1962,82.25,-195,195,205,205,-210,82.5,M,Юрий Кориков,,,,,,,,,205,B
No,Multi-ply,1,Gleb Tutynin,Pro Teen 16-17,1992,89.75,-150,-150,150,150,,90,M,Глеб Тутынин,,,,,,,,,150,B
No,Multi-ply,1,Andrey Guz,Pro Teen 18-19,1990,89.95,202.5,210,215,215,,90,M,Андрей Гузь,,,,,,,,,215,B
No,Multi-ply,1,Vasiliy Ludin,Pro Juniors 20-23,1988,89.35,202.5,210,217.5,217.5,,90,M,Василий Лудин,,,,,,,,,217.5,B
No,Multi-ply,2,Evgeniy Kuchin,Pro Juniors 20-23,1987,87.3,205,212.5,215,215,,90,M,Евгений Кучин,,,,,,,,,215,B
No,Multi-ply,1,Sergey Panin,Pro Open,1975,87.5,227.5,235,245,245,,90,M,Сергей Панин,,,,,,,,,245,B
No,Multi-ply,2,Igor Sergeev,Pro Open,1966,89.3,235,245,-260,245,,90,M,Игорь Сергеев,,,,,,,,,245,B
No,Multi-ply,3,Pavel Tsetsulin,Pro Open,1978,84.2,190,200,205,205,,90,M,Павел Цецулин,,,,,,,,,205,B
No,Multi-ply,4,Aleksandr Kuznetsov,Pro Open,1981,87.7,-190,195,202.5,202.5,,90,M,Александр Кузнецов,,,,,,,,,202.5,B
No,Multi-ply,DQ,Vyacheslav Chaykovskiy,Pro Open,1970,86.5,-180,-190,-190,,,90,M,Вячеслав Чайковский,,,,,,,,,,B
No,Multi-ply,DQ,Sergey Medvedev,Pro Open,1981,89,-230,-230,-230,,,90,M,Сергей Медведев,,,,,,,,,,B
No,Multi-ply,1,Igor Sergeev,Pro Masters 40-44,1966,89.3,235,245,-260,245,,90,M,Игорь Сергеев,,,,,,,,,245,B
No,Multi-ply,2,Artur Druzhinin,Pro Masters 40-44,1968,89.4,182.5,-190,190,190,,90,M,Артур Дружинин,,,,,,,,,190,B
No,Multi-ply,3,Eduard Isakov,Pro Masters 40-44,1966,87.55,-175,175,185,185,195,90,M,Эдуард Исаков,,,,,,,,,185,B
No,Multi-ply,1,Boris Zhernovnikov,Pro Masters 45-49,1965,89.8,205,-215,-215,205,,90,M,Борис Жерновников,,,,,,,,,205,B
No,Multi-ply,DQ,Vladimir Soloboev,Pro Masters 50-54,1958,88.8,-172.5,-172.5,-172.5,,,90,M,Владимир Солобоев,,,,,,,,,,B
No,Multi-ply,1,Vladimir Potapov,Pro Masters 55-59,1954,88.8,160,-167.5,-167.5,160,,90,M,Владимир Потапов,,,,,,,,,160,B
No,Multi-ply,1,Evgeniy Basov,Pro Masters 55-59,1955,84.4,120,135,150,150,,90,M,Евгений Басов,,,,,,,,,150,B
No,Multi-ply,1,Dmitriy Devyatkin,Pro Teen 18-19,1991,93.4,170,180,-185,180,,100,M,Дмитрий Девяткин,,,,,,,,,180,B
No,Multi-ply,1,Pavel Shurygin,Pro Juniors 20-23,1988,95.2,-185,190,-195,190,,100,M,Павел Шурыгин,,,,,,,,,190,B
No,Multi-ply,1,Stanislav Alikin,Pro Open,1985,99,-280,-280,280,280,,100,M,Станислав Аликин,,,,,,,,,280,B
No,Multi-ply,2,Eduard Khaliullin,Pro Open,1973,99.8,260,-272.5,-280,260,,100,M,Эдуард Халиуллин,,,,,,,,,260,B
No,Multi-ply,3,Sergey Nasonov,Pro Open,1975,97.4,230,240,245,245,,100,M,Сергей Насонов,,,,,,,,,245,B
No,Multi-ply,4,Artem Mishlanov,Pro Open,1986,97.9,210,220,-230,220,,100,M,Артем Мишланов,,,,,,,,,220,B
No,Multi-ply,5,Vadim Dostovalov,Pro Open,1978,96.3,-180,-180,185,185,,100,M,Вадим Достовалов,,,,,,,,,185,B
No,Multi-ply,DQ,Egor Koykov,Pro Open,1985,94.7,-260,-270,-270,,,100,M,Егор Койков,,,,,,,,,,B
No,Multi-ply,DQ,Aleksandr Gulin,Pro Open,1984,97.5,-280,-280,-280,,,100,M,Александр Гулин,,,,,,,,,,B
No,Multi-ply,DQ,Vladimir Schukin,Pro Open,1980,99.4,-240,-240,-242.5,,,100,M,Владимир Щукин,,,,,,,,,,B
No,Multi-ply,1,Dmitriy Tambovtsev,Pro Masters 40-44,1969,97.7,230,240,245,245,,100,M,Дмитрий Тамбовцев,,,,,,,,,245,B
No,Multi-ply,2,Andrey Fadeev,Pro Masters 40-44,1970,99.7,-230,230,245,245,,100,M,Андрей Фадеев,,,,,,,,,245,B
No,Multi-ply,3,Aleksandr Oschepkov,Pro Masters 40-44,1967,97.5,195,-210,-220,195,,100,M,Александр Ощепков,,,,,,,,,195,B
No,Multi-ply,1,Andrey Martemyanov,Pro Masters 45-49,1961,99,190,200,210,210,,100,M,Андрей Мартемьянов,,,,,,,,,210,B
No,Multi-ply,1,Dmitriy Chertushkin,Pro Masters 45-49,1965,99.4,-200,-200,205,205,,100,M,Дмитрий Чертушкин,,,,,,,,,205,B
No,Multi-ply,1,Artur Vayserman,Pro Teen 18-19,1991,104.8,190,-200,-220,190,,110,M,Артур Вайсерман,,,,,,,,,190,B
No,Multi-ply,1,Andrey Paley,Pro Open,1961,108.9,-315,315,-325,315,,110,M,Андрей Палей,,,,,,,,,315,B
No,Multi-ply,2,Maksim Karkavin,Pro Open,1986,109,237.5,250,255,255,,110,M,Максим Каркавин,,,,,,,,,255,B
No,Multi-ply,3,Vladimir Fil,Pro Open,1976,104.75,240,250,-255,250,,110,M,Владимир Филь,,,,,,,,,250,B
No,Multi-ply,4,Kanat Ismailov,Pro Open,1983,106.7,-190,190,200,200,,110,M,Канат Исмаилов,,,,,,,,,200,B
No,Multi-ply,DQ,Ivan Kurpishev,Pro Open,1969,108.5,-285,-290,-290,,,110,M,Иван Курпишев,,,,,,,,,,B
No,Multi-ply,1,Vladimir Omelkov,Pro Masters 40-44,1970,107.1,220,230,-250,230,,110,M,Владимир Омельков,,,,,,,,,230,B
No,Multi-ply,DQ,Ivan Kurpishev,Pro Masters 40-44,1969,108.5,-285,-290,-290,,,110,M,Иван Курпишев,,,,,,,,,,B
No,Multi-ply,1,Viktor Pozdnyakov,Pro Masters 50-54,1958,107.5,230,240,-250,240,,110,M,Виктор Поздняков,,,,,,,,,240,B
No,Multi-ply,1,Mikhail Algash,Pro Juniors 20-23,1988,123.4,260,275,-285,275,,125,M,Михаил Алгаш,,,,,,,,,275,B
No,Multi-ply,1,Nikolay Pyshmintsev,Pro Open,1981,123,285,300,325,325,,125,M,Николай Пышминцев,,,,,,,,,325,B
No,Multi-ply,2,Rinat Kabirov,Pro Open,1979,117.6,280,295,302.5,302.5,,125,M,Ринат Кабиров,,,,,,,,,302.5,B
No,Multi-ply,3,Mikhail Algash,Pro Open,1988,123.4,260,275,-285,275,,125,M,Михаил Алгаш,,,,,,,,,275,B
No,Multi-ply,4,Mikhail Glazunov,Pro Open,1974,116.7,250,270,-285,270,,125,M,Михаил Глазунов,,,,,,,,,270,B
No,Multi-ply,5,Denis Semenov,Pro Open,1974,118.45,-240,-240,240,240,,125,M,Денис Семенов,,,,,,,,,240,B
No,Multi-ply,DQ,Maksim Shabanov,Pro Open,1980,115.3,-240,-240,-240,,,125,M,Максим Шабанов,,,,,,,,,,B
No,Multi-ply,1,Aleksandr Ponomarev,Pro Masters 40-44,1967,111.35,235,240,250,250,,125,M,Александр Пономарев,,,,,,,,,250,B
No,Multi-ply,1,Roman Polyakov,Pro Open,1975,156.15,-300,300,310,310,,140+,M,Роман Поляков,,,,,,,,,310,B
No,Raw,1,Elena Solonnikova,Pro Open,1986,50.25,-45,-45,47.5,47.5,,52,F,Елена Солонникова,70,75,-82.5,75,-110,110,120,120,242.5,SBD
No,Raw,1,Anastasiya Amelina,Pro Open,1988,58.7,62.5,67.5,-72.5,67.5,,60,F,Анастасия Амелина,135,-142.5,-142.5,135,145,155,162.5,162.5,365,SBD
No,Raw,1,Natalya Lovtsova,Pro Open,1986,70.45,100,105,-107.5,105,,75,F,Наталья Ловцова,100,110,-120,110,135,140.5,150,150,365,SBD
No,Raw,DQ,Svetlana Kayacheva,Pro Open,1975,73.6,,,,,,75,F,Светлана Каячева,-120,-120,-120,,,,,,,SBD
No,Raw,1,Aleksandr Babkin,Pro Teen 16-17,1994,65.85,85,90,95,95,,67.5,M,Александр Бабкин,105,-110,-115,105,125,135,-145,135,335,SBD
No,Raw,DQ,Dmitriy Maslov,Pro Open,1981,60.15,,,,,,67.5,M,Дмитрий Маслов,-120,-120,-120,,,,,,,SBD
No,Raw,1,Vasiliy Ankushin,Pro Masters 70-74,1939,66.6,77.5,82.5,-85,82.5,,67.5,M,Василий Анкушин,100,110,112.5,112.5,-140,-140,140,140,335,SBD
No,Raw,1,Aleksandr Zyryanov,Pro Teen 18-19,1990,74.75,97.5,102.5,-107.5,102.5,,75,M,Александр Зырянов,150,160,-167.5,160,170,185,200,200,462.5,SBD
No,Raw,1,Dmitriy Solonnikov,Pro Open,1986,74.35,115,122.5,135,135,,75,M,Дмитрий Солонников,-175,175,195,195,210,225,232.5,232.5,562.5,SBD
No,Raw,2,Konstantin Nemytov,Pro Open,1986,73.5,110,-117.5,117.5,117.5,,75,M,Константин Немытов,140,150,-155,150,180,-185,-185,180,447.5,SBD
No,Raw,1,Vyacheslav Petrov,Pro Masters 45-49,1963,71.05,-55,55,75,75,,75,M,Вячеслав Петров,70,80,90,90,70,80,95,95,260,SBD
No,Raw,1,Vyacheslav Sapozhnikov,Pro Juniors 20-23,1988,79.85,90,97.5,102.5,102.5,,82.5,M,Вячеслав Сапожников,120,130,-145,130,150,160,167.5,167.5,400,SBD
No,Raw,1,Dmitriy Uvarov,Pro Open,1986,78.4,140,145,-150,145,,82.5,M,Дмитрий Уваров,210,220,,220,250,260,-270,260,625,SBD
No,Raw,2,Egor Startsev,Pro Open,1975,78.75,135,-145,145,145,,82.5,M,Егор Старцев,-175,175,-180,175,225,240,250,250,570,SBD
No,Raw,3,Aleksandr Foschanko,Pro Open,1985,79.65,-115,115,-125,115,,82.5,M,Александр Фощанко,-160,-160,160,160,-150,150,165,165,440,SBD
No,Raw,1,Andrey Shelepov,Pro Masters 40-44,1970,82.5,142.5,-147.5,-147.5,142.5,,82.5,M,Андрей Шелепов,160,-165,165,165,-190,190,210,210,517.5,SBD
No,Raw,1,Mikhail Losev,Pro Masters 55-59,1953,78.7,80,-90,-90,80,,82.5,M,Михаил Лосев,-140,140,,140,150,160,,160,380,SBD
No,Raw,1,Sergei Terentyev,Pro Teen 18-19,1992,88,105,110,112.5,112.5,,90,M,Сергей Терентьев,120,130,140,140,165,175,197.5,197.5,450,SBD
No,Raw,1,Aleksey Bazhenov,Pro Open,1977,88.4,160,165,170,170,,90,M,Алексей Баженов,220,230,-240,230,240,250,260,260,660,SBD
No,Raw,2,Andrey Solovyev,Pro Open,1972,84.55,137.5,-142.5,,137.5,,90,M,Андрей Соловьев,180,-190,-190,180,230,-240,245,245,562.5,SBD
No,Raw,3,Denis Krasnov,Pro Open,1971,88.6,-157.5,157.5,167.5,167.5,,90,M,Денис Краснов,170,-185,-190,170,-190,190,210,210,547.5,SBD
No,Raw,1,Eduard Isakov,Pro Masters 40-44,1966,87.6,140,150,-155,150,,90,M,Эдуард Исаков,150,160,170,170,175,185,190,190,510,SBD
No,Raw,1,Aleksandr Podryadov,Pro Masters 55-59,1953,86.1,80,100,-120,100,,90,M,Александр Подрядов,150,170,-200,170,150,170,-200,170,440,SBD
No,Raw,1,Valeriy Nugumanov,Pro Masters 70-74,1939,89.65,112.5,117.5,,117.5,,90,M,Валерий Нугуманов,175,,,175,175,185,192.5,192.5,485,SBD
No,Raw,1,Dmitriy Nazarov,Pro Juniors 20-23,1987,98.8,165,170,-175,170,,100,M,Дмитрий Назаров,200,220,-230,220,200,215,225,225,615,SBD
No,Raw,DQ,Sergey Aldoshkin,Pro Juniors 20-23,1988,97.4,125,135,140,140,,100,M,Сергей Алдошкин,180,200,-205,200,-230,-230,-230,,,SBD
No,Raw,1,Aleksandr Merkuryev,Pro Open,1985,99.95,140,145,-150,145,,100,M,Александр Меркурьев,-215,215,-220,215,240,250,-257.5,250,610,SBD
No,Raw,2,Sergey Kuzmin,Pro Open,1981,99.35,120,130,-140,130,,100,M,Сергей Кузьмин,170,185,-195,185,225,240,255,255,570,SBD
No,Raw,1,Aleksandr Babkin,Pro Masters 55-59,1955,94.55,120,130,,130,,100,M,Александр Бабкин,150,160,,160,170,190,-200,190,480,SBD
No,Raw,1,Ruslan Akhmetov,Pro Masters 50-54,1960,110,140,150,160,160,,110,M,Руслан Ахметов,210,230,250,250,200,,,200,610,SBD
No,Raw,1,Aleksey Brednev,Pro Open,1969,120.15,175,182.5,-185,182.5,,125,M,Алексей Бреднев,235,245,250,250,240,252.5,-260,252.5,685,SBD
No,Raw,DQ,Valeriy Bekker,Pro Open,1980,116.35,,,,,,125,M,Валерий Беккер,-255,,,,,,,,,SBD
No,Multi-ply,1,Svetlana Vakueva,Pro Open,1973,67.3,80,90,-100,90,,67.5,F,Светлана Вакуева,135,145,155,155,140,160,-170,160,405,SBD
No,Multi-ply,1,Mariya Shmyrina,Pro Juniors 20-23,1990,74.1,85,90,-92.5,90,,75,F,Мария Шмырина,155,165,-170,165,-147.5,155,-160,155,410,SBD
No,Multi-ply,1,Vladimir Ubeyvolk,Pro Teen 18-19,1992,54.55,110,-115,115,115,,56,M,Владимир Убейволк,-165,165,-180,165,165,175,180,180,460,SBD
No,Multi-ply,1,Danil Bulgakov,Pro Juniors 20-23,1989,55.6,110,120,125,125,,56,M,Данил Булгаков,150,170,180,180,145,160,170,170,475,SBD
No,Multi-ply,1,Danil Bulgakov,Pro Open,1989,55.6,110,120,125,125,,56,M,Данил Булгаков,150,170,180,180,145,160,170,170,475,SBD
No,Multi-ply,1,Denis Kachusov,Pro Teen 13-15,1995,62.1,80,90,100,100,,67.5,M,Денис Качусов,160,175,190,190,160,175,-185,175,465,SBD
No,Multi-ply,1,Aleksandr Zyryanov,Pro Teen 18-19,1990,74.75,-110,110,-120,110,,75,M,Александр Зырянов,-210,215,-225,215,190,205,-215,205,530,SBD
No,Multi-ply,1,Aleksandr Mikheev,Pro Teen 16-17,1993,81.65,-97.5,97.5,-102.5,97.5,,82.5,M,Александр Михеев,190,-200,-205,190,170,-185,185,185,472.5,SBD
No,Multi-ply,1,Oleg Valiev,Pro Open,1985,82.35,180,190,-195,190,,82.5,M,Олег Валиев,260,-280,-280,260,230,250,,250,700,SBD
No,Multi-ply,2,Lev Korolkov,Pro Open,1986,79.35,130,137.5,142.5,142.5,,82.5,M,Лев Корольков,-195,205,215,215,225,232.5,-242.5,232.5,590,SBD
No,Multi-ply,3,Denis Shidlovskiy,Pro Open,1983,82.3,130,140,150,150,,82.5,M,Денис Шидловский,210,230,-250,230,185,200,-212.5,200,580,SBD
No,Multi-ply,1,Evgeniy Naumov,Pro Teen 18-19,1992,84.65,130,135,140,140,,90,M,Евгений Наумов,230,240,250,250,180,-195,-195,180,570,SBD
No,Multi-ply,1,Vasiliy Ludin,Pro Juniors 20-23,1988,89.15,-200,200,-215,200,,90,M,Василий Лудин,-325,-325,325,325,255,270,-285,270,795,SBD
No,Multi-ply,2,Alexander Sapozhnikov,Pro Juniors 20-23,1989,89.1,175,185,-195,185,,90,M,Александр Сапожников,-290,290,-300,290,290,305,310,310,785,SBD
No,Multi-ply,1,Ivan Vasyunin,Pro Open,1983,90,250,-270,-270,250,,90,M,Иван Васюнин,310,-340,340,340,270,285,300,300,890,SBD
No,Multi-ply,2,Anton Borodin,Pro Open,1983,89.1,195,-200,-200,195,,90,M,Антон Бородин,-260,270,280,280,275,287.5,295,295,770,SBD
No,Multi-ply,1,Vladimir Potapov,Pro Masters 55-59,1954,87.9,150,160,165,165,,90,M,Владимир Потапов,200,210,220,220,180,190,,190,575,SBD
No,Multi-ply,1,Aleksandr Dorokhov,Pro Open,1983,93.5,150,160,-170,160,,100,M,Александр Дорохов,290,305,-315,305,230,240,,240,705,SBD
No,Multi-ply,DQ,Evgeniy Bryukhanov,Pro Open,1981,98.2,,,,,,100,M,Евгений Брюханов,-250,-250,-250,,,,,,,SBD
No,Multi-ply,1,Dmitriy Chertushkin,Pro Masters 45-49,1965,99.8,185,,,185,,100,M,Дмитрий Чертушкин,-210,220,-235,220,180,,,180,585,SBD
No,Multi-ply,DQ,Artur Vayserman,Pro Teen 18-19,1991,105.95,,,,,,110,M,Артур Вайсерман,-270,,,,,,,,,SBD
No,Multi-ply,DQ,Aleksandr Golubev,Pro Juniors 20-23,1989,103.95,,,,,,110,M,Александр Голубев,-280,,,,,,,,,SBD
No,Multi-ply,1,Dmitriy Sorokin,Pro Open,1971,107.5,245,255,-270,255,,110,M,Дмитрий Сорокин,-340,-340,340,340,270,-290,290,290,885,SBD
No,Multi-ply,1,Ruslan Akhmetov,Pro Masters 50-54,1960,110,160,190,,190,,110,M,Руслан Ахметов,-270,270,-282.5,270,200,,,200,660,SBD
No,Multi-ply,1,Vyacheslav Sushin,Pro Open,1972,124.9,170,190,-200,190,,125,M,Вячеслав Сушин,-230,-240,250,250,200,220,235,235,675,SBD
Yes,Raw,1,Anastasiya Mymrina,Amateur Juniors 20-23,1990,47.6,-70,70,-75,70,,48,F,Анастасия Мымрина,,,,,,,,,70,B
Yes,Raw,1,Anastasiya Mymrina,Amateur Open,1990,47.6,-70,70,-75,70,,48,F,Анастасия Мымрина,,,,,,,,,70,B
Yes,Raw,1,Olga Isakova,Amateur Teen 16-17,1994,50,52.5,57.5,60,60,62.5,52,F,Ольга Исакова,,,,,,,,,60,B
Yes,Raw,1,Alevtina Parshina,Amateur Open,1968,51.8,57.5,-62.5,-62.5,57.5,,52,F,Алевтина Паршина,,,,,,,,,57.5,B
Yes,Raw,DQ,Irina Lutsevich,Amateur Open,1987,51.9,-35,,,,,52,F,Ирина Луцевич,,,,,,,,,,B
Yes,Raw,2,Elena Krapivina,Amateur Open,1973,51.2,55,-57.5,-57.5,55,,52,F,Елена Крапивина,,,,,,,,,55,B
Yes,Raw,3,Olga Lebedeva,Amateur Open,1971,49.6,47.5,-50,50,50,,52,F,Ольга Лебедева,,,,,,,,,50,B
Yes,Raw,1,Alevtina Parshina,Amateur Masters 40-44,1968,51.8,57.5,-62.5,-62.5,57.5,,52,F,Алевтина Паршина,,,,,,,,,57.5,B
Yes,Raw,1,Yuliya Ponomareva,Amateur Teen 13-15,1995,56,40,-45,-45,40,,56,F,Юлия Пономарева,,,,,,,,,40,B
Yes,Raw,1,Ekaterina Ivanova,Amateur Open,1982,54.85,80,85,-90,85,,56,F,Екатерина Иванова,,,,,,,,,85,B
Yes,Raw,2,Anna Savelyeva,Amateur Open,1975,53.95,55,-57.5,-57.5,55,,56,F,Анна Савельева,,,,,,,,,55,B
Yes,Raw,3,Alisa Korshunova,Amateur Open,1981,54.1,50,-52.5,-57.5,50,,56,F,Алиса Коршунова,,,,,,,,,50,B
Yes,Raw,4,Elena Norkina,Amateur Open,1982,55.8,37.5,-42.5,45,45,,56,F,Елена Норкина,,,,,,,,,45,B
Yes,Raw,5,Natalya Margaylik,Amateur Open,1986,54.15,40,-42.5,42.5,42.5,,56,F,Наталья Маргайлик,,,,,,,,,42.5,B
Yes,Raw,1,Zhanna Dorokhina,Amateur Masters 40-44,1968,56,40,45,47.5,47.5,,56,F,Жанна Дорохина,,,,,,,,,47.5,B
Yes,Raw,1,Olga Malkova,Amateur Open,1983,56.65,40,-50,52.5,52.5,,60,F,Ольга Малкова,,,,,,,,,52.5,B
Yes,Raw,2,Elena Shulgina,Amateur Open,1985,58.3,42.5,45,-50,45,,60,F,Елена Шульгина,,,,,,,,,45,B
Yes,Raw,1,Evgeniya Volkova,Amateur Open,1987,66.3,80,-85,-85,80,,67.5,F,Евгения Волкова,,,,,,,,,80,B
Yes,Raw,2,Larisa Dernova,Amateur Open,1971,65.8,72.5,75,-77.5,75,,67.5,F,Лариса Дернова,,,,,,,,,75,B
Yes,Raw,3,Tatyana Gudz,Amateur Open,1976,63.1,40,-45,45,45,,67.5,F,Татьяна Гудзь,,,,,,,,,45,B
Yes,Raw,1,Anna Burylova,Amateur Open,1986,68.95,65,70,-82.5,70,,75,F,Анна Бурылова,,,,,,,,,70,B
Yes,Raw,1,Marina Bulatova,Amateur Open,1981,129.2,75,85,-87.5,85,,90+,F,Марина Булатова,,,,,,,,,85,B
Yes,Raw,1,Dmitriy Bychkov,Amateur Teen 13-15,1995,51.55,72.5,-77.5,-77.5,72.5,,52,M,Дмитрий Бычков,,,,,,,,,72.5,B
Yes,Raw,2,Artem Zelenin,Amateur Teen 13-15,1996,48.75,45,-50,52.5,52.5,,52,M,Артем Зеленин,,,,,,,,,52.5,B
Yes,Raw,1,Vladislav Trubin,Amateur Teen 16-17,1993,51.5,75,85,95,95,-97.5,52,M,Владислав Трубин,,,,,,,,,95,B
Yes,Raw,1,Alexander Medvedchuk,Amateur Open,1986,51.45,110,-115,,110,,52,M,Александр Медведчук,,,,,,,,,110,B
Yes,Raw,1,Vladislav Katrushev,Amateur Teen 13-15,1995,54.25,77.5,80,-82.5,80,,56,M,Владислав Катрушев,,,,,,,,,80,B
Yes,Raw,2,Ilya Zubakin,Amateur Teen 13-15,1996,54.8,50,57.5,-60,57.5,,56,M,Илья Зубакин,,,,,,,,,57.5,B
Yes,Raw,1,Petr Mikhaylov,Amateur Teen 18-19,1990,54.25,85,92.5,-100,92.5,,56,M,Петр Михайлов,,,,,,,,,92.5,B
Yes,Raw,1,Sergey Sultanov,Amateur Juniors 20-23,1990,56,105,115,-122.5,115,,56,M,Сергей Султанов,,,,,,,,,115,B
Yes,Raw,2,Marat Zanakhov,Amateur Juniors 20-23,1989,53.75,-100,-100,100,100,,56,M,Марат Занахов,,,,,,,,,100,B
Yes,Raw,3,Igor Chernikov,Amateur Juniors 20-23,1990,55,-80,80,-85,80,,56,M,Игорь Черников,,,,,,,,,80,B
Yes,Raw,1,Nikita Menshchikov,Amateur Open,1983,55.35,110,122.5,125,125,128.5,56,M,Никита Меньщиков,,,,,,,,,125,B
Yes,Raw,2,Seyfulla Ramazanov,Amateur Open,1982,52.45,90,95,-105,95,,56,M,Сейфулла Рамазанов,,,,,,,,,95,B
Yes,Raw,3,Eldar Ramazanov,Amateur Open,1983,54.55,80,85,-90,85,,56,M,Эльдар Рамазанов,,,,,,,,,85,B
Yes,Raw,1,Sergey Shershnev,Amateur Teen 13-15,1997,59.15,45,-52.5,-55,45,,60,M,Сергей Шершнев,,,,,,,,,45,B
Yes,Raw,1,Ivan Kudryavtsev,Amateur Teen 16-17,1993,58.85,105,110,115,115,,60,M,Иван Кудрявцев,,,,,,,,,115,B
Yes,Raw,2,Vitaly Mikhin,Amateur Teen 16-17,1993,59.5,85,-87.5,-87.5,85,,60,M,Виталий Михин,,,,,,,,,85,B
Yes,Raw,1,Aleksey Potapov,Amateur Open,1976,59.6,90,95,100,100,,60,M,Алексей Потапов,,,,,,,,,100,B
Yes,Raw,DQ,Dmitriy Maslov,Amateur Open,1981,60,95,100,-102.5,100,,60,M,Дмитрий Маслов,,,,,,,,,,B
Yes,Raw,1,Semen Kurpishev,Amateur Teen 13-15,1995,62.85,70,72.5,,72.5,,67.5,M,Семен Курпишев,,,,,,,,,72.5,B
Yes,Raw,2,Danil Scheglov,Amateur Teen 13-15,1996,62,57.5,-62.5,-62.5,57.5,,67.5,M,Данил Щеглов,,,,,,,,,57.5,B
Yes,Raw,1,Kirill Polyukhovich,Amateur Teen 16-17,1993,66.5,105,115,-120,115,,67.5,M,Кирилл Полюхович,,,,,,,,,115,B
Yes,Raw,2,Valeriy Vcherashniy,Amateur Teen 16-17,1993,62.9,80,-85,-87.5,80,,67.5,M,Валерий Вчерашний,,,,,,,,,80,B
Yes,Raw,DQ,Vadim Skorodumov,Amateur Teen 16-17,1993,63.2,-70,,,,,67.5,M,Вадим Скородумов,,,,,,,,,,B
Yes,Raw,DQ,Stanislav Butakov,Amateur Teen 16-17,1993,65.95,-65,-65,-70,,,67.5,M,Станислав Бутаков,,,,,,,,,,B
Yes,Raw,1,Arsen Agayan,Amateur Juniors 20-23,1990,67.3,120,130,145,145,-150,67.5,M,Арсен Агаян,,,,,,,,,145,B
Yes,Raw,1,Vil Sakhiulin,Amateur Open,1977,67,140,-150,150,150,,67.5,M,Виль Сахиулин,,,,,,,,,150,B
Yes,Raw,2,Vladimir Stegantsev,Amateur Open,1985,65.1,140,145,147.5,147.5,,67.5,M,Владимир Стеганцев,,,,,,,,,147.5,B
Yes,Raw,3,Sergey Morozov,Amateur Open,1986,66.8,130,135,140,140,,67.5,M,Сергей Морозов,,,,,,,,,140,B
Yes,Raw,4,Dmitriy Shalunov,Amateur Open,1973,67,-122.5,-122.5,130,130,,67.5,M,Дмитрий Шалунов,,,,,,,,,130,B
Yes,Raw,5,Alexander Grigoryev,Amateur Open,1980,65.7,-110,110,-115,110,,67.5,M,Александр Григорьев,,,,,,,,,110,B
Yes,Raw,1,Vladimir Zabolotnev,Amateur Masters 40-44,1968,67.1,130,140,-142.5,140,,67.5,M,Владимир Заболотнев,,,,,,,,,140,B
Yes,Raw,2,Alik Ganeev,Amateur Masters 40-44,1970,67.1,-105,105,-110,105,,67.5,M,Алик Ганеев,,,,,,,,,105,B
Yes,Raw,1,Yuriy Vikhorev,Amateur Masters 60-64,1950,64.4,77.5,82.5,87.5,87.5,,67.5,M,Юрий Вихорев,,,,,,,,,87.5,B
Yes,Raw,1,Valeriy Baranov,Amateur Masters 65-69,1940,67.5,70,80,87.5,87.5,,67.5,M,Валерий Баранов,,,,,,,,,87.5,B
Yes,Raw,1,Sergey Tyapkin,Amateur Teen 13-15,1995,74.2,107.5,115,117.5,117.5,-120,75,M,Сергей Тяпкин,,,,,,,,,117.5,B
Yes,Raw,2,Sergey Aymetov,Amateur Teen 13-15,1995,70.35,75,-85,-90,75,,75,M,Сергей Айметов,,,,,,,,,75,B
Yes,Raw,1,Farid Alizade,Amateur Teen 16-17,1992,73.5,-120,122.5,-130,122.5,,75,M,Фарид Ализаде,,,,,,,,,122.5,B
Yes,Raw,2,Dmitriy Beloglazov,Amateur Teen 16-17,1993,74.95,100,105,-110,105,,75,M,Дмитрий Белоглазов,,,,,,,,,105,B
Yes,Raw,3,Nikita Khizev,Amateur Teen 16-17,1994,73.4,-75,85,-90,85,,75,M,Никита Хизев,,,,,,,,,85,B
Yes,Raw,1,Aleksey Pivtsaev,Amateur Teen 18-19,1992,73,117.5,122.5,-125,122.5,,75,M,Алексей Пивцаев,,,,,,,,,122.5,B
Yes,Raw,1,Evgeniy Fedotov,Amateur Juniors 20-23,1987,73.9,-155,-155,155,155,,75,M,Евгений Федотов,,,,,,,,,155,B
Yes,Raw,2,Sergey Poteryaev,Amateur Juniors 20-23,1987,74.2,-145,147.5,,147.5,,75,M,Сергей Потеряев,,,,,,,,,147.5,B
Yes,Raw,3,Andrey Lomaev,Amateur Juniors 20-23,1987,72.5,132.5,140,-147.5,140,,75,M,Андрей Ломаев,,,,,,,,,140,B
Yes,Raw,4,Nikolay Volynkin,Amateur Juniors 20-23,1987,74.6,120,-125,125,125,,75,M,Николай Волынкин,,,,,,,,,125,B
Yes,Raw,5,Denis Voronin,Amateur Juniors 20-23,1989,70.7,110,120,-125,120,,75,M,Денис Воронин,,,,,,,,,120,B
Yes,Raw,1,Vadim Rozenfeld,Amateur Open,1973,73.35,145,150,-155,150,,75,M,Вадим Розенфельд,,,,,,,,,150,B
Yes,Raw,2,Aleksey Lapin,Amateur Open,1986,73.8,142.5,147.5,-155,147.5,,75,M,Алексей Лапин,,,,,,,,,147.5,B
Yes,Raw,3,Andrey Alferov,Amateur Open,1982,74,135,-140,-140,135,,75,M,Андрей Алферов,,,,,,,,,135,B
Yes,Raw,4,Rinat Sultanov,Amateur Open,1984,74.6,120,127.5,132.5,132.5,,75,M,Ринат Султанов,,,,,,,,,132.5,B
Yes,Raw,5,Aleksandr Kostenko,Amateur Open,1985,74.45,100,105,-110,105,,75,M,Александр Костенко,,,,,,,,,105,B
Yes,Raw,6,Sergey Pezhenkov,Amateur Open,1983,71.45,85,92.5,97.5,97.5,,75,M,Сергей Пеженков,,,,,,,,,97.5,B
Yes,Raw,1,Vasiliy Mishurinskiy,Amateur Masters 40-44,1968,73.6,120,130,-140,130,,75,M,Василий Мишуринский,,,,,,,,,130,B
Yes,Raw,1,Sergey Khudyakov,Amateur Masters 45-49,1962,75,115,125,130,130,,75,M,Сергей Худяков,,,,,,,,,130,B
Yes,Raw,1,Nikita Rezitskiy,Amateur Teen 16-17,1993,78.2,125,132.5,-137.5,132.5,,82.5,M,Никита Резицкий,,,,,,,,,132.5,B
Yes,Raw,2,Aleksey Pyanov,Amateur Teen 16-17,1992,79.75,115,120,125,125,,82.5,M,Алексей Пьянов,,,,,,,,,125,B
Yes,Raw,3,Nikita Vorushkin,Amateur Teen 16-17,1993,80,100,-110,-115,100,,82.5,M,Никита Ворушкин,,,,,,,,,100,B
Yes,Raw,DQ,Ivan Anischenko,Amateur Teen 16-17,1992,76.2,-110,-115,-115,,,82.5,M,Иван Анищенко,,,,,,,,,,B
Yes,Raw,1,Maksim Sadykov,Amateur Teen 18-19,1992,77.95,90,102.5,-115,102.5,,82.5,M,Максим Садыков,,,,,,,,,102.5,B
Yes,Raw,1,Aleksandr Tsvetov,Amateur Juniors 20-23,1987,78.3,135,150,-155,150,,82.5,M,Александр Цветов,,,,,,,,,150,B
Yes,Raw,2,Ivan Nesterenko,Amateur Juniors 20-23,1987,79.4,140,-150,-150,140,,82.5,M,Иван Нестеренко,,,,,,,,,140,B
Yes,Raw,3,Sergey Zashikhin,Amateur Juniors 20-23,1990,77.4,105,110,115,115,,82.5,M,Сергей Зашихин,,,,,,,,,115,B
Yes,Raw,1,Andrei Galaida,Amateur Open,1972,82.3,175,180,185,185,,82.5,M,Андрей Галайда,,,,,,,,,185,B
Yes,Raw,2,Sergey Razzhivin,Amateur Open,1975,82.2,165,172.5,-175,172.5,,82.5,M,Сергей Разживин,,,,,,,,,172.5,B
Yes,Raw,3,Nikita Dementyev,Amateur Open,1985,81.7,140,150,155,155,,82.5,M,Никита Дементьев,,,,,,,,,155,B
Yes,Raw,4,Artem Kozlov,Amateur Open,1985,82.3,140,150,155,155,,82.5,M,Артем Козлов,,,,,,,,,155,B
Yes,Raw,5,Nikolay Ivanov,Amateur Open,1975,79.5,150,,,150,,82.5,M,Николай Иванов,,,,,,,,,150,B
Yes,Raw,6,Dmitriy Zoteev,Amateur Open,1982,81.25,140,150,-152.5,150,,82.5,M,Дмитрий Зотеев,,,,,,,,,150,B
Yes,Raw,7,Nikolay Povalkin,Amateur Open,1984,81.4,147.5,-152.5,-152.5,147.5,,82.5,M,Николай Повалкин,,,,,,,,,147.5,B
Yes,Raw,8,Ivan Demidenko,Amateur Open,1976,82.3,137.5,145,-150,145,,82.5,M,Иван Демиденко,,,,,,,,,145,B
Yes,Raw,9,Petr Borisov,Amateur Open,1981,82.35,-145,145,-150,145,,82.5,M,Петр Борисов,,,,,,,,,145,B
Yes,Raw,10,Dmitriy Budanov,Amateur Open,1983,78.3,115,120,-125,120,,82.5,M,Дмитрий Буданов,,,,,,,,,120,B
Yes,Raw,1,Gennadiy Toporkov,Amateur Masters 45-49,1961,82.1,115,122.5,-125,122.5,,82.5,M,Геннадий Топорков,,,,,,,,,122.5,B
Yes,Raw,DD,Vladimir Reshetnikov,Amateur Masters 50-54,1960,82.5,172.5,180,185.5,185.5,,82.5,M,Владимир Решетников,,,,,,,,,,B
Yes,Raw,1,Konstantin Tikhomirov,Amateur Masters 55-59,1952,80.75,120,125,-130,125,,82.5,M,Константин Тихомиров,,,,,,,,,125,B
Yes,Raw,1,Eldar Tsoriev,Amateur Masters 60-64,1946,81.65,125,130,132.5,132.5,,82.5,M,Эльдар Цориев,,,,,,,,,132.5,B
Yes,Raw,2,Ivan Zyablikov,Amateur Masters 60-64,1948,82.15,100,110,-115,110,,82.5,M,Иван Зябликов,,,,,,,,,110,B
Yes,Raw,1,Vyacheslav Yakushov,Amateur Masters 65-69,1941,82.5,90,-95,97.5,97.5,,82.5,M,Вячеслав Якушов,,,,,,,,,97.5,B
Yes,Raw,1,Vladislav Yachnik,Amateur Teen 13-15,1995,82.65,-85,85,-90,85,,90,M,Владислав Ячник,,,,,,,,,85,B
Yes,Raw,1,Artem Logunov,Amateur Teen 18-19,1991,89.3,172.5,180,185.5,185.5,,90,M,Артем Логунов,,,,,,,,,185.5,B
Yes,Raw,1,Vyacheslav Beltyukov,Amateur Juniors 20-23,1987,88.6,140,145,-155,145,,90,M,Вячеслав Бельтюков,,,,,,,,,145,B
Yes,Raw,2,Evgeniy Sobyanin,Amateur Juniors 20-23,1990,89.8,120,132.5,-140,132.5,,90,M,Евгений Собянин,,,,,,,,,132.5,B
Yes,Raw,1,Vyacheslav Starchenkov,Amateur Open,1984,88,170,180,-185,180,,90,M,Вячеслав Старченков,,,,,,,,,180,B
Yes,Raw,2,Evgeniy Yashunkin,Amateur Open,1971,87,150,155,160,160,,90,M,Евгений Яшунькин,,,,,,,,,160,B
Yes,Raw,3,Denis Frolov,Amateur Open,1979,86.4,145,-155,155,155,,90,M,Денис Фролов,,,,,,,,,155,B
Yes,Raw,4,Pavel Kokorin,Amateur Open,1980,88.9,155,-162.5,-162.5,155,,90,M,Павел Кокорин,,,,,,,,,155,B
Yes,Raw,5,Rashid Sharipov,Amateur Open,1979,89.7,-150,155,-160,155,,90,M,Рашид Шарипов,,,,,,,,,155,B
Yes,Raw,6,Sergey Fadeev,Amateur Open,1980,84.3,145,-155,-155,145,,90,M,Сергей Фадеев,,,,,,,,,145,B
Yes,Raw,7,Evgeniy Kachusov,Amateur Open,1981,86.9,137.5,145,,145,,90,M,Евгений Качусов,,,,,,,,,145,B
Yes,Raw,7,Sergey Badeev,Amateur Open,1978,86.9,145,-155,-155,145,,90,M,Сергей Бадеев,,,,,,,,,145,B
Yes,Raw,9,Vasiliy Shlykov,Amateur Open,1984,86.15,110,115,-120,115,,90,M,Василий Шлыков,,,,,,,,,115,B
Yes,Raw,10,Aleksey Panov,Amateur Open,1985,85.45,-90,-95,95,95,,90,M,Алексей Панов,,,,,,,,,95,B
Yes,Raw,DD,Maksim Pechenkin,Amateur Open,1977,88.6,-145,155,160,160,,90,M,Максим Печенкин,,,,,,,,,,B
Yes,Raw,1,Bakhtiyar Mukhametov,Amateur Masters 40-44,1970,90,-150,-150,150,150,,90,M,,,,,,,,,,150,B
Yes,Raw,DQ,Pavel Galayda,Amateur Masters 40-44,1968,89.8,-147.5,-147.5,-147.5,,,90,M,Павел Галайда,,,,,,,,,,B
Yes,Raw,1,Vladimir Pleshakov,Amateur Masters 45-49,1965,88.95,120,130,-137.5,130,,90,M,Владимир Плешаков,,,,,,,,,130,B
Yes,Raw,1,Aleksandr Komkov,Amateur Masters 50-54,1959,88,-140,140,-145,140,,90,M,Александр Комков,,,,,,,,,140,B
Yes,Raw,1,Yuriy Kotov,Amateur Masters 55-59,1951,85.8,120,125,127.5,127.5,,90,M,Юрий Котов,,,,,,,,,127.5,B
Yes,Raw,DQ,Mikhail Khudyakov,Amateur Masters 55-59,1955,89.05,-130,-130,-130,,,90,M,Михаил Худяков,,,,,,,,,,B
Yes,Raw,1,Valter Reyngold,Amateur Masters 65-69,1942,84.9,-75,75,-80,75,,90,M,Вальтер Рейнгольд,,,,,,,,,75,B
Yes,Raw,1,Igor Makov,Amateur Teen 16-17,1993,95.55,110,115,,115,,100,M,Игорь Маков,,,,,,,,,115,B
Yes,Raw,1,Sergey Plakhotin,Amateur Juniors 20-23,1986,93.75,162.5,170,177.5,177.5,,100,M,Сергей Плахотин,,,,,,,,,177.5,B
Yes,Raw,2,Vladimir Kirilov,Amateur Juniors 20-23,1989,98.75,-145,155,162.5,162.5,,100,M,Владимир Кирилов,,,,,,,,,162.5,B
Yes,Raw,3,Aleksandr Yavorskikh,Amateur Juniors 20-23,1989,99.1,152.5,-162.5,162.5,162.5,,100,M,Александр Яворских,,,,,,,,,162.5,B
Yes,Raw,4,Vitaliy Tikhonov,Amateur Juniors 20-23,1988,98.7,155,-162.5,-162.5,155,,100,M,Виталий Тихонов,,,,,,,,,155,B
Yes,Raw,1,Andrey Dobryakov,Amateur Open,1975,96.95,170,175,-177.5,175,,100,M,Андрей Добряков,,,,,,,,,175,B
Yes,Raw,2,Dmitry Karelin,Amateur Open,1968,98,165,170,-175,170,,100,M,Дмитрий Карелин,,,,,,,,,170,B
Yes,Raw,3,Andrey Tagankin,Amateur Open,1984,98.75,162.5,-167.5,167.5,167.5,,100,M,Андрей Таганкин,,,,,,,,,167.5,B
Yes,Raw,4,Mikhail Vinokurov,Amateur Open,1983,92.2,145,160,165,165,,100,M,Михаил Винокуров,,,,,,,,,165,B
Yes,Raw,5,Vitaliy Baranov,Amateur Open,1980,97.8,157.5,162.5,165,165,,100,M,Виталий Баранов,,,,,,,,,165,B
Yes,Raw,6,Vadim Kutukov,Amateur Open,1977,94.5,135,142.5,145,145,,100,M,Вадим Кутуков,,,,,,,,,145,B
Yes,Raw,7,Yuriy Tsibin,Amateur Open,1986,95.7,-140,145,-150,145,,100,M,Юрий Цибин,,,,,,,,,145,B
Yes,Raw,DQ,Aleksey Manakov,Amateur Open,1983,94,-155,-155,-155,,,100,M,Алексей Манаков,,,,,,,,,,B
Yes,Raw,DQ,Yuriy Guschin,Amateur Open,1981,95,-90,,,,,100,M,Юрий Гущин,,,,,,,,,,B
Yes,Raw,1,Dmitry Karelin,Amateur Masters 40-44,1968,98,165,170,-175,170,,100,M,Дмитрий Карелин,,,,,,,,,170,B
Yes,Raw,2,Aleksandr Terentyev,Amateur Masters 40-44,1969,97.5,142.5,150,155,155,,100,M,Александр Терентьев,,,,,,,,,155,B
Yes,Raw,3,Igor Khomylev,Amateur Masters 40-44,1970,96.35,142.5,147.5,-150,147.5,,100,M,Игорь Хомылев,,,,,,,,,147.5,B
Yes,Raw,4,Nikolay Noskov,Amateur Masters 40-44,1970,98.45,142.5,-162.5,-162.5,142.5,,100,M,Николай Носков,,,,,,,,,142.5,B
Yes,Raw,1,Viktor Mandrygin,Amateur Masters 50-54,1959,100,-160,160,,160,,100,M,Виктор Мандрыгин,,,,,,,,,160,B
Yes,Raw,2,Aleksandr Chernyshev,Amateur Masters 50-54,1957,99.2,125,135,-142.5,135,,100,M,Александр Чернышев,,,,,,,,,135,B
Yes,Raw,3,Gennadiy Semenov,Amateur Masters 50-54,1958,91.7,-120,125,-130,125,,100,M,Геннадий Семенов,,,,,,,,,125,B
Yes,Raw,1,Roman Kusov,Amateur Juniors 20-23,1987,104.6,150,-155,,150,,110,M,Роман Кусов,,,,,,,,,150,B
Yes,Raw,1,Evgeniy Davletshin,Amateur Open,1975,106.5,-180,180,-195,180,,110,M,Евгений Давлетшин,,,,,,,,,180,B
Yes,Raw,2,Leonid Golovin,Amateur Open,1973,104.8,165,175,-180,175,,110,M,Леонид Головин,,,,,,,,,175,B
Yes,Raw,3,Aleksandr Sibirtsev,Amateur Open,1981,103.2,150,170,-180,170,,110,M,Александр Сибирцев,,,,,,,,,170,B
Yes,Raw,4,Yuriy Turov,Amateur Open,1983,110,150,167.5,170,170,,110,M,Юрий Туров,,,,,,,,,170,B
Yes,Raw,5,Aleksandr Bersenev,Amateur Open,1986,104.3,-150,150,157.5,157.5,,110,M,Александр Берсенев,,,,,,,,,157.5,B
Yes,Raw,6,Aleksey Sboev,Amateur Open,1978,103.9,-150,150,-155,150,,110,M,Алексей Сбоев,,,,,,,,,150,B
Yes,Raw,7,Andrey Zlydnev,Amateur Open,1974,108,-150,150,-160,150,,110,M,Андрей Злыднев,,,,,,,,,150,B
Yes,Raw,DQ,Sergey Reshetnikov,Amateur Open,1973,109.3,-165,,,,,110,M,Сергей Решетников,,,,,,,,,,B
Yes,Raw,1,Vitaliy Gritskevich,Amateur Masters 40-44,1969,108.7,-160,160,165,165,,110,M,Виталий Грицкевич,,,,,,,,,165,B
Yes,Raw,2,Ivan Kazantsev,Amateur Masters 40-44,1967,100.65,147.5,152.5,155,155,,110,M,Иван Казанцев,,,,,,,,,155,B
Yes,Raw,3,Andrey Chusovitin,Amateur Masters 40-44,1969,102.2,-152.5,152.5,-155,152.5,,110,M,Андрей Чусовитин,,,,,,,,,152.5,B
Yes,Raw,1,Viktor Kachusov,Amateur Masters 45-49,1960,108.3,157.5,162.5,-165,162.5,,110,M,Виктор Качусов,,,,,,,,,162.5,B
Yes,Raw,2,Ravil Fakhrutdinov,Amateur Masters 45-49,1962,108.5,-152.5,152.5,-165,152.5,,110,M,Равиль Фахрутдинов,,,,,,,,,152.5,B
Yes,Raw,1,Vladimir Shibaev,Amateur Masters 50-54,1960,100.75,160,170,175,175,,110,M,Владимир Шибаев,,,,,,,,,175,B
Yes,Raw,1,Ilya Nalimov,Amateur Juniors 20-23,1988,119,165,-175,175,175,,125,M,Илья Налимов,,,,,,,,,175,B
Yes,Raw,1,Pavel Karamalak,Amateur Open,1973,123,175,180,185,185,,125,M,Павел Карамалак,,,,,,,,,185,B
Yes,Raw,2,Valentin Taran,Amateur Open,1976,120.3,165,175,177.5,177.5,,125,M,Валентин Таран,,,,,,,,,177.5,B
Yes,Raw,3,Aleksey Shoronov,Amateur Open,1974,115.8,165,170,-175,170,,125,M,Алексей Шоронов,,,,,,,,,170,B
Yes,Raw,4,Roman Malimon,Amateur Open,1974,114.95,-160,160,-175,160,,125,M,Роман Малимон,,,,,,,,,160,B
Yes,Raw,1,Sergey Kharlamov,Amateur Open,1973,122.15,-180,185,-195,185,,125,M,Сергей Харламов,,,,,,,,,185,B
Yes,Raw,1,Alexander Mineyev,Amateur Masters 55-59,1953,121.55,110,120,125,125,130,125,M,Александр Минеев,,,,,,,,,125,B
Yes,Raw,1,Vasiliy Petrov,Amateur Open,1975,130.7,215,225,235,235,-242.5,140,M,Василий Петров,,,,,,,,,235,B
Yes,Raw,2,Andrei Melkozerov,Amateur Open,1971,128.4,190,205,-215,205,,140,M,Андрей Мелкозеров,,,,,,,,,205,B
Yes,Raw,3,Dmitriy Belyy,Amateur Open,1972,129.35,175,-180,-180,175,,140,M,Дмитрий Белый,,,,,,,,,175,B
Yes,Raw,1,Dmitriy Dyagilev,Amateur Open,1975,147.6,175,182.5,-187.5,182.5,,140+,M,Дмитрий Дягилев,,,,,,,,,182.5,B
Yes,Raw,2,Aleksey Kozachkov,Amateur Open,1970,149,-180,-180,180,180,-195,140+,M,Алексей Козачков,,,,,,,,,180,B
Yes,Raw,1,Aleksey Kozachkov,Amateur Masters 40-44,1970,149,-180,-180,180,180,-195,140+,M,Алексей Козачков,,,,,,,,,180,B
Yes,Multi-ply,1,Ekaterina Romanova,Amateur Juniors 20-23,1990,43.4,-50,50,-55,50,,44,F,Екатерина Романова,,,,,,,,,50,B
Yes,Multi-ply,1,Nadezhda Reutova,Amateur Teen 16-17,1993,51.25,55,57.5,-60,57.5,,52,F,Надежда Реутова,,,,,,,,,57.5,B
Yes,Multi-ply,1,Anastasia Ladygina,Amateur Juniors 20-23,1990,51.85,55,-60,-60,55,,52,F,Анастасия Ладыгина,,,,,,,,,55,B
Yes,Multi-ply,1,Tatyana Rykunova,Amateur Open,1971,52,60,65,-70,65,,52,F,Татьяна Рыкунова,,,,,,,,,65,B
Yes,Multi-ply,1,Mariya Berezenko,Amateur Juniors 20-23,1989,59,85,90,-95,90,,60,F,Мария Березенко,,,,,,,,,90,B
Yes,Multi-ply,1,Boris Anfyorov,Amateur Open,1983,51.7,100,-110.5,-110.5,100,,52,M,Борис Анфёров,,,,,,,,,100,B
Yes,Multi-ply,1,Nikita Telegin,Amateur Teen 13-15,1995,58.1,110,122.5,125,125,127.5,60,M,Никита Телегин,,,,,,,,,125,B
Yes,Multi-ply,1,Vladimir Kondratyev,Amateur Teen 16-17,1994,59.2,-95,100,-110,100,,60,M,Владимир Кондратьев,,,,,,,,,100,B
Yes,Multi-ply,1,Sergey Ladyzhnikov,Amateur Juniors 20-23,1986,60,115,125,133,133,-140,60,M,Сергей Ладыжников,,,,,,,,,133,B
Yes,Multi-ply,1,Dmitriy Ovsyannikov,Amateur Open,1981,59.45,120,-130,-130,120,,60,M,Дмитрий Овсянников,,,,,,,,,120,B
Yes,Multi-ply,1,Anton Mogilevsky,Amateur Teen 18-19,1991,64.15,150,162.5,-170,162.5,,67.5,M,Антон Могилевский,,,,,,,,,162.5,B
Yes,Multi-ply,1,Ravil Masalimov,Amateur Open,1985,64.2,-130,130,-135,130,,67.5,M,Равиль Масалимов,,,,,,,,,130,B
Yes,Multi-ply,2,Andrey Kudryavtsev,Amateur Open,1983,67.05,127.5,-135,-135,127.5,,67.5,M,Андрей Кудрявцев,,,,,,,,,127.5,B
Yes,Multi-ply,3,Vyacheslav Shepelev,Amateur Open,1976,66.55,-115,117.5,-127.5,117.5,,67.5,M,Вячеслав Шепелев,,,,,,,,,117.5,B
Yes,Multi-ply,DQ,Dmitriy Matosyan,Amateur Open,1976,66.35,-150,-150,-150,,,67.5,M,Дмитрий Матосян,,,,,,,,,,B
Yes,Multi-ply,1,Egor Samoylov,Amateur Teen 16-17,1993,73.3,-137.5,137.5,-150,137.5,,75,M,Егор Самойлов,,,,,,,,,137.5,B
Yes,Multi-ply,1,Maksim Chirkov,Amateur Juniors 20-23,1987,73.4,110,-120,-130,110,,75,M,Максим Чирков,,,,,,,,,110,B
Yes,Multi-ply,1,Aleksandr Sorokin,Amateur Open,1980,73.1,-160,160,-172.5,160,,75,M,Александр Сорокин,,,,,,,,,160,B
Yes,Multi-ply,1,Valery Trubin,Amateur Masters 40-44,1968,73.5,150,-160,160,160,-180,75,M,Валерий Трубин,,,,,,,,,160,B
Yes,Multi-ply,1,Sergey Bychkov,Amateur Masters 45-49,1964,73.35,100,-110,110,110,,75,M,Сергей Бычков,,,,,,,,,110,B
Yes,Multi-ply,1,Artush Karapetyan,Amateur Teen 18-19,1991,80.55,-135,140,-150,140,,82.5,M,Артуш Карапетян,,,,,,,,,140,B
Yes,Multi-ply,1,Stanislav Nevezhin,Amateur Juniors 20-23,1988,82.2,150,-157,-157.5,150,,82.5,M,Станислав Невежин,,,,,,,,,150,B
Yes,Multi-ply,1,Viktor Mistratov,Amateur Open,1981,82.45,-220,220,-243,220,,82.5,M,Виктор Мистратов,,,,,,,,,220,B
Yes,Multi-ply,2,Yuriy Kachkovskiy,Amateur Open,1988,79.3,-195,195,-220,195,,82.5,M,Юрий Качковский,,,,,,,,,195,B
Yes,Multi-ply,DQ,Evgeniy Seleznev,Amateur Open,1986,80.15,-160,-160,-170,,,82.5,M,Евгений Селезнев,,,,,,,,,,B
Yes,Multi-ply,DQ,Aleksey Savosin,Amateur Masters 40-44,1969,81.3,-185,-190,-190,,,82.5,M,Алексей Савосин,,,,,,,,,,B
Yes,Multi-ply,1,Vyacheslav Yakushov,Amateur Masters 65-69,1941,82.5,90,100,110.5,110.5,112.5,82.5,M,Вячеслав Якушов,,,,,,,,,110.5,B
Yes,Multi-ply,1,Pavel Fursov,Amateur Teen 18-19,1991,82.6,150,160,-173,160,,90,M,Павел Фурсов,,,,,,,,,160,B
Yes,Multi-ply,1,Aleksandr Metelyov,Amateur Open,1972,86.8,-205,205,-210,205,,90,M,Александр Метелёв,,,,,,,,,205,B
Yes,Multi-ply,2,Maksim Takhtay,Amateur Open,1980,89.9,180,-207.5,-207.5,180,,90,M,Максим Тахтай,,,,,,,,,180,B
Yes,Multi-ply,DQ,Mikhail Kadochnikov,Amateur Open,1980,88.1,-215,-220,-220,,,90,M,Михаил Кадочников,,,,,,,,,,B
Yes,Multi-ply,DQ,Vladimir Galkin,Amateur Open,1975,88.5,-200,-200,-200,,,90,M,Владимир Галкин,,,,,,,,,,B
Yes,Multi-ply,1,Bakhtiyar Mukhametov,Amateur Masters 40-44,1970,90,140,150,-190,150,,90,M,,,,,,,,,,150,B
Yes,Multi-ply,1,Yuriy Musienko,Amateur Teen 18-19,1991,100,160,-170,-170,160,,100,M,Юрий Мусиенко,,,,,,,,,160,B
Yes,Multi-ply,1,Rafik Zeynalov,Amateur Juniors 20-23,1987,98.7,-165,170,180,180,,100,M,Рафик Зейналов,,,,,,,,,180,B
Yes,Multi-ply,1,Aleksandr Belyaev,Amateur Open,1972,99.95,-225,225,230.5,230.5,,100,M,Александр Беляев,,,,,,,,,230.5,B
Yes,Multi-ply,2,Andrey Dobryakov,Amateur Open,1975,97.5,215,225,-230,225,,100,M,Андрей Добряков,,,,,,,,,225,B
Yes,Multi-ply,3,Sergey Martyanov,Amateur Open,1975,98.35,190,-210,-222.5,190,,100,M,Сергей Мартьянов,,,,,,,,,190,B
Yes,Multi-ply,DQ,Aleksandr Bakin,Amateur Open,1978,99.1,-180,-180,-180,,,100,M,Александр Бакин,,,,,,,,,,B
Yes,Multi-ply,1,Pavel Klevakin,Amateur Masters 40-44,1969,98.9,-225,225,-233,225,,100,M,Павел Клевакин,,,,,,,,,225,B
Yes,Multi-ply,1,Yuriy Ostrov,Amateur Masters 45-49,1962,95.1,180,192.5,-200,192.5,,100,M,Юрий Остров,,,,,,,,,192.5,B
Yes,Multi-ply,1,Vladimir Makeev,Amateur Masters 60-64,1947,94.9,-102.5,107.5,-117.5,107.5,,100,M,Владимир Макеев,,,,,,,,,107.5,B
Yes,Multi-ply,1,Aleksandr Kvasnikov,Amateur Juniors 20-23,1987,108.5,210,-225,-235,210,,110,M,Александр Квасников,,,,,,,,,210,B
Yes,Multi-ply,1,Dmitriy Khanykov,Amateur Open,1983,106.3,250,260,-270,260,,110,M,Дмитрий Ханыков,,,,,,,,,260,B
Yes,Multi-ply,2,Sergey Kostin,Amateur Open,1982,103.45,-210,-210,210,210,,110,M,Сергей Костин,,,,,,,,,210,B
Yes,Multi-ply,3,Andrey Zlydnev,Amateur Open,1974,108.6,-190,190,-202.5,190,,110,M,Андрей Злыднев,,,,,,,,,190,B
Yes,Multi-ply,4,Vladislav Kovtun,Amateur Open,1970,104,180,-202.5,-202.5,180,,110,M,Владислав Ковтун,,,,,,,,,180,B
Yes,Multi-ply,DQ,Valeriy Kurochkin,Amateur Open,1978,104.95,-230,-235,-250,,,110,M,Валерий Курочкин,,,,,,,,,,B
Yes,Multi-ply,DQ,Daniil Gerasimov,Amateur Open,1985,108.55,-250,-250,-255,,,110,M,Даниил Герасимов,,,,,,,,,,B
Yes,Multi-ply,1,Salman Shamkhalov,Amateur Masters 55-59,1952,108.8,150,170,-180,170,,110,M,Салман Шамхалов,,,,,,,,,170,B
Yes,Multi-ply,1,Dmitriy Ryzhov,Amateur Open,1972,115.45,220,230,235,235,,125,M,Дмитрий Рыжов,,,,,,,,,235,B
Yes,Multi-ply,2,Aleksandr Lebedev,Amateur Open,1972,117.9,-220,220,-232.5,220,,125,M,Александр Лебедев,,,,,,,,,220,B
Yes,Multi-ply,DQ,Pavel Yagovkin,Amateur Open,1959,114.9,-240,-240,-240,,,125,M,Павел Яговкин,,,,,,,,,,B
Yes,Multi-ply,DQ,Dmitriy Moiseev,Amateur Open,1978,123.8,-160,-160,-200,,,125,M,Дмитрий Моисеев,,,,,,,,,,B
Yes,Multi-ply,1,Sergey Kharlamov,Amateur Open,1973,121.4,-230,-240,247.5,247.5,-255,125,M,Сергей Харламов,,,,,,,,,247.5,B
Yes,Multi-ply,2,Evgeniy Formin,Amateur Masters 40-44,1967,124.7,-230,-230,247.5,247.5,,125,M,Евгений Формин,,,,,,,,,247.5,B
Yes,Multi-ply,DQ,Pavel Yagovkin,Amateur Masters 50-54,1959,114.9,-240,-240,-240,,,125,M,Павел Яговкин,,,,,,,,,,B
Yes,Multi-ply,1,Mikhail Nekrasov,Amateur Masters 40-44,1969,137.6,220,-240,-247.5,220,,140,M,Михаил Некрасов,,,,,,,,,220,B
Yes,Multi-ply,1,Oleg Melentyev,Amateur Open,1972,147.05,230,240,250,250,-255,140+,M,Олег Мелентьев,,,,,,,,,250,B
Yes,Raw,1,Roza Ovechkina,Amateur Open,1980,47,40,45,50,50,,48,F,Роза Овечкина,60,65,-70,65,80,90,95,95,210,SBD
Yes,Raw,1,Elena Shelepova,Amateur Open,1973,51.25,55,57.5,-62.5,57.5,,52,F,Елена Шелепова,75,80,85,85,105,110,115,115,257.5,SBD
Yes,Raw,1,Alena Sokolova,Amateur Open,1977,66.9,67.5,-72.5,-72.5,67.5,,67.5,F,Алена Соколова,95,105,-110,105,125,135,150,150,322.5,SBD
Yes,Raw,1,Inna Bessonova,Amateur Juniors 20-23,1988,73.65,37.5,42.5,47.5,47.5,,75,F,Инна Бессонова,75,-80,80,80,90,100,107.5,107.5,235,SBD
Yes,Raw,1,Denis Kashaulin,Amateur Teen 13-15,1997,47.35,40,45,50,50,,52,M,Денис Кашаулин,-60,60,70,70,80,-90,-90,80,200,SBD
Yes,Raw,1,Pavel Rushentsev,Amateur Teen 13-15,1994,55.6,65,70,-72.5,70,,56,M,Павел Рушенцев,85,90,92.5,92.5,120,130,135,135,297.5,SBD
Yes,Raw,1,Vitaly Mikhin,Amateur Teen 16-17,1993,60,80,85,87.5,87.5,,60,M,Виталий Михин,105,120,130.5,130.5,140,162.5,167.5,167.5,385.5,SBD
Yes,Raw,2,Sergey Kopchenov,Amateur Teen 16-17,1993,58.15,70,75,80,80,,60,M,Сергей Копченов,110,-120,120,120,-120,130,135,135,335,SBD
Yes,Raw,DQ,Dmitriy Maslov,Amateur Open,1981,60,95,100,105,105,,60,M,Дмитрий Маслов,110,115,120,120,150,160,-170,160,,SBD
Yes,Raw,1,Aleksandr Silantyev,Amateur Teen 16-17,1994,65.2,65,67.5,70,70,,67.5,M,Александр Силантьев,-100,110,-120,110,-25,25,,25,205,SBD
Yes,Raw,1,Nikita Paltsev,Amateur Teen 18-19,1992,65,95,105,-110,105,,67.5,M,Никита Пальцев,150,160,165,165,190,210,-215,210,480,SBD
Yes,Raw,1,Taras Dotsenko,Amateur Open,1983,65.75,105,110,115,115,,67.5,M,Тарас Доценко,-120,120,-130,120,180,200,-210,200,435,SBD
Yes,Raw,2,Sergey Volkov,Amateur Open,1981,60.7,70,75,-80,75,,67.5,M,Сергей Волков,120,-130,-130,120,130,140,150,150,345,SBD
Yes,Raw,1,Konstantin Sidenkov,Amateur Masters 40-44,1967,66.65,105,110,115,115,,67.5,M,Константин Сиденков,-105,105,-110,105,125,135,-145,135,355,SBD
Yes,Raw,1,Sergey Tyapkin,Amateur Teen 13-15,1995,74.25,105,110,,110,,75,M,Сергей Тяпкин,130,140,150,150,150,160,170,170,430,SBD
Yes,Raw,1,Anton Zinatullin,Amateur Teen 16-17,1994,73.35,105,-110,110,110,,75,M,Антон Зинатуллин,125,135,140,140,185,195,197.5,197.5,447.5,SBD
Yes,Raw,2,Pavel Kropachev,Amateur Teen 16-17,1993,73.25,120,125,130,130,,75,M,Павел Кропачев,130,140,-150,140,160,170,-175,170,440,SBD
Yes,Raw,3,Mikhail Sidenkov,Amateur Teen 16-17,1994,73.5,85,90,95,95,,75,M,Михаил Сиденков,110,-120,120,120,125,135,140,140,355,SBD
Yes,Raw,1,Grigoriy Gotsak,Amateur Juniors 20-23,1988,74.4,130,-140,140,140,,75,M,Григорий Гоцак,205,-215,215,215,250,-260,,250,605,SBD
Yes,Raw,2,Kim Solovyev,Amateur Juniors 20-23,1987,72.3,85,90,95,95,,75,M,Ким Соловьев,90,100,110,110,140,150,160,160,365,SBD
Yes,Raw,1,Aleksandr Chupriyanov,Amateur Open,1980,74.2,117.5,-130,130,130,,75,M,Александр Чуприянов,170,180,185,185,220,240,,240,555,SBD
Yes,Raw,2,Oleg Evdokimov,Amateur Open,1983,71.7,95,-105,-105,95,,75,M,Олег Евдокимов,140,150,160,160,215,220,-235,220,475,SBD
Yes,Raw,1,Mikhail Manyugin,Amateur Masters 40-44,1969,73.9,100,107.5,110,110,,75,M,Михаил Манюгин,145,157.5,162.5,162.5,200,-217.5,-217.5,200,472.5,SBD
Yes,Raw,1,Aleksandr Pushkarev,Amateur Juniors 20-23,1988,79.1,115,125,130,130,,82.5,M,Александр Пушкарев,160,175,185,185,205,230,-250,230,545,SBD
Yes,Raw,1,Ruslan Chelebadze,Amateur Open,1981,82.35,142.5,150,-157.5,150,,82.5,M,Руслан Челебадзе,175,185,195,195,210,215,-225,215,560,SBD
Yes,Raw,2,Valentin Schapov,Amateur Open,1979,82.2,135,140,145,145,,82.5,M,Валентин Щапов,-180,190,195,195,-200,-200,200,200,540,SBD
Yes,Raw,3,Artem Akhkyamov,Amateur Open,1986,81.4,-105,105,-115,105,,82.5,M,Артем Ахкямов,-180,-180,180,180,200,210,220,220,505,SBD
Yes,Raw,4,Sergey Kadtsin,Amateur Open,1981,82.5,-120,125,130,130,,82.5,M,Сергей Кадцин,-130,130,-140,130,-190,200,210,210,470,SBD
Yes,Raw,1,Konstantin Bazhin,Amateur Masters 40-44,1967,77.85,95,100,105,105,,82.5,M,Константин Бажин,-130,-140,140,140,165,175,190,190,435,SBD
Yes,Raw,1,Andrey Malenkikh,Amateur Juniors 20-23,1989,87.2,135,142.5,-152.5,142.5,,90,M,Андрей Маленьких,-205,205,220,220,210,230,-250,230,592.5,SBD
Yes,Raw,1,Pavel Chermenin,Amateur Open,1986,88.3,115,120,-125,120,,90,M,Павел Черменин,170,-180,180,180,190,205,215,215,515,SBD
Yes,Raw,2,Sergey Shlyapnikov,Amateur Open,1978,89.15,110,-120,-120,110,,90,M,Сергей Шляпников,160,170,180,180,180,-195,-200,180,470,SBD
Yes,Raw,1,Sergei Talalaev,Amateur Masters 40-44,1968,89.4,130,140,145,145,,90,M,Сергей Талалаев,160,-170,177.5,177.5,180,200,212.5,212.5,535,SBD
Yes,Raw,2,Aydar Abzalidinov,Amateur Masters 40-44,1968,85.3,-115,125,-130,125,,90,M,Айдар Абзалидинов,-155,170,-177.5,170,180,200,-227.5,200,495,SBD
Yes,Raw,3,Bakhtiyar Mukhametov,Amateur Masters 40-44,1970,90,145,151,-155,151,,90,M,,140,-150,-155,140,185,205,-232.5,205,496,SBD
Yes,Raw,1,Vyacheslav Yakushov,Amateur Masters 65-69,1941,83.55,90,95.5,97.5,97.5,,90,M,Вячеслав Якушов,157.5,165,170,170,182.5,190,195,195,462.5,SBD
Yes,Raw,1,Vasiliy Shtokolok,Amateur Juniors 20-23,1988,97.35,115,120,125,125,,100,M,Василий Штоколок,140,150,160,160,175,185,195,195,480,SBD
Yes,Raw,1,Andrei Ustyugov,Amateur Open,1971,98.35,160,170,-175,170,,100,M,Андрей Устюгов,225,245,-255,245,240,260,-265,260,675,SBD
Yes,Raw,2,Sergey Permyakov,Amateur Open,1981,95.4,110,115,120,120,,100,M,Сергей Пермяков,170,180,190,190,200,210,220,220,530,SBD
Yes,Raw,1,Alir Sharipov,Amateur Masters 40-44,1967,93,110,-115,115,115,,100,M,Алир Шарипов,150,155,-160,155,170,175,180,180,450,SBD
Yes,Raw,1,Alexander Leontyev,Amateur Masters 45-49,1961,90.7,135,142.5,145,145,,100,M,Александр Леонтьев,190,205,215,215,210,225,232.5,232.5,592.5,SBD
Yes,Raw,2,Aleksey Grach,Amateur Masters 45-49,1962,97.15,135,140,142.5,142.5,,100,M,Алексей Грач,205,212.5,,212.5,220,225,,225,580,SBD
Yes,Raw,1,Konstantin Komelin,Amateur Open,1989,107.8,135,150,-155,150,,110,M,Константин Комелин,230,250,260,260,270,285,-295,285,695,SBD
Yes,Raw,1,Eduard Posobilov,Amateur Masters 40-44,1970,105.45,120,130,135,135,,110,M,Эдуард Пособилов,170,180,190,190,170,190,210,210,535,SBD
Yes,Multi-ply,1,Tatyana Rykunova,Amateur Open,1971,52,60,-65,65,65,,52,F,Татьяна Рыкунова,-105,105,110,110,95,-100,,95,270,SBD
Yes,Multi-ply,1,Yuliya Ermakova,Amateur Teen 16-17,1994,56.7,40,-45,45,45,,60,F,Юлия Ермакова,90,100,110,110,-95,105,115,115,270,SBD
Yes,Multi-ply,1,Denis Prokhorov,Amateur Teen 13-15,1997,42,35,42.5,-45,42.5,,52,M,Денис Прохоров,80,90,95,95,75,-85,-90,75,212.5,SBD
Yes,Multi-ply,1,Artem Gorbachev,Amateur Teen 13-15,1996,53.05,55,60,-65,60,,56,M,Артем Горбачев,110,117.5,125,125,110,120,-130,120,305,SBD
Yes,Multi-ply,2,Ilya Zubakin,Amateur Teen 13-15,1996,55.2,57.5,-60,60,60,,56,M,Илья Зубакин,95,110,-115,110,100,120,,120,290,SBD
Yes,Multi-ply,1,Yuriy Chulkov,Amateur Teen 18-19,1992,55.7,75,80,-85,80,,56,M,Юрий Чулков,130,140,145,145,130,-135,135,135,360,SBD
Yes,Multi-ply,1,Andrey Kadochnikov,Amateur Juniors 20-23,1988,65.6,120,130,-140,130,,67.5,M,Андрей Кадочников,-215,215,-232,215,205,215,-225,215,560,SBD
Yes,Multi-ply,2,Georgiy Bobov,Amateur Juniors 20-23,1988,67.5,107.5,115,-120,115,,67.5,M,Георгий Бобов,-185,200,-210,200,-200,200,-215,200,515,SBD
Yes,Multi-ply,1,Igor Sharifov,Amateur Teen 18-19,1991,81.65,110,-117.5,-117.5,110,,82.5,M,Игорь Шарифов,230,-245,250,250,230,-242.5,242.5,242.5,602.5,SBD
Yes,Multi-ply,1,Rinat Galeev,Amateur Open,1974,80.2,120,-130,-130,120,,82.5,M,Ринат Галеев,-195,-200,200,200,50,,,50,370,SBD
Yes,Multi-ply,1,Sergey Glazkov,Amateur Teen 18-19,1992,89.6,150,160,167.5,167.5,,90,M,Сергей Глазков,250,270,-290,270,210,225,-245,225,662.5,SBD
Yes,Multi-ply,1,Alexei Safonov,Amateur Open,1976,83.35,145,155,165,165,,90,M,Алексей Сафонов,265,290,-315,290,225,245,260,260,715,SBD
Yes,Multi-ply,2,Vasiliy Zhilyakov,Amateur Open,1985,89.85,160,-182.5,,160,,90,M,Василий Жиляков,245,-250,,245,102.5,,,102.5,507.5,SBD
Yes,Multi-ply,3,Bakhtiyar Mukhametov,Amateur Open,1970,90,-100,100,,100,,90,M,,100,,,100,100,,,100,300,SBD
Yes,Multi-ply,1,Bakhtiyar Mukhametov,Amateur Masters 40-44,1970,90,-100,100,,100,,90,M,,100,,,100,100,,,100,300,SBD
Yes,Multi-ply,1,Andrey Ermenin,Amateur Masters 45-49,1964,89.95,140,147.5,150,150,,90,M,Андрей Ерменин,200,210,-240,210,190,200,-205,200,560,SBD
Yes,Multi-ply,1,Ilya Selivanov,Amateur Juniors 20-23,1989,94.9,-150,150,-165,150,,100,M,Илья Селиванов,-200,200,220,220,175,190,-205,190,560,SBD
Yes,Multi-ply,1,Aleksandr Chuev,Amateur Open,1966,99.4,190,200,-210,200,,100,M,Александр Чуев,330,-355,-370,330,-270,270,300,300,830,SBD
Yes,Multi-ply,1,Igor Nikulin,Amateur Masters 50-54,1960,99.5,-85,85,97.5,97.5,,100,M,Игорь Никулин,170,180,-200,180,130,150,160,160,437.5,SBD
Yes,Multi-ply,1,Ivan Gostinin,Amateur Juniors 20-23,1987,102.85,150,160,172.5,172.5,,110,M,Иван Гостинин,220,240,-260,240,-230,240,255,255,667.5,SBD
Yes,Multi-ply,1,Oleg Pisachenko,Amateur Masters 40-44,1965,101.35,165,180,190,190,,110,M,Олег Писаченко,-270,285,-300,285,235,245,-255,245,720,SBD
No,Multi-ply,1,Aleksandr Tretyakov,Pro Open,1967,109.5,320,-327.5,-330,320,,,M,Александр Третьяков,,,,,,,,,320,B
No,Multi-ply,2,Konstantin Otavin,Pro Open,1973,101.65,300,310,-320,310,,,M,Константин Отавин,,,,,,,,,310,B
No,Multi-ply,3,Nikolay Pyshmintsev,Pro Open,1981,122.25,300,325,-330,325,,,M,Николай Пышминцев,,,,,,,,,325,B
No,Multi-ply,4,Andrey Paley,Pro Open,1961,108.2,315,-325,-325,315,,,M,Андрей Палей,,,,,,,,,315,B
No,Multi-ply,5,Denis Vildanov,Pro Open,1987,164.6,300,-320,-330,300,,,M,Денис Вильданов,,,,,,,,,300,B
No,Multi-ply,6,Andrey Zverev,Pro Open,1987,123.95,-260,270,-300,270,,,M,Андрей Зверев,,,,,,,,,270,B
No,Multi-ply,7,Evgeniy Illarionov,Pro Open,1982,112.85,-260,-260,260,260,,,M,Евгений Илларионов,,,,,,,,,260,B
No,Multi-ply,DQ,Vladimir Maksimov,Pro Open,1966,129.85,-390,-390,-390,,,,M,Владимир Максимов,,,,,,,,,,B
No,Multi-ply,DQ,Vladimir Schukin,Pro Open,1980,98.55,-260,-260,-260,,,,M,Владимир Щукин,,,,,,,,,,B
No,Multi-ply,DQ,Ivan Kurpishev,Pro Open,1969,108.5,-300,-310,,,,,M,Иван Курпишев,,,,,,,,,,B
No,Multi-ply,DQ,Evgeniy Nechaev,Pro Open,1978,88.75,-300,-310,,,,,M,Евгений Нечаев,,,,,,,,,,B
No,Raw,1,Svetlana Kabaeva,Pro Masters 45-49,1965,113.55,62.5,67.5,70,70,,90+,F,Светлана Кабаева,,,,,,,,,70,B
No,Raw,1,Boris Anfyorov,Special Olympics Open,1983,51.7,80,-85,-85,80,,52,M,Борис Анфёров,,,,,,,,,80,B
No,Raw,2,Igor Ershov,Special Olympics Open,1977,51.05,50,55,60,60,,52,M,Игорь Ершов,,,,,,,,,60,B
No,Raw,1,Anton Yudin,Special Olympics Open,1976,53.35,100,110,115,115,,56,M,Антон Юдин,,,,,,,,,115,B
No,Raw,2,Vitaliy Chirkin,Special Olympics Open,1981,53.6,100,105,110,110,,56,M,Виталий Чиркин,,,,,,,,,110,B
No,Raw,1,Aleksandr Pitukhin,Special Olympics Open,1985,57.85,105,-110,-110,105,,60,M,Александр Питухин,,,,,,,,,105,B
No,Raw,2,Andrey Gakhuzin,Special Olympics Open,1979,59.95,-65,65,72.5,72.5,,60,M,Андрей Гахузин,,,,,,,,,72.5,B
No,Raw,3,Aleksandr Zdravomyslov,Special Olympics Open,1980,56.5,55,60,62.5,62.5,,60,M,Александр Здравомыслов,,,,,,,,,62.5,B
No,Raw,4,Maksim Pozharskiy,Special Olympics Open,1985,59.4,55,60,62.5,62.5,,60,M,Максим Пожарский,,,,,,,,,62.5,B
No,Raw,1,Aleksandr Pozharskiy,Special Olympics Teen 18-19,1990,60.7,50,55,57.5,57.5,,67.5,M,Александр Пожарский,,,,,,,,,57.5,B
No,Raw,1,Ilya Pertsev,Special Olympics Juniors 20-23,1988,63.2,90,-95,97.5,97.5,,67.5,M,Илья Перцев,,,,,,,,,97.5,B
No,Raw,2,Nikita Simonov,Special Olympics Juniors 20-23,1989,61.4,87.5,-90,90,90,,67.5,M,Никита Симонов,,,,,,,,,90,B
No,Raw,1,Anton Mamontov,Special Olympics Open,1986,62.9,105,110,115,115,120,67.5,M,Антон Мамонтов,,,,,,,,,115,B
No,Raw,2,Vadim Cherepakhin,Special Olympics Open,1986,65.7,77.5,82.5,-85,82.5,,67.5,M,Вадим Черепахин,,,,,,,,,82.5,B
No,Raw,DQ,Din Nigamatullin,Special Olympics Open,1978,62.1,-90,-100,-107.5,,,67.5,M,Дин Нигаматуллин,,,,,,,,,,B
No,Raw,1,Egor Vdovinykh,Special Olympics Teen 16-17,1993,74.3,92.5,97.5,102.5,102.5,,75,M,Егор Вдовиных,,,,,,,,,102.5,B
No,Raw,1,Pavel Chushkin,Special Olympics Juniors 20-23,1987,73.4,87.5,-92.5,92.5,92.5,,75,M,Павел Чушкин,,,,,,,,,92.5,B
No,Raw,1,Aleksandr Smirnov,Special Olympics Open,1982,94.8,100,115,,115,,100,M,Александр Смирнов,,,,,,,,,115,B
No,Raw,1,Evgeniy Pastukhov,Special Olympics Open,1985,100.65,110,115,120,120,,110,M,Евгений Пастухов,,,,,,,,,120,B
No,Raw,1,Sergey Otev,Special Olympics Teen 16-17,1992,57.5,65,70,-75,70,,60,M,Сергей Отев,100,107.5,112.5,112.5,150,155,-160,155,337.5,SBD
No,Raw,2,Vyacheslav Parkaev,Special Olympics Teen 16-17,1994,57.3,50,55,57.5,57.5,,60,M,Вячеслав Паркаев,70,75,85,85,117.5,-125,,117.5,260,SBD
No,Raw,1,Vladimir Sergeev,Special Olympics Open,1985,56.2,55,-62.5,-62.5,55,,60,M,Владимир Сергеев,70,75,-80,75,120,125,,125,255,SBD
No,Raw,1,Nikita Zhelev,Special Olympics Teen 16-17,1994,63.1,65,70,-75,70,,67.5,M,Никита Желев,80,85,92.5,92.5,120,127.5,-132.5,127.5,290,SBD
No,Raw,1,Pavel Nikiforov,Special Olympics Juniors 20-23,1987,65.3,-75,77.5,-82.5,77.5,,67.5,M,Павел Никифоров,80,85,90,90,112.5,120,,120,287.5,SBD
No,Raw,1,Petr Borodinov,Special Olympics Teen 16-17,1994,68.3,55,60,62.5,62.5,,75,M,Петр Бородинов,80,85,-90,85,120,127.5,,127.5,275,SBD
No,Raw,1,Aleksey Uymin,Special Olympics Juniors 20-23,1990,72.4,67.5,75,-82.5,75,,75,M,Алексей Уймин,90,95,102.5,102.5,155,160,,160,337.5,SBD
No,Raw,2,Andrey Gusev,Special Olympics Juniors 20-23,1987,75,62.5,67.5,-70,67.5,,75,M,Андрей Гусев,100,-105,105,105,130,140,,140,312.5,SBD
No,Raw,3,Aleksey Knyazkin,Special Olympics Juniors 20-23,1987,68.9,75,-80,-82.5,75,,75,M,Алексей Князькин,95,102.5,107.5,107.5,-120,120,,120,302.5,SBD
No,Raw,1,Pavel Zubov,Special Olympics Juniors 20-23,1990,76.2,82.5,87.5,90,90,,82.5,M,Павел Зубов,140,150,155,155,172.5,180,,180,425,SBD
No,Raw,2,Viktor Ananin,Special Olympics Juniors 20-23,1988,82.3,80,-85,-85,80,,82.5,M,Виктор Ананьин,100,107.5,115,115,150,170,-190,170,365,SBD
No,Raw,3,Kirill Isaev,Special Olympics Juniors 20-23,1987,79.8,80,85,87.5,87.5,,82.5,M,Кирилл Исаев,105,-110,110,110,150,160,,160,357.5,SBD
No,Raw,1,Ivan Kukoba,Special Olympics Open,1986,90,62.5,67.5,-70,67.5,,90,M,Иван Кукоба,90,100,105,105,150,160,,160,332.5,SBD
No,Raw,1,Andrey Ladeyschikov,Special Olympics Open,1984,93.5,115,120,-125,120,,100,M,Андрей Ладейщиков,155,165,175,175,205,-215,,205,500,SBD
No,Raw,2,Aleksandr Smirnov,Special Olympics Open,1982,94.8,90,110,-120,110,,100,M,Александр Смирнов,-90,-90,90,90,-140,155,,155,355,SBD
