Place,Name,CyrillicName,Sex,BodyweightKg,Bench1Kg,Bench2Kg,Bench3Kg,Best3BenchKg,Bench4Kg,TotalKg,WeightClassKg,Event,Equipment,Tested,Deadlift1Kg,Deadlift2Kg,Deadlift3Kg,Best3DeadliftKg,Deadlift4Kg,Division,Age,BirthDate
1,Viktor Moskvin,Виктор Москвин,M,81.4,155,160,-165,160,,160,82.5,B,Raw,No,,,,,,Pro Juniors 20-23,22,1996-12-17
1,Anton Gorshkov,Антон Горшков,M,79.5,155,162.5,170,170,,170,82.5,B,Raw,No,,,,,,Pro Open,31,1988-03-25
2,Andrey Kuznetsov,Андрей Кузнецов,M,81.4,-155,-162.5,167.5,167.5,,167.5,82.5,B,Raw,No,,,,,,Pro Open,27,1991-08-20
3,Pavel Tsvetkov,Павел Цветков,M,82.5,155,-162.5,162.5,162.5,,162.5,82.5,B,Raw,No,,,,,,Pro Open,30,1988-10-15
4,Viktor Moskvin,Виктор Москвин,M,81.4,155,160,-165,160,,160,82.5,B,Raw,No,,,,,,Pro Open,22,1996-12-17
5,Andrey Poronkin,Андрей Поронькин,M,79.2,127.5,-132.5,-132.5,127.5,,127.5,82.5,B,Raw,No,,,,,,Pro Open,24,1995-01-15
6,Kirill Gusev,Кирилл Гусев,M,77.7,110,-120,-125,110,,110,82.5,B,Raw,No,,,,,,Pro Open,32,1986-11-15
DQ,Aleksey Suslov,Алексей Суслов,M,76.3,-125,-125,-125,,,,82.5,B,Raw,No,,,,,,Pro Open,33,1985-07-11
1,German Barabanov,Герман Барабанов,M,82.2,125,130,135,135,-137.5,135,82.5,B,Raw,No,,,,,,Pro Masters 70-79,79,1940-01-28
1,Vladislav Volchanov,Владислав Волчанов,M,86.6,180,187.5,-192.5,187.5,,187.5,90,B,Raw,No,,,,,,Pro Open,43,1975-10-31
2,Rustam Bogoutdinov,Рустам Богоутдинов,M,90,170,175,180,180,,180,90,B,Raw,No,,,,,,Pro Open,36,1982-06-05
3,Andrey Konovalenko,Андрей Коноваленко,M,89.1,160,165,-170,165,,165,90,B,Raw,No,,,,,,Pro Open,36,1982-08-20
4,Konstantin Azizmamadov,Константин Азизмамадов,M,89.4,150,162.5,-165,162.5,,162.5,90,B,Raw,No,,,,,,Pro Open,34,1985-03-17
5,Anatoliy Titov,Анатолий Титов,M,88.6,130,-140,-145,130,,130,90,B,Raw,No,,,,,,Pro Open,25,1993-07-09
1,Vladislav Volchanov,Владислав Волчанов,M,86.6,180,187.5,-192.5,187.5,,187.5,90,B,Raw,No,,,,,,Pro Masters 40-49,43,1975-10-31
1,Artem Pshonkin,Артем Пшонкин,M,97,150,-155,-157.5,150,,150,100,B,Raw,No,,,,,,Pro Juniors 20-23,23,1996-04-26
1,Aleksandr Akulich,Александр Акулич,M,97.3,205,-215,-215,205,,205,100,B,Raw,No,,,,,,Pro Open,37,1981-11-17
2,Viktor Nikiforov,Виктор Никифоров,M,98.8,180,190,200,200,,200,100,B,Raw,No,,,,,,Pro Open,35,1983-08-24
3,Ilya Lebedev,Илья Лебедев,M,99.9,180,190,200,200,,200,100,B,Raw,No,,,,,,Pro Open,25,1994-02-04
4,Ilya Prmanov,Илья Прманов,M,97.6,180,190,-200,190,,190,100,B,Raw,No,,,,,,Pro Open,30,1989-01-25
5,Maksim Yuyukin,Максим Ююкин,M,97,-172.5,-175,175,175,,175,100,B,Raw,No,,,,,,Pro Open,37,1982-05-09
1,Mikhail Alekhin,Михаил Алехин,M,96.9,145,152.5,-155,152.5,,152.5,100,B,Raw,No,,,,,,Pro Masters 40-49,49,1969-08-06
2,Pavel Karamzin,Павел Карамзин,M,95.8,-140,150,-160,150,,150,100,B,Raw,No,,,,,,Pro Masters 40-49,40,1978-06-25
DQ,Igor Kaverin,Игорь Каверин,M,100,-125,-125,,,,,100,B,Raw,No,,,,,,Pro Masters 40-49,48,1971-02-27
1,Aleksey Solovev,Алексей Соловьев,M,110,265,272.5,-277.5,272.5,,272.5,110,B,Raw,No,,,,,,Pro Open,28,1990-07-01
2,Akhmed Musaev,Ахмед Мусаев,M,103,200,210,215,215,,215,110,B,Raw,No,,,,,,Pro Open,38,1980-10-10
3,Aleksey Plotnikov,Алексей Плотников,M,109.1,200,210,-217.5,210,,210,110,B,Raw,No,,,,,,Pro Open,43,1975-06-16
4,Maksim Yakushev,Максим Якушев,M,106,180,192.5,,192.5,,192.5,110,B,Raw,No,,,,,,Pro Open,31,1987-08-26
5,Dmitriy Tarasov,Дмитрий Тарасов,M,108.2,170,180,185,185,,185,110,B,Raw,No,,,,,,Pro Open,33,1986-03-22
6,Andrey Kolesnikov,Андрей Колесников,M,105.5,177.5,-182.5,182.5,182.5,,182.5,110,B,Raw,No,,,,,,Pro Open,32,1987-04-20
1,Aleksandr Kuznetsov,Александр Кузнецов,M,119.8,220,230,240,240,,240,125,B,Raw,No,,,,,,Pro Open,39,1979-06-20
2,Maksim Silaev,Максим Силаев,M,123.8,220,230,-237.5,230,,230,125,B,Raw,No,,,,,,Pro Open,50,1968-06-07
1,Maksim Silaev,Максим Силаев,M,123.8,220,230,-237.5,230,,230,125,B,Raw,No,,,,,,Pro Masters 50-59,50,1968-06-07
1,Sergey Nakonechnyy,Сергей Наконечный,M,135.5,380,-400,400,400,,400,140,B,Multi-ply,No,,,,,,Pro Open,32,1986-11-04
1,Pavel Leonov,Павел Леонов,M,104.5,380,-400,-420,380,,380,110,B,Multi-ply,No,,,,,,Pro Open,35,1983-11-08
1,Aleksey Cherstvov,Алексей Черствов,M,115.3,-380,380,-390,380,,380,125,B,Multi-ply,No,,,,,,Pro Open,38,1981-04-16
1,Darya Nikonorova,Дарья Никонорова,F,46.6,,,,,,72.5,48,D,Raw,No,60,65,72.5,72.5,,Pro Sub-Juniors 17-19,19,2000-02-11
1,Olga Balaeva,Ольга Балаева,F,65,,,,,,100,67.5,D,Raw,No,80,90,100,100,,Pro Open,38,1980-10-06
1,Ekaterina Ershova,Екатерина Ершова,F,73.6,,,,,,100,75,D,Raw,No,80,90,100,100,,Pro Open,37,1981-07-01
1,Dmitriy Shcherbakov,Дмитрий Щербаков,M,66.5,,,,,,207.5,67.5,D,Raw,No,195,200,207.5,207.5,,Pro Open,35,1984-04-27
1,Andrey Neklyudov,Андрей Неклюдов,M,84.7,,,,,,210,90,D,Raw,No,190,210,-220,210,,Pro Juniors 20-23,22,1996-11-24
1,Ilya Fedorov,Илья Фёдоров,M,89.4,,,,,,350,90,D,Raw,No,300,-350,350,350,-372.5,Pro Open,26,1992-08-29
2,Konstantin Azizmamadov,Константин Азизмамадов,M,89.4,,,,,,302.5,90,D,Raw,No,270,302.5,,302.5,,Pro Open,34,1985-03-17
3,Dmitriy Filippov,Дмитрий Филиппов,M,88,,,,,,222.5,90,D,Raw,No,200,210,222.5,222.5,,Pro Open,30,1988-12-16
1,Aleksey Ananin,Алексей Ананьин,M,97.9,,,,,,307.5,100,D,Raw,No,307.5,-317.5,-317.5,307.5,,Pro Open,42,1976-09-28
2,Ilya Prmanov,Илья Прманов,M,97.5,,,,,,280,100,D,Raw,No,260,270,280,280,,Pro Open,30,1989-01-25
3,Evgeniy Kuklev,Евгений Куклев,M,97.7,,,,,,262.5,100,D,Raw,No,-235,250,262.5,262.5,,Pro Open,28,1990-07-15
4,Artem Panov,Артем Панов,M,97.5,,,,,,235,100,D,Raw,No,225,235,-240,235,,Pro Open,28,1990-09-01
5,Viktor Isupov,Виктор Исупов,M,97.7,,,,,,222.5,100,D,Raw,No,200,215,222.5,222.5,,Pro Open,32,1987-01-09
1,Danil Karev,Данил Карев,M,109.4,,,,,,300,110,D,Raw,No,280,300,-315,300,,Pro Open,27,1991-06-17
2,Andrey Butko,Андрей Бутко,M,108.7,,,,,,280,110,D,Raw,No,-280,280,-302.5,280,,Pro Open,34,1985-05-05
3,Ruslan Ermakov,Руслан Ермаков,M,110,,,,,,270,110,D,Raw,No,255,270,-280,270,,Pro Open,36,1982-10-26
1,Ivan Lutsenko #1,Иван Луценко,M,113.4,,,,,,230,125,D,Raw,No,230,-250,-257.5,230,,Pro Open,26,1992-10-15
