Place,Name,Division,BodyweightKg,Squat1Kg,Squat2Kg,Squat3Kg,Best3SquatKg,Squat4Kg,Bench1Kg,Bench2Kg,Bench3Kg,Best3BenchKg,Bench4Kg,Deadlift1Kg,Deadlift2Kg,Deadlift3Kg,Best3DeadliftKg,Deadlift4Kg,TotalKg,WeightClassKg,Sex,CyrillicName,BirthYear,Tested,Equipment,Event
1,Elena Kuzkina,Submasters 33-39,46.6,-70,70,75,75,,50,-55,-55,50,,85,95,-100,95,,220,48,F,Елена Кузькина,1980,Yes,Wraps,SBD
1,Anastasiya Rozhok,Juniors 20-23,50.2,80,92.5,-95,92.5,,45,-55,-55,45,,87.5,-95,-97.5,87.5,,225,52,F,Анастасия Рожок,1994,Yes,Wraps,SBD
1,Irina Trefilova,Masters 50-54,51.6,-52.5,55,-57.5,55,,-50,52.5,-55,52.5,,70,75,77.5,77.5,,185,52,F,Ирина Трефилова,1962,Yes,Wraps,SBD
1,Elena Klimina,Juniors 20-23,54.8,85,-90,-90,85,,-45,45,-50,45,,125,135,-140,135,,265,56,F,Елена Климина,1992,Yes,Wraps,SBD
2,Anastasiya Stabrovskaya,Juniors 20-23,55.3,-80,80,-82.5,80,,-45,47.5,-50,47.5,,85,-90,-90,85,,212.5,56,F,Анастасия Стабровская,1993,Yes,Wraps,SBD
DQ,Natiya Dgebuadze,Juniors 20-23,55,-85,-90,-90,,,-55,,,,,-115,,,,,,56,F,Натия Дгебуадзе,1994,Yes,Wraps,SBD
1,Ekaterina Surich,Open,55.2,100,110,-120,110,,55,-60,-60,55,,95,100,105,105,,270,56,F,Екатерина Сурич,1987,Yes,Wraps,SBD
1,Natalya Dobrova,Masters 45-49,54.3,-60,65,70,70,,60,-62.5,-62.5,60,,80,85,92.5,92.5,,222.5,56,F,Наталья Доброва,1970,Yes,Wraps,SBD
1,Ekaterina Ismagilova,Juniors 20-23,56.9,65,70,75,75,,40,45,-47.5,45,,60,65,70,70,,190,60,F,Екатерина Исмагилова,1992,Yes,Wraps,SBD
2,Oksana Chichikalo,Juniors 20-23,56.4,-60,-60,60,60,,40,-45,-45,40,,65,70,72.5,72.5,,172.5,60,F,Оксана Чичикало,1995,Yes,Wraps,SBD
1,Vera Tumanova,Open,59.3,90,95,100,100,,60,62.5,65,65,,132.5,140,145,145,,310,60,F,Вера Туманова,1981,Yes,Wraps,SBD
1,Gulnara Alibaeva,Open,81.7,80,85,-90,85,,50,55,57.5,57.5,,90,100,-120,100,,242.5,82.5,F,Гульнара Алибаева,1977,Yes,Wraps,SBD
1,Ruslan Krasnov,Teen 16-17,67,115,125,-135,125,,80,85,-90,85,,120,130,140,140,,350,67.5,M,Руслан Краснов,1998,Yes,Wraps,SBD
1,Anton Salin,Open,64.6,-95,95,105,105,,80,-85,-85,80,,-150,160,165,165,,350,67.5,M,Антон Салин,1987,Yes,Wraps,SBD
1,Aleksandr Vasilyev,Juniors 20-23,72.2,200,-210,210,210,,110,120,125,125,,220,230,240,240,,575,75,M,Александр Васильев,1992,Yes,Wraps,SBD
1,Garegin Verdiev,Open,74,-155,155,165,165,,120,130,-132.5,130,,180,192.5,200,200,,495,75,M,Гарегин Вердиев,1990,Yes,Wraps,SBD
2,Mikhail Vishnyakov,Open,73.7,180,-190,190,190,,105,-110,-115,105,,180,190,-202.5,190,,485,75,M,Михаил Вишняков,1989,Yes,Wraps,SBD
3,Konstantin Ershov,Open,74.4,110,120,130,130,,90,95,-97.5,95,,-150,165,180,180,,405,75,M,Константин Ершов,1989,Yes,Wraps,SBD
1,Artak Kazaryan,Teen 13-15,80.4,160,175,-185,175,,80,92.5,98,98,102.5,148,160,170,170,180,443,82.5,M,Артак Казарян,2000,Yes,Wraps,SBD
1,Egor Kalyakin,Teen 16-17,82.3,210,-220,220,220,,125,132.5,-137.5,132.5,,210,222.5,-232.5,222.5,,575,82.5,M,Егор Калякин,1999,Yes,Wraps,SBD
2,Saveliy Bokarev,Teen 16-17,81.3,180,-190,-192.5,180,,115,120,-122.5,120,,200,-210,-210,200,,500,82.5,M,Савелий Бокарев,1998,Yes,Wraps,SBD
3,Anton Dutov,Teen 16-17,81.4,-135,135,145,145,,85,90,95,95,,140,150,160,160,,400,82.5,M,Антон Дутов,1999,Yes,Wraps,SBD
1,Vadim Suchkov,Open,80.4,160,170,-185,170,,-115,115,120,120,,180,190,200,200,,490,82.5,M,Вадим Сучков,1984,Yes,Wraps,SBD
2,Kirill Marakshin,Open,78.9,-160,-165,165,165,,110,112.5,115,115,,190,200,-210,200,,480,82.5,M,Кирилл Маракшин,1988,Yes,Wraps,SBD
1,Andrey Belyakov,Masters 45-49,78.9,140,150,-160,150,,130,135,,135,,170,175,182.5,182.5,,467.5,82.5,M,Андрей Беляков,1966,Yes,Wraps,SBD
1,Aleksey Tanaev,Teen 16-17,86.1,-170,-170,185,185,,95,100,-105,100,,175,185,190,190,,475,90,M,Алексей Танаев,1999,Yes,Wraps,SBD
2,Aleksandr Sabadysh,Teen 16-17,88.8,120,-130,130,130,,80,90,-100,90,,140,150,160,160,,380,90,M,Александр Сабадыш,1997,Yes,Wraps,SBD
1,Sergey Bronzov,Teen 18-19,87.6,-200,200,-205,200,,140,-150,-150,140,,240,250,257.5,257.5,,597.5,90,M,Сергей Бронзов,1996,Yes,Wraps,SBD
2,Damir Alimov,Teen 18-19,87.5,190,-200,-200,190,,125,135,-140,135,,190,210,-230,210,,535,90,M,Дамир Алимов,1995,Yes,Wraps,SBD
DQ,Artem Porkhachev,Juniors 20-23,85.5,-180,-180,-180,,,,,,,,,,,,,,90,M,Артем Порхачев,1993,Yes,Wraps,SBD
1,Egor Opichenok,Open,89.3,185,200,,200,,-157.5,157.5,167.5,167.5,,230,245,-255,245,,612.5,90,M,Егор Опиченок,1981,Yes,Wraps,SBD
2,Grigoriy Makeich,Open,88.5,200,210,-220,210,,120,125,130,130,,-250,250,260,260,,600,90,M,Григорий Макеич,1989,Yes,Wraps,SBD
3,Pavel Balashov,Open,89.3,-130,-140,140,140,,120,125,130,130,,150,155,160,160,,430,90,M,Павел Балашов,1983,Yes,Wraps,SBD
1,Anton Dolgikh,Open,97.4,-225,230,240,240,,165,175,-185,175,,235,245,-250,245,,660,100,M,Антон Долгих,1987,Yes,Wraps,SBD
2,Nikolay Kotov,Open,98,210,220,-230,220,,150,155,162.5,162.5,,245,252.5,257.5,257.5,,640,100,M,Николай Котов,1975,Yes,Wraps,SBD
3,Mikhail Zhukov,Open,99,-200,-210,210,210,,-110,120,127.5,127.5,,230,247.5,260,260,,597.5,100,M,Михаил Жуков,1987,Yes,Wraps,SBD
4,Sergey Zadubrovskiy,Open,91.6,170,180,190,190,,150,160,-167.5,160,,200,220,225,225,,575,100,M,Сергей Задубровский,1982,Yes,Wraps,SBD
DQ,Vitaliy Zaytsev,Masters 45-49,92.7,-180,,,,,-135,,,,,-190,,,,,,100,M,Виталий Зайцев,1970,Yes,Wraps,SBD
1,Mikhail Aleksakov,Masters 60-64,98.2,135,-145,-145,135,,112.5,117.5,122.5,122.5,,165,175,180,180,,437.5,100,M,Михаил Алексаков,1954,Yes,Wraps,SBD
2,Aleksandr Gezhenko,Masters 60-64,99,100,110,-115,110,,100,110,-115,110,,150,165,-175,165,,385,100,M,Александр Геженко,1953,Yes,Wraps,SBD
DQ,Stepan Marutyan,Juniors 20-23,107.5,-240,-240,-240,,,,,,,,,,,,,,110,M,Степан Марутян,1995,Yes,Wraps,SBD
1,Nikita Molokanov,Open,106.7,200,210,-220,210,,140,145,-150,145,,215,230,252.5,252.5,,607.5,110,M,Никита Молоканов,1990,Yes,Wraps,SBD
1,Sergey Babik,Masters 50-54,123.7,200,210,220,220,,-145,145,-150,145,,225,240,-255,240,,605,125,M,Сергей Бабик,1961,Yes,Wraps,SBD
1,Mariya Dmitrieva,Juniors 20-23,57.6,95,110,125,125,,-65,-70,70,70,,130,137.5,145,145,,340,60,F,Мария Дмитриева,1993,No,Wraps,SBD
1,Olga Kostrova,Open,71.8,-140,-145,150,150,,90,95,-100,95,,155,165,-170,165,,410,75,F,Ольга Кострова,1974,No,Wraps,SBD
1,Mikhail Efimischev,Juniors 20-23,74.9,235,245,-250,245,,140,145,-147.5,145,,210,-217.5,220,220,,610,75,M,Михаил Ефимищев,1994,No,Wraps,SBD
1,Nikolay Vetrov,Masters 70-74,74.1,115,-120,120,120,,75,77.5,80,80,,150,155,160,160,,360,75,M,Николай Ветров,1945,No,Wraps,SBD
1,Maksim Luzin,Open,80.4,215,232.5,237.5,237.5,,147.5,157.5,162.5,162.5,,255,-265,270,270,,670,82.5,M,Максим Лузин,1987,No,Wraps,SBD
2,Dmitriy Korneev,Open,82.4,230,240,250,250,,-140,145,150,150,,230,-240,257.5,257.5,,657.5,82.5,M,Дмитрий Корнеев,1982,No,Wraps,SBD
3,Dmitriy Saprykin,Open,80.8,-220,220,-232.5,220,,150,-160,-160,150,,225,-235,242.5,242.5,,612.5,82.5,M,Дмитрий Сапрыкин,1989,No,Wraps,SBD
4,Aleksey Markin,Open,80.8,-205,215,230,230,,130,145,-155,145,,200,215,225,225,,600,82.5,M,Алексей Маркин,1986,No,Wraps,SBD
5,Nikolay Zamp,Open,82.5,190,200,-205,200,,125,130,135,135,,210,220,235,235,,570,82.5,M,Николай Замп,1990,No,Wraps,SBD
1,Sergey Kachan,Juniors 20-23,88.1,-220,230,240,240,,155,160,165,165,,270,280,-300,280,,685,90,M,Сергей Качан,1992,No,Wraps,SBD
1,Aleksandr Shabrov,Open,89,250,270,280,280,,150,157.5,160,160,,250,270,-280,270,,710,90,M,Александр Шабров,1991,No,Wraps,SBD
2,Andrey Bubin,Open,89,240,255,265,265,,150,-160,-160,150,,240,250,-260,250,,665,90,M,Андрей Бубин,1981,No,Wraps,SBD
1,Sergey Kandaurov,Masters 40-44,85.8,180,185,190,190,,145,155,157.5,157.5,,180,190,200,200,,547.5,90,M,Сергей Кандауров,1974,No,Wraps,SBD
1,Aleksey Yagunov,Masters 45-49,88,225,242.5,,242.5,,137.5,142.5,150,150,,235,245,252.5,252.5,,645,90,M,Алексей Ягунов,1968,No,Wraps,SBD
1,Vladimir Tarbonov,Masters 60-64,85.8,165,175,185,185,-200,95,-100,-100,95,,200,-210,-210,200,,480,90,M,Владимир Тарбонов,1954,No,Wraps,SBD
1,Aleksandr Belykh,Juniors 20-23,99,260,270,-280,270,,180,185,192.5,192.5,,260,,,260,,722.5,100,M,Александр Белых,1994,No,Wraps,SBD
1,Andrey Bulgar,Open,98.4,270,280,-285,280,,160,-170,-170,160,,315,-320,,315,,755,100,M,Андрей Булгарь,1988,No,Wraps,SBD
2,Aleksandr Zinovyev,Open,92.5,-250,255,265,265,,172.5,177.5,-182.5,177.5,,255,265,-272.5,265,,707.5,100,M,Александр Зиновьев,1985,No,Wraps,SBD
3,Vyacheslav Khorkov,Open,96.1,-230,230,240,240,,160,-170,175,175,,230,240,-255,240,,655,100,M,Вячеслав Хорьков,1979,No,Wraps,SBD
DQ,Aleksandr Kornilaev,Open,90.9,-120,120,125,125,,-105,-110,-110,,,-170,,,,,,100,M,Александр Корнилаев,1983,No,Wraps,SBD
1,Igor Chupryakov,Masters 40-44,94.7,215,230,-240,230,,180,187.5,-190,187.5,,230,240,247.5,247.5,,665,100,M,Игорь Чупряков,1975,No,Wraps,SBD
1,Igor Luzin,Masters 45-49,90.8,180,190,200,200,,142.5,147.5,150,150,,200,210,215,215,,565,100,M,Игорь Лузин,1969,No,Wraps,SBD
1,Ruslan Magomadov,Masters 50-54,96,170,180,190,190,,110,115,120,120,,175,190,,190,,500,100,M,Руслан Магомадов,1964,No,Wraps,SBD
1,Valeriy Seleznev,Juniors 20-23,106.9,215,-225,-225,215,,140,150,155,155,,220,230,240,240,,610,110,M,Валерий Селезнев,1993,No,Wraps,SBD
DQ,Pavel Chugunov,Juniors 20-23,108.8,-210,-220,-230,,,-160,,,,,-200,,,,,,110,M,Павел Чугунов,1992,No,Wraps,SBD
1,Valeriy Shumbasov,Open,109.1,-310,320,350,350,,210,220,-230,220,,310,330,-350,330,,900,110,M,Валерий Шумбасов,1982,No,Wraps,SBD
2,Evgeniy Solopov,Open,105.6,235,-245,245,245,,175,-180,-180,175,,260,270,280,280,,700,110,M,Евгений Солопов,1989,No,Wraps,SBD
3,Aleksandr Drozdov,Open,104.7,230,-250,-250,230,,150,155,-157.5,155,,220,230,-240,230,,615,110,M,Александр Дроздов,1980,No,Wraps,SBD
1,Valeriy Scherbakov,Masters 40-44,104.2,-220,220,240,240,,120,-130,-130,120,,260,280,-300,280,,640,110,M,Валерий Щербаков,1973,No,Wraps,SBD
1,Igor Kuzmenko,Masters 45-49,107.1,-190,190,200,200,,120,-135,135,135,,180,200,-210,200,,535,110,M,Игорь Кузьменко,1967,No,Wraps,SBD
1,Aleksey Danilin,Submasters 33-39,104,220,230,-240,230,,170,175,-180,175,,247.5,255,-262.5,255,,660,110,M,Алексей Данилин,1982,No,Wraps,SBD
1,Sergey Ustinov,Open,122.4,300,320,330,330,-345,180,192.5,197.5,197.5,,280,300,310,310,,837.5,125,M,Сергей Устинов,1988,No,Wraps,SBD
2,Mikhail Sekov,Open,115.8,285,295,310,310,,180,195,202.5,202.5,,290,305,315,315,,827.5,125,M,Михаил Секов,1986,No,Wraps,SBD
3,Ivan Tatyannikov,Open,117,-200,210,-230,210,,140,155,165,165,,240,257.5,,257.5,,632.5,125,M,Иван Татьянников,1986,No,Wraps,SBD
1,Maksim Kuchin,Juniors 20-23,129.2,295,305,312.5,312.5,,195,205,212.5,212.5,,290,300,-305,300,,825,140,M,Максим Кучин,1995,No,Wraps,SBD
1,Aleksandr Volkov,Open,127,300,315,325,325,,190,-197.5,,190,,300,310,,310,,825,140,M,Александр Волков,1975,No,Wraps,SBD
1,Tatyana Trushkova,Open,55.1,100,115,-125,115,,40,50,-52.5,50,,-100,100,110,110,-120,275,56,F,Татьяна Трушкова,1984,Yes,Single-ply,SBD
1,Svetlana Veselova,Open,56.9,130,-140,-140,130,,85,90,-95,90,,120,125,130,130,,350,60,F,Светлана Веселова,1987,Yes,Single-ply,SBD
DQ,Aleksandra Filippova,Open,66.3,90,100,-110,100,,-60,-60,-60,,,,,,,,,67.5,F,Александра Филиппова,1986,Yes,Single-ply,SBD
1,Ekaterina Shaeva,Open,81.5,120,127.5,132.5,132.5,135,52.5,57.5,-60,57.5,,130,137.5,-140,137.5,,327.5,82.5,F,Екатерина Шаева,1985,Yes,Single-ply,SBD
1,Ilya Arkhipov,Open,74.2,-170,-170,170,170,,120,-125,-125,120,,190,200,210,210,,500,75,M,Илья Архипов,1984,Yes,Single-ply,SBD
1,Aleksandr Tokar,Masters 40-44,75.5,150,-165,165,165,-172,125,-130,-130,125,,140,150,-160,150,,440,82.5,M,Александр Токарь,1972,Yes,Single-ply,SBD
1,Sergey Nikolaev,Open,88.3,180,-200,-200,180,,140,150,-155,150,,170,-190,-190,170,,500,90,M,Сергей Николаев,1979,Yes,Single-ply,SBD
1,Evgeniy Gureev,Open,98.8,240,265,-285,265,,185,190,197.5,197.5,200,230,242.5,250,250,,712.5,100,M,Евгений Гуреев,1988,Yes,Single-ply,SBD
2,Roman Safronov,Open,91.7,170,185,200,200,,120,135,-155,135,,165,180,190,190,,525,100,M,Роман Сафронов,1989,Yes,Single-ply,SBD
1,Alexander Krovikov,Masters 50-54,98.1,-230,-230,230,230,,180,195,200,200,,250,270,-280,270,,700,100,M,Александр Кровиков,1961,Yes,Single-ply,SBD
DQ,Mikhail Antsiferov,Open,107.6,270,-287.5,-287.5,270,,-235,-235,-235,,,,,,,,,110,M,Михаил Анциферов,1981,Yes,Single-ply,SBD
DQ,Mikhail Antsiferov,Submasters 33-39,107.6,270,-287.5,-287.5,270,,-235,-235,-235,,,,,,,,,110,M,Михаил Анциферов,1981,Yes,Single-ply,SBD
1,Konstantin Sapunkov,Open,82.5,312.5,320,-330,320,,210,217.5,225,225,,260,270,,270,,815,82.5,M,Константин Сапунков,1981,No,Single-ply,SBD
2,Roman Durnov,Open,80.9,260,290,,290,,-175,-175,175,175,,200,220,232.5,232.5,,697.5,82.5,M,Роман Дурнов,1986,No,Single-ply,SBD
1,Konstantin Sapunkov,Submasters 33-39,82.5,312.5,320,-330,320,,210,217.5,225,225,,260,270,,270,,815,82.5,M,Константин Сапунков,1981,No,Single-ply,SBD
1,Pavel Sudakov,Open,89.4,-300,300,,300,,-200,200,-225,200,,100,200,-300,200,,700,90,M,Павел Судаков,1991,No,Single-ply,SBD
1,Nikolay Medved,Open,95.6,240,-260,,240,,-190,190,-200,190,,240,-250,-250,240,,670,100,M,Николай Медведь,1989,No,Single-ply,SBD
1,Denis Demkin,Open,107.7,230,245,-260,245,,170,-175,175,175,,210,-230,,210,,630,110,M,Денис Демкин,1979,No,Single-ply,SBD
1,Alena Lalokina,Juniors 20-23,44,,,,,,40,47.5,-55,47.5,,,,,,,47.5,44,F,Алена Лалокина,1995,Yes,Raw,B
1,Yana Timonina,Juniors 20-23,46.4,,,,,,47.5,52.5,-55,52.5,,,,,,,52.5,48,F,Яна Тимонина,1993,Yes,Raw,B
2,Tatyana Kovaleva,Juniors 20-23,46.5,,,,,,-50,50,52.5,52.5,,,,,,,52.5,48,F,Татьяна Ковалева,1994,Yes,Raw,B
1,Irina Bryukhanova,Open,47.7,,,,,,55,60,62.5,62.5,,,,,,,62.5,48,F,Ирина Брюханова,1984,Yes,Raw,B
2,Yana Timonina,Open,46.4,,,,,,47.5,52.5,-55,52.5,,,,,,,52.5,48,F,Яна Тимонина,1993,Yes,Raw,B
3,Viktoriya Kabanova,Open,47.7,,,,,,52.5,-60,-60,52.5,,,,,,,52.5,48,F,Виктория Кабанова,1989,Yes,Raw,B
1,Alla Pavlichenko,Masters 40-44,47.5,,,,,,47.5,-52.5,52.5,52.5,,,,,,,52.5,48,F,Алла Павличенко,1974,Yes,Raw,B
1,Margarita Ryabchikova,Juniors 20-23,51.9,,,,,,-65,65,-67.5,65,,,,,,,65,52,F,Маргарита Рябчикова,1994,Yes,Raw,B
1,Tatyana Primak,Open,51.9,,,,,,57.5,62.5,-65,62.5,,,,,,,62.5,52,F,Татьяна Примак,1983,Yes,Raw,B
2,Marina Reshetova,Open,49.9,,,,,,-55,55,-57.5,55,,,,,,,55,52,F,Марина Решетова,1990,Yes,Raw,B
3,Ekaterina Ryabchikova,Open,50.3,,,,,,52.5,-55,55,55,,,,,,,55,52,F,Екатерина Рябчикова,1988,Yes,Raw,B
1,Margarita Mishlova,Juniors 20-23,54.1,,,,,,70,72.5,-75,72.5,,,,,,,72.5,56,F,Маргарита Мишлова,1994,Yes,Raw,B
2,Mariya Voropaeva,Juniors 20-23,54.9,,,,,,-50,-50,50,50,,,,,,,50,56,F,Мария Воропаева,1991,Yes,Raw,B
1,Tatyana Krotova,Open,55.9,,,,,,-80,-80,80,80,,,,,,,80,56,F,Татьяна Кротова,1986,Yes,Raw,B
2,Ekaterina Ilinskaya,Open,55.2,,,,,,67.5,-70,-70,67.5,,,,,,,67.5,56,F,Екатерина Ильинская,1988,Yes,Raw,B
3,Irina Pragina,Open,54.2,,,,,,-55,55,-57.5,55,,,,,,,55,56,F,Ирина Прагина,1989,Yes,Raw,B
4,Svetlana Safir,Open,55.6,,,,,,50,-52.5,-55,50,,,,,,,50,56,F,Светлана Сафир,1984,Yes,Raw,B
DQ,Irina Ulyanova,Open,55.3,,,,,,-60,-62.5,-62.5,,,,,,,,,56,F,Ирина Ульянова,1986,Yes,Raw,B
1,Olga Kostyrya,Teen 16-17,58.4,,,,,,45,-52.5,-52.5,45,,,,,,,45,60,F,Ольга Костыря,1998,Yes,Raw,B
1,Alla Single-plyirina,Juniors 20-23,58.6,,,,,,52.5,57.5,-60,57.5,,,,,,,57.5,60,F,Алла Спирина,1993,Yes,Raw,B
1,Evgeniya Kovalenko,Open,56.9,,,,,,-82.5,85,87.5,87.5,,,,,,,87.5,60,F,Евгения Коваленко,1982,Yes,Raw,B
2,Yaroslava Radina,Open,58.2,,,,,,65,67.5,70,70,,,,,,,70,60,F,Ярослава Радина,1990,Yes,Raw,B
1,Marina Moiseeva,Masters 45-49,59.2,,,,,,45,47.5,-50,47.5,,,,,,,47.5,60,F,Марина Моисеева,1969,Yes,Raw,B
1,Kseniya Schekina,Juniors 20-23,67.4,,,,,,65,70,-75,70,,,,,,,70,67.5,F,Ксения Щекина,1995,Yes,Raw,B
1,Irina Grezneva,Open,66.6,,,,,,72.5,75,77.5,77.5,,,,,,,77.5,67.5,F,Ирина Грезнева,1977,Yes,Raw,B
1,Grigoriy Dubrovin,Teen 13-15,46.8,,,,,,60,65,67.5,67.5,,,,,,,67.5,52,M,Григорий Дубровин,2002,Yes,Raw,B
1,Artem Demin,Teen 13-15,55.9,,,,,,70,75.5,80.5,80.5,-90.5,,,,,,80.5,56,M,Артем Демин,2000,Yes,Raw,B
1,Viktor Vybornov,Open,54.9,,,,,,75,-85,-85,75,,,,,,,75,56,M,Виктор Выборнов,1984,Yes,Raw,B
1,Dmitriy Akimenko,Teen 13-15,59.6,,,,,,50,55,-60,55,,,,,,,55,60,M,Дмитрий Акименко,2001,Yes,Raw,B
1,Nikolay Fokin,Teen 16-17,59.1,,,,,,67.5,-77.5,-77.5,67.5,,,,,,,67.5,60,M,Николай Фокин,1998,Yes,Raw,B
1,Kirill Beschastnov,Open,58,,,,,,90,95,-102.5,95,,,,,,,95,60,M,Кирилл Бесчастнов,1989,Yes,Raw,B
1,Egor Arkharov,Teen 16-17,64.2,,,,,,70,87.5,-97.5,87.5,,,,,,,87.5,67.5,M,Егор Архаров,1998,Yes,Raw,B
1,Anton Grafov,Teen 18-19,66.6,,,,,,160,162.5,165,165,,,,,,,165,67.5,M,Антон Графов,1997,Yes,Raw,B
1,Nikita Samokhvalov,Open,65.4,,,,,,130,137.5,142.5,142.5,145,,,,,,142.5,67.5,M,Никита Самохвалов,1988,Yes,Raw,B
2,Nikolay Belyaev,Open,65.4,,,,,,125,127.5,-130,127.5,,,,,,,127.5,67.5,M,Николай Беляев,1988,Yes,Raw,B
3,Ivan Ogorodnikov,Open,66.1,,,,,,115,120,125,125,,,,,,,125,67.5,M,Иван Огородников,1990,Yes,Raw,B
4,Igor Namestnikov,Open,63.9,,,,,,95,97.5,100,100,,,,,,,100,67.5,M,Игорь Наместников,1987,Yes,Raw,B
1,Nikolay Obukhov,Masters 60-64,67.3,,,,,,97.5,-100,-100,97.5,,,,,,,97.5,67.5,M,Николай Обухов,1953,Yes,Raw,B
1,Kirill Garkavyy,Teen 13-15,73.4,,,,,,85,87.5,90,90,,,,,,,90,75,M,Кирилл Гарькавый,2001,Yes,Raw,B
1,Vitaliy Yakovlev,Juniors 20-23,73.3,,,,,,140,145,-150,145,,,,,,,145,75,M,Виталий Яковлев,1995,Yes,Raw,B
2,Fedor Nikonov,Juniors 20-23,74.2,,,,,,125,130,-135,130,,,,,,,130,75,M,Федор Никонов,1993,Yes,Raw,B
3,Dmitriy Murzintsev,Juniors 20-23,74.4,,,,,,125,-127.5,-135,125,,,,,,,125,75,M,Дмитрий Мурзинцев,1993,Yes,Raw,B
1,Mikhail Vorobyev,Open,75,,,,,,170,-180,-180,170,,,,,,,170,75,M,Михаил Воробьев,1990,Yes,Raw,B
2,Dmitriy Lebedenkov,Open,70.7,,,,,,135,140,-145,140,,,,,,,140,75,M,Дмитрий Лебеденков,1979,Yes,Raw,B
3,Aleksandr Belyaev,Open,73.2,,,,,,130,135,140,140,,,,,,,140,75,M,Александр Беляев,1989,Yes,Raw,B
4,Vladimir Erokhanov,Open,75,,,,,,-125,130,-135,130,,,,,,,130,75,M,Владимир Ероханов,1988,Yes,Raw,B
5,Timofey Grishkov,Open,74.2,,,,,,105,-112.5,-115,105,,,,,,,105,75,M,Тимофей Гришков,1990,Yes,Raw,B
1,Aleksey Alekseev,Masters 40-44,74.8,,,,,,120,125,127.5,127.5,,,,,,,127.5,75,M,Алексей Алексеев,1972,Yes,Raw,B
1,Oleg Vinokurov,Masters 45-49,74.2,,,,,,110,115,117.5,117.5,,,,,,,117.5,75,M,Олег Винокуров,1966,Yes,Raw,B
1,Dmitriy Lebedenkov,Submasters 33-39,70.7,,,,,,135,140,-145,140,,,,,,,140,75,M,Дмитрий Лебеденков,1979,Yes,Raw,B
1,Dmitriy Fursov,Teen 13-15,80.5,,,,,,70,75,77.5,77.5,,,,,,,77.5,82.5,M,Дмитрий Фурсов,2002,Yes,Raw,B
2,Igor Balyshev,Teen 13-15,79.5,,,,,,-60,-60,60,60,,,,,,,60,82.5,M,Игорь Балышев,2001,Yes,Raw,B
1,Daniil Yudin,Teen 16-17,82.5,,,,,,107.5,112.5,-117.5,112.5,,,,,,,112.5,82.5,M,Даниил Юдин,1998,Yes,Raw,B
2,Evgeniy Gorshkov,Teen 16-17,77.5,,,,,,90,100,-107.5,100,,,,,,,100,82.5,M,Евгений Горшков,1999,Yes,Raw,B
1,Nikita Konogray,Teen 18-19,81.6,,,,,,135,140,145,145,,,,,,,145,82.5,M,Никита Конограй,1996,Yes,Raw,B
2,Arkadiy Ignatov,Teen 18-19,82.2,,,,,,112.5,120,-127.5,120,,,,,,,120,82.5,M,Аркадий Игнатов,1996,Yes,Raw,B
1,Mikhail Kiselev,Juniors 20-23,81.3,,,,,,132.5,-137.5,-137.5,132.5,,,,,,,132.5,82.5,M,Михаил Киселев,1992,Yes,Raw,B
2,Kirill Terentyev,Juniors 20-23,81.8,,,,,,-120,120,-127.5,120,,,,,,,120,82.5,M,Кирилл Терентьев,1995,Yes,Raw,B
3,Aleksandr Bukin,Juniors 20-23,77.2,,,,,,95,112.5,115,115,,,,,,,115,82.5,M,Александр Букин,1993,Yes,Raw,B
DQ,Valeriy Komarov,Juniors 20-23,82,,,,,,-127.5,-127.5,-127.5,,,,,,,,,82.5,M,Валерий Комаров,1995,Yes,Raw,B
1,Sergey Plistov,Open,79.9,,,,,,150,155,157.5,157.5,,,,,,,157.5,82.5,M,Сергей Плистов,1985,Yes,Raw,B
2,Yuriy Pavlov,Open,78.8,,,,,,127.5,140,145,145,,,,,,,145,82.5,M,Юрий Павлов,1972,Yes,Raw,B
3,Aleksey Kanaev,Open,81.6,,,,,,140,145,-150,145,,,,,,,145,82.5,M,Алексей Канаев,1989,Yes,Raw,B
4,Evgeniy Asmolov,Open,80.2,,,,,,127.5,135,,135,,,,,,,135,82.5,M,Евгений Асмолов,1983,Yes,Raw,B
5,Petr Kolesnikov,Open,81,,,,,,125,-130,-130,125,,,,,,,125,82.5,M,Петр Колесников,1980,Yes,Raw,B
6,Vyacheslav Lyamaev,Open,76.8,,,,,,112.5,117.5,-127.5,117.5,,,,,,,117.5,82.5,M,Вячеслав Лямаев,1982,Yes,Raw,B
DQ,Valeriy Ruban,Open,78.4,,,,,,-135,-142.5,-142.5,,,,,,,,,82.5,M,Валерий Рубан,1990,Yes,Raw,B
DQ,Aleksandr Gyurdzhidi,Open,82,,,,,,-120,-127.5,-127.5,,,,,,,,,82.5,M,Александр Гюрджиди,1974,Yes,Raw,B
1,Vasiliy Mosin,Masters 55-59,79.9,,,,,,137.5,140,142.5,142.5,,,,,,,142.5,82.5,M,Василий Мосин,1956,Yes,Raw,B
1,Vladimir Biryukov,Masters 80+,80.9,,,,,,-85,85,-90,85,,,,,,,85,82.5,M,Владимир Бирюков,1934,Yes,Raw,B
1,Fedor Marchenkov,Teen 13-15,86.3,,,,,,60,-65,-65,60,,,,,,,60,90,M,Федор Марченков,2001,Yes,Raw,B
1,Sergey Dashkov,Teen 16-17,85.5,,,,,,120,132.5,-137.5,132.5,,,,,,,132.5,90,M,Сергей Дашков,1999,Yes,Raw,B
2,Vladislav Drozdov,Teen 16-17,87.6,,,,,,120,127.5,-135,127.5,,,,,,,127.5,90,M,Владислав Дроздов,1998,Yes,Raw,B
1,Vladislav Karpov,Teen 18-19,87.1,,,,,,167.5,-175,-175,167.5,,,,,,,167.5,90,M,Владислав Карпов,1997,Yes,Raw,B
2,Mikhail Panov,Teen 18-19,89.6,,,,,,130,-135,-135,130,,,,,,,130,90,M,Михаил Панов,1996,Yes,Raw,B
1,Leva Dilbandyan,Juniors 20-23,85.8,,,,,,140,145,-152.5,145,,,,,,,145,90,M,Лева Дилбандян,1993,Yes,Raw,B
2,Ivan Filatov,Juniors 20-23,89,,,,,,140,-152.5,-152.5,140,,,,,,,140,90,M,Иван Филатов,1994,Yes,Raw,B
1,Aleksey Shustov,Open,90,,,,,,-170,170,175,175,,,,,,,175,90,M,Алексей Шустов,1985,Yes,Raw,B
2,Vyacheslav Vertev,Open,89.8,,,,,,165,-175,-175,165,,,,,,,165,90,M,Вячеслав Вертев,1984,Yes,Raw,B
3,Vladislav Girko,Open,87.1,,,,,,155,160,-162.5,160,,,,,,,160,90,M,Владислав Гирко,1987,Yes,Raw,B
4,Marsel Minnakhmedov,Open,88.3,,,,,,145,-150,-152.5,145,,,,,,,145,90,M,Марсель Миннахмедов,1991,Yes,Raw,B
5,David Akopyan,Open,87,,,,,,-132.5,132.5,135,135,,,,,,,135,90,M,Давид Акопян,1990,Yes,Raw,B
6,Roman Pragin,Open,87.5,,,,,,130,132.5,-135,132.5,,,,,,,132.5,90,M,Роман Прагин,1986,Yes,Raw,B
7,Aleksandr Lukin,Open,90,,,,,,125,132.5,-135,132.5,,,,,,,132.5,90,M,Александр Лукин,1987,Yes,Raw,B
8,Fedor Morzhikov,Open,87,,,,,,120,-127.5,-132.5,120,,,,,,,120,90,M,Федор Моржиков,1979,Yes,Raw,B
9,Mikhail Boykevich,Open,87.7,,,,,,120,-132.5,-132.5,120,,,,,,,120,90,M,Михаил Бойкевич,1980,Yes,Raw,B
DQ,Anatoliy Komissarov,Open,83.8,,,,,,-125,-125,-132.5,,,,,,,,,90,M,Анатолий Комиссаров,1986,Yes,Raw,B
DQ,Anton Kovalev,Open,85.5,,,,,,-110,-120,,,,,,,,,,90,M,Антон Ковалев,1981,Yes,Raw,B
1,Aleksandr Lebedev,Masters 40-44,89.3,,,,,,110,120,125,125,,,,,,,125,90,M,Александр Лебедев,1972,Yes,Raw,B
2,Vladimir Dergachev,Masters 40-44,89.7,,,,,,112.5,-120,120,120,,,,,,,120,90,M,Владимир Дергачев,1972,Yes,Raw,B
1,Aleksandr Shmorgun,Masters 45-49,89.4,,,,,,140,145,-147.5,145,,,,,,,145,90,M,Александр Шморгун,1969,Yes,Raw,B
2,Yaroslav Demenko,Masters 45-49,86.3,,,,,,140,-152.5,,140,,,,,,,140,90,M,Ярослав Деменко,1969,Yes,Raw,B
1,Valeriy Panasenko,Masters 50-54,88.6,,,,,,155,160,165,165,,,,,,,165,90,M,Валерий Панасенко,1963,Yes,Raw,B
1,Nikolay Kostev,Masters 55-59,84.2,,,,,,140,150,-155,150,,,,,,,150,90,M,Николай Костев,1959,Yes,Raw,B
2,Sergey Gnatyuk,Masters 55-59,86.7,,,,,,-120,125,-130,125,,,,,,,125,90,M,Сергей Гнатюк,1960,Yes,Raw,B
1,Nikolay Luppov,Submasters 33-39,88.9,,,,,,130,135,137.5,137.5,,,,,,,137.5,90,M,Николай Луппов,1979,Yes,Raw,B
2,Dmitriy Ionov,Submasters 33-39,88.6,,,,,,132.5,-152.5,-152.5,132.5,,,,,,,132.5,90,M,Дмитрий Ионов,1978,Yes,Raw,B
3,Oleg Stepanov,Submasters 33-39,89.3,,,,,,130,-132.5,-132.5,130,,,,,,,130,90,M,Олег Степанов,1981,Yes,Raw,B
1,Albert Sukaev,Juniors 20-23,94.1,,,,,,140,145,-150,145,,,,,,,145,100,M,Альберт Сукаев,1994,Yes,Raw,B
2,Fedor Filatov,Juniors 20-23,93.1,,,,,,115,-120,125,125,,,,,,,125,100,M,Федор Филатов,1993,Yes,Raw,B
1,Ilya Orlov,Open,95.9,,,,,,210,215,,215,,,,,,,215,100,M,Илья Орлов,1982,Yes,Raw,B
2,Aleksandr Kryuchkov,Open,90.9,,,,,,170,180,185,185,,,,,,,185,100,M,Александр Крючков,1991,Yes,Raw,B
3,Andrey Filippin,Open,97.4,,,,,,175,-185,185,185,,,,,,,185,100,M,Андрей Филиппин,1982,Yes,Raw,B
4,Aleksandr Bakhmetyev,Open,98.3,,,,,,162.5,170,-175,170,,,,,,,170,100,M,Александр Бахметьев,1981,Yes,Raw,B
5,Vitaliy Rogozin,Open,96.5,,,,,,-162.5,162.5,167.5,167.5,,,,,,,167.5,100,M,Виталий Рогозин,1985,Yes,Raw,B
6,Yan Zhurkin,Open,99,,,,,,157.5,162.5,165,165,,,,,,,165,100,M,Ян Журкин,1985,Yes,Raw,B
7,Evgeniy Pronin,Open,100,,,,,,145,155,-162.5,155,,,,,,,155,100,M,Евгений Пронин,1982,Yes,Raw,B
8,Sergey Matveev,Open,95.5,,,,,,140,145,150,150,,,,,,,150,100,M,Сергей Матвеев,1986,Yes,Raw,B
1,Aleksey Lileev,Masters 40-44,98.6,,,,,,155,165,170,170,,,,,,,170,100,M,Алексей Лилеев,1972,Yes,Raw,B
2,Sergey Yarochkin,Masters 40-44,91.3,,,,,,147.5,-152.5,152.5,152.5,,,,,,,152.5,100,M,Сергей Ярочкин,1971,Yes,Raw,B
3,Aleksey Strulev,Masters 40-44,94,,,,,,140,145,-150,145,,,,,,,145,100,M,Алексей Струлев,1971,Yes,Raw,B
1,Nikolay Fokin,Masters 45-49,100,,,,,,120,-140,140,140,,,,,,,140,100,M,Николай Фокин,1966,Yes,Raw,B
2,Yuriy Lyubach,Masters 45-49,96.3,,,,,,130,137.5,-142.5,137.5,,,,,,,137.5,100,M,Юрий Любач,1968,Yes,Raw,B
1,Sergey Kundus,Masters 60-64,92.6,,,,,,120,-125,,120,,,,,,,120,100,M,Сергей Кундус,1953,Yes,Raw,B
1,Andrey Filippin,Submasters 33-39,97.4,,,,,,180,-185,-185,180,,,,,,,180,100,M,Андрей Филиппин,1982,Yes,Raw,B
2,Igor Stepanov,Submasters 33-39,92.9,,,,,,140,150,-157.5,150,,,,,,,150,100,M,Игорь Степанов,1976,Yes,Raw,B
1,Semen Borkin,Open,103.2,,,,,,185,190,195,195,,,,,,,195,110,M,Семен Борькин,1981,Yes,Raw,B
2,Anton Mozgolov,Open,106.2,,,,,,180,-195,-195,180,,,,,,,180,110,M,Антон Мозголов,1982,Yes,Raw,B
3,Aleksey Gerasimov,Open,108.8,,,,,,155,-167.5,,155,,,,,,,155,110,M,Алексей Герасимов,1980,Yes,Raw,B
4,Mikhail Potapov,Open,108.1,,,,,,125,132.5,-147.5,132.5,,,,,,,132.5,110,M,Михаил Потапов,1989,Yes,Raw,B
1,Vadim Ivanov,Masters 40-44,104.8,,,,,,167.5,-172.5,172.5,172.5,,,,,,,172.5,110,M,Вадим Иванов,1972,Yes,Raw,B
1,Igor Kurotchenko,Masters 50-54,107.5,,,,,,140,147.5,150,150,,,,,,,150,110,M,Игорь Куротченко,1962,Yes,Raw,B
1,Anatoliy Pauyesov,Masters 60-64,109.9,,,,,,150,157.5,-160,157.5,,,,,,,157.5,110,M,Анатолий Пауесов,1953,Yes,Raw,B
DQ,Dobrogor Raskhodchikov,Submasters 33-39,106.1,,,,,,-172.5,-172.5,-172.5,,,,,,,,,110,M,Доброгор Расходчиков,1977,Yes,Raw,B
1,Oleg Vashkin,Juniors 20-23,113.6,,,,,,170,180,-190,180,,,,,,,180,125,M,Олег Вашкин,1994,Yes,Raw,B
1,Alexei Nikulin,Open,120.5,,,,,,180,-202.5,-202.5,180,,,,,,,180,125,M,Алексей Никулин,1982,Yes,Raw,B
2,Maksim Skokov,Open,117.4,,,,,,170,177.5,-180,177.5,,,,,,,177.5,125,M,Максим Скоков,1975,Yes,Raw,B
1,Denis Favorskiy,Masters 40-44,113.8,,,,,,145,155,157.5,157.5,,,,,,,157.5,125,M,Денис Фаворский,1971,Yes,Raw,B
1,Vladimir Chubarov,Masters 50-54,117.9,,,,,,160,165,-170,165,,,,,,,165,125,M,Владимир Чубаров,1964,Yes,Raw,B
1,Vladimir Popov,Masters 55-59,123.8,,,,,,152.5,160,162.5,162.5,,,,,,,162.5,125,M,Владимир Попов,1956,Yes,Raw,B
1,Vladimir Seleznev,Submasters 33-39,124.1,,,,,,160,165,-167.5,165,,,,,,,165,125,M,Владимир Селезнев,1977,Yes,Raw,B
DQ,Alexei Nikulin,Submasters 33-39,120.5,,,,,,-202.5,-202.5,-202.5,,,,,,,,,125,M,Алексей Никулин,1982,Yes,Raw,B
1,Georgiy Yuryev,Juniors 20-23,132.6,,,,,,200,207.5,212.5,212.5,,,,,,,212.5,140,M,Георгий Юрьев,1993,Yes,Raw,B
1,Aleksandr Razumov,Open,129.7,,,,,,180,190,-205,190,,,,,,,190,140,M,Александр Разумов,1976,Yes,Raw,B
1,Aleksey Petrov,Masters 40-44,126,,,,,,140,142.5,-150,142.5,,,,,,,142.5,140,M,Алексей Петров,1975,Yes,Raw,B
1,Roman Mishurenkov,Submasters 33-39,142,,,,,,200,210,-220,210,,,,,,,210,140+,M,Роман Мишуренков,1982,Yes,Raw,B
1,Ekaterina Kostina,Open,66,,,,,,62.5,67.5,-72.5,67.5,,,,,,,67.5,67.5,F,Екатерина Костина,1989,No,Raw,B
1,Tatyana Dalnikova,Open,73.5,,,,,,-70,70,-72.5,70,,,,,,,70,75,F,Татьяна Дальникова,1982,No,Raw,B
1,Andrey Balandin,Teen 16-17,55.8,,,,,,75,80,85,85,-87.5,,,,,,85,56,M,Андрей Баландин,1999,No,Raw,B
DQ,Aleksandr Kargin,Open,65.5,,,,,,-135,-140,-140,,,,,,,,,67.5,M,Александр Каргин,1976,No,Raw,B
1,Vadim Mutalibov,Juniors 20-23,75,,,,,,-140,-150,150,150,,,,,,,150,75,M,Вадим Муталибов,1992,No,Raw,B
1,Vladimir Kulakov,Open,74.3,,,,,,62.5,67.5,,67.5,,,,,,,67.5,75,M,Владимир Кулаков,1955,No,Raw,B
1,Vladimir Kulakov,Masters 55-59,74.3,,,,,,62.5,67.5,,67.5,,,,,,,67.5,75,M,Владимир Кулаков,1955,No,Raw,B
1,Yuriy Ermolin,Masters 60-64,74.9,,,,,,100,-110,,100,,,,,,,100,75,M,Юрий Ермолин,1952,No,Raw,B
1,Nikolay Ionov,Masters 65-69,73.9,,,,,,107.5,117.5,-120,117.5,,,,,,,117.5,75,M,Николай Ионов,1949,No,Raw,B
1,Nikolay Vetrov,Masters 70-74,74.1,,,,,,75,77.5,80,80,,,,,,,80,75,M,Николай Ветров,1945,No,Raw,B
1,Aleksey Bender,Teen 18-19,80,,,,,,-95,95,-102.5,95,,,,,,,95,82.5,M,Алексей Бендер,1997,No,Raw,B
1,Aleksey Blintsov,Open,82.2,,,,,,180,192.5,195,195,,,,,,,195,82.5,M,Алексей Блинцов,1980,No,Raw,B
2,Maksim Kalenkin,Open,81.7,,,,,,170,175,180,180,,,,,,,180,82.5,M,Максим Каленкин,1989,No,Raw,B
3,Aleksey Syuta,Open,76.4,,,,,,160,165,-170,165,,,,,,,165,82.5,M,Алексей Сюта,1979,No,Raw,B
1,Aleksey Korobov,Masters 55-59,79.2,,,,,,140,150,160,160,,,,,,,160,82.5,M,Алексей Коробов,1959,No,Raw,B
1,Amir Khusnutdinov,Masters 65-69,76.7,,,,,,120,130,-132.5,130,,,,,,,130,82.5,M,Амир Хуснутдинов,1948,No,Raw,B
1,Vladislav Sannikov,Masters 75-79,75.1,,,,,,75,80,82.5,82.5,,,,,,,82.5,82.5,M,Владислав Санников,1938,No,Raw,B
1,Aleksandr Maznev,Juniors 20-23,89.8,,,,,,165,180,-190,180,,,,,,,180,90,M,Александр Мазнев,1992,No,Raw,B
2,Vyacheslav Tarachanov,Juniors 20-23,89.4,,,,,,160,-170,-170,160,,,,,,,160,90,M,Вячеслав Тарачанов,1992,No,Raw,B
1,Denis Nikitin,Open,87.8,,,,,,210,225,227.5,227.5,-230,,,,,,227.5,90,M,Денис Никитин,1988,No,Raw,B
2,Sergey Timchenko,Open,89.1,,,,,,190,-200,200,200,,,,,,,200,90,M,Сергей Тимченко,1979,No,Raw,B
3,Aleksey Nikolaenko,Open,88.3,,,,,,195,-207.5,-207.5,195,,,,,,,195,90,M,Алексей Николаенко,1989,No,Raw,B
4,Aleksandr Kaplya,Open,83.8,,,,,,170,-180,-180,170,,,,,,,170,90,M,Александр Капля,1978,No,Raw,B
1,Andrey Logvin,Masters 45-49,88.6,,,,,,170,-180,-182.5,170,,,,,,,170,90,M,Андрей Логвин,1969,No,Raw,B
1,Sergey Goncharov,Masters 60-64,83.8,,,,,,120,-125,-125,120,,,,,,,120,90,M,Сергей Гончаров,1952,No,Raw,B
1,Gennadiy Obmelyukhin,Masters 65-69,87.8,,,,,,105,115,-120,115,,,,,,,115,90,M,Геннадий Обмелюхин,1948,No,Raw,B
1,Pavel Dovgopolik,Juniors 20-23,97.2,,,,,,180,-190,-190,180,,,,,,,180,100,M,Павел Довгополик,1993,No,Raw,B
2,Georgiy Tsakadze,Juniors 20-23,96.6,,,,,,135,145,-150,145,,,,,,,145,100,M,Георгий Цакадзе,1993,No,Raw,B
1,Igor Lipachev,Open,99.5,,,,,,210,220,-222.5,220,,,,,,,220,100,M,Игорь Липачев,1968,No,Raw,B
2,Vladimir Uvetov,Open,97.9,,,,,,190,197.5,202.5,202.5,,,,,,,202.5,100,M,Владимир Уветов,1979,No,Raw,B
3,Andrey Markovskiy,Open,99.7,,,,,,180,190,195,195,,,,,,,195,100,M,Андрей Марковский,1978,No,Raw,B
4,Yuriy Grigoryev,Open,98.2,,,,,,-190,190,-195,190,,,,,,,190,100,M,Юрий Григорьев,1982,No,Raw,B
5,Yuriy Sankov,Open,95.9,,,,,,175,182.5,-190,182.5,,,,,,,182.5,100,M,Юрий Санков,1988,No,Raw,B
6,Aleksandr Stupin,Open,98.6,,,,,,170,180,-190,180,,,,,,,180,100,M,Александр Ступин,1980,No,Raw,B
7,Andrey Prokhorenko,Open,97.5,,,,,,155,165,-175,165,,,,,,,165,100,M,Андрей Прохоренко,1986,No,Raw,B
1,Sergey Savchuk,Masters 40-44,97.4,,,,,,160,-170,-170,160,,,,,,,160,100,M,Сергей Савчук,1973,No,Raw,B
1,Denis Smirnov,Submasters 33-39,98.2,,,,,,110,120,-125,120,,,,,,,120,100,M,Денис Смирнов,1978,No,Raw,B
1,Evgeniy Dmitriev,Juniors 20-23,105.9,,,,,,190,197.5,200,200,,,,,,,200,110,M,Евгений Дмитриев,1993,No,Raw,B
1,Evgeniy Single-plyirkin,Open,101.4,,,,,,217.5,225,-227.5,225,,,,,,,225,110,M,Евгений Спиркин,1987,No,Raw,B
2,Vladimir Svinarchuk,Open,108.6,,,,,,215,225,-235,225,,,,,,,225,110,M,Владимир Свинарчук,1983,No,Raw,B
3,Valeriy Korenkov,Open,108.9,,,,,,220,,,220,,,,,,,220,110,M,Валерий Кореньков,1972,No,Raw,B
4,Evgeniy Solovyev,Open,107.8,,,,,,180,190,-197.5,190,,,,,,,190,110,M,Евгений Соловьев,1988,No,Raw,B
1,Valeriy Korenkov,Masters 40-44,108.9,,,,,,210,-220,-220,210,,,,,,,210,110,M,Валерий Кореньков,1972,No,Raw,B
2,Eduard Dmitriev,Masters 40-44,109.6,,,,,,200,210,-217.5,210,,,,,,,210,110,M,Эдуард Дмитриев,1972,No,Raw,B
DQ,Dmitriy Kondratenko,Masters 40-44,105.8,,,,,,-160,-165,,,,,,,,,,110,M,Дмитрий Кондратенко,1973,No,Raw,B
DQ,Sergey Lisitsyn,Masters 45-49,108.4,,,,,,-205,-215,,,,,,,,,,110,M,Сергей Лисицын,1970,No,Raw,B
1,Sergey Tikhov,Open,110.1,,,,,,190,200,-205,200,,,,,,,200,125,M,Сергей Тихов,1981,No,Raw,B
2,Viktor Kotov,Open,117.4,,,,,,180,182.5,185,185,,,,,,,185,125,M,Виктор Котов,1989,No,Raw,B
1,Vadim Pchelkin,Masters 40-44,121.6,,,,,,205,212.5,,212.5,,,,,,,212.5,125,M,Вадим Пчелкин,1971,No,Raw,B
2,Eduard Vinogradov,Masters 40-44,112,,,,,,192.5,202.5,207.5,207.5,,,,,,,207.5,125,M,Эдуард Виноградов,1974,No,Raw,B
3,Sergey Gerasimov,Masters 40-44,118.3,,,,,,195,-205,-205,195,,,,,,,195,125,M,Сергей Герасимов,1975,No,Raw,B
1,Oleg Rekun,Masters 45-49,123.2,,,,,,165,172.5,180,180,,,,,,,180,125,M,Олег Рекун,1969,No,Raw,B
1,Mikhail Antonov,Submasters 33-39,113,,,,,,170,180,190,190,,,,,,,190,125,M,Михаил Антонов,1977,No,Raw,B
1,Vladimir Severov,Submasters 33-39,112,,,,,,175,180,187.5,187.5,,,,,,,187.5,125,M,Владимир Северов,1979,No,Raw,B
1,Sergey Zimin,Masters 40-44,130.4,,,,,,-215,220,230,230,-235,,,,,,230,140,M,Сергей Зимин,1972,No,Raw,B
1,Yuriy Mishta,Masters 55-59,132.7,,,,,,175,185,-190,185,,,,,,,185,140,M,Юрий Мишта,1958,No,Raw,B
1,Alena Sotnikova,Open,55.8,,,,,,-85,85,87.5,87.5,-95.5,,,,,,87.5,56,F,Алена Сотникова,1989,Yes,Single-ply,B
2,Nadezhda Komarova,Open,54.1,,,,,,75,80,,80,,,,,,,80,56,F,Надежда Комарова,1980,Yes,Single-ply,B
3,Tatyana Trushkova,Open,55.1,,,,,,50,,,50,,,,,,,50,56,F,Татьяна Трушкова,1984,Yes,Single-ply,B
DQ,Anton Sosunov,Open,73.6,,,,,,-150,-150,-150,,,,,,,,,75,M,Антон Сосунов,1980,Yes,Single-ply,B
1,Aleksandr Tokar,Masters 40-44,75.5,,,,,,125,,,125,,,,,,,125,82.5,M,Александр Токарь,1972,Yes,Single-ply,B
1,Yuriy Tarbonov,Open,90,,,,,,235,247.5,250,250,,,,,,,250,90,M,Юрий Тарбонов,1987,Yes,Single-ply,B
1,Aleksandr Dorofeev,Open,99.3,,,,,,205,212.5,220,220,,,,,,,220,100,M,Александр Дорофеев,1981,Yes,Single-ply,B
2,Dmitriy Myasin,Open,94.7,,,,,,160,165,170,170,,,,,,,170,100,M,Дмитрий Мясин,1984,Yes,Single-ply,B
1,Aleksandr Dorofeev,Submasters 33-39,99.3,,,,,,205,212.5,220,220,,,,,,,220,100,M,Александр Дорофеев,1981,Yes,Single-ply,B
1,Mikhail Antsiferov,Open,107.6,,,,,,-215,215,-232.5,215,,,,,,,215,110,M,Михаил Анциферов,1981,Yes,Single-ply,B
1,Mikhail Antsiferov,Submasters 33-39,107.6,,,,,,-215,215,-232.5,215,,,,,,,215,110,M,Михаил Анциферов,1981,Yes,Single-ply,B
1,Vladimir Popov,Masters 55-59,123.8,,,,,,175,185,-195,185,,,,,,,185,125,M,Владимир Попов,1956,Yes,Single-ply,B
1,Marina Belyak,Masters 45-49,54.7,,,,,,32.5,37.5,40,40,,,,,,,40,56,F,Марина Беляк,1967,No,Multi-ply,B
1,Andrey Volchkov,Open,81.3,,,,,,110,130,-135,130,,,,,,,130,82.5,M,Андрей Волчков,1979,No,Multi-ply,B
1,Sergey Goncharov,Masters 60-64,83.8,,,,,,120,125,130,130,,,,,,,130,90,M,Сергей Гончаров,1952,No,Multi-ply,B
1,Vyacheslav Lotsken,Open,91.8,,,,,,100,-110,-110,100,,,,,,,100,100,M,Вячеслав Лоцкен,1986,No,Multi-ply,B
1,Stanislav Maksimov,Masters 45-49,110,,,,,,300,310,320,320,-330,,,,,,320,110,M,Станислав Максимов,1968,No,Multi-ply,B
1,Olga Savritskaya,Open,51.6,,,,,,70,75,-82.5,75,,,,,,,75,52,F,Ольга Саврицкая,1979,No,Single-ply,B
1,Aleksey Schipanov,Open,74.2,,,,,,145,-155,157.5,157.5,,,,,,,157.5,75,M,Алексей Щипанов,1980,No,Single-ply,B
2,Vladimir Kulakov,Open,74.3,,,,,,65,72.5,,72.5,,,,,,,72.5,75,M,Владимир Кулаков,1955,No,Single-ply,B
1,Vladimir Kulakov,Masters 55-59,74.3,,,,,,65,72.5,,72.5,,,,,,,72.5,75,M,Владимир Кулаков,1955,No,Single-ply,B
1,Konstantin Sapunkov,Open,82.5,,,,,,210,217.5,225,225,,,,,,,225,82.5,M,Константин Сапунков,1981,No,Single-ply,B
1,Nikolay Krasnov,Masters 55-59,81.9,,,,,,190,202.5,-205,202.5,,,,,,,202.5,82.5,M,Николай Краснов,1960,No,Single-ply,B
1,Vladislav Sannikov,Masters 75-79,75.1,,,,,,80,-85,87.5,87.5,,,,,,,87.5,82.5,M,Владислав Санников,1938,No,Single-ply,B
1,Konstantin Sapunkov,Submasters 33-39,82.5,,,,,,210,217.5,225,225,,,,,,,225,82.5,M,Константин Сапунков,1981,No,Single-ply,B
1,Sergey Myachik,Open,88.1,,,,,,-190,190,-195,190,,,,,,,190,90,M,Сергей Мячик,1979,No,Single-ply,B
2,Aleksey Selischev,Open,83.7,,,,,,120,-125,-125,120,,,,,,,120,90,M,Алексей Селищев,1978,No,Single-ply,B
1,Sergey Popov,Masters 40-44,87.8,,,,,,-230,230,-235,230,,,,,,,230,90,M,Сергей Попов,1974,No,Single-ply,B
1,Sergey Kalinin,Open,98.5,,,,,,230,237.5,240,240,-245,,,,,,240,100,M,Сергей Калинин,1982,No,Single-ply,B
1,Nikolay Alyshev,Open,108.5,,,,,,285,300,310,310,,,,,,,310,110,M,Николай Алышев,1985,No,Single-ply,B
2,Aleksandr Evsyutkin,Open,106.4,,,,,,175,185,-200,185,,,,,,,185,110,M,Александр Евсюткин,1988,No,Single-ply,B
1,Aleksey Chaykin,Open,147,,,,,,-270,270,-287.5,270,,,,,,,270,140+,M,Алексей Чайкин,1978,No,Single-ply,B
1,Olga Dolgova,Open,42.5,,,,,,,,,,,-100,100,-105,100,,100,44,F,Ольга Долгова,1988,Yes,Raw,D
2,Yuliya Skvortsova,Open,42.9,,,,,,,,,,,75,80,-85,80,,80,44,F,Юлия Скворцова,1990,Yes,Raw,D
1,Irina Bryukhanova,Open,47.7,,,,,,,,,,,100,110,115,115,,115,48,F,Ирина Брюханова,1984,Yes,Raw,D
1,Ekaterina Shmakova,Teen 16-17,52,,,,,,,,,,,110,-115,115,115,,115,52,F,Екатерина Шмакова,1998,Yes,Raw,D
2,Valeriya Radchenko,Teen 16-17,51.7,,,,,,,,,,,60,65,70,70,,70,52,F,Валерия Радченко,1998,Yes,Raw,D
1,Yuliya Nenartovich,Open,50.8,,,,,,,,,,,82.5,90,95,95,,95,52,F,Юлия Ненартович,1988,Yes,Raw,D
1,Natalya Sidorkina,Open,54.5,,,,,,,,,,,105,110,-122.5,110,,110,56,F,Наталья Сидоркина,1987,Yes,Raw,D
2,Olga Seliverstova,Open,54.3,,,,,,,,,,,95,100,-105,100,,100,56,F,Ольга Селиверстова,1985,Yes,Raw,D
1,Mariya Simonova,Submasters 33-39,55.9,,,,,,,,,,,85,-95,-105,85,,85,56,F,Мария Симонова,1982,Yes,Raw,D
1,Viktoriya Dorofeeva,Teen 16-17,59.1,,,,,,,,,,,100,105,110,110,-112.5,110,60,F,Виктория Дорофеева,1998,Yes,Raw,D
2,Olga Kostyrya,Teen 16-17,58.4,,,,,,,,,,,95,100,-110,100,,100,60,F,Ольга Костыря,1998,Yes,Raw,D
1,Alina Glazunova,Juniors 20-23,58.5,,,,,,,,,,,110,112.5,-115,112.5,,112.5,60,F,Алина Глазунова,1992,Yes,Raw,D
1,Kristina Dobrya,Open,56.7,,,,,,,,,,,110,-117.5,-117.5,110,,110,60,F,Кристина Добря,1989,Yes,Raw,D
1,Viktoriya Balashova,Juniors 20-23,65.5,,,,,,,,,,,100,105,-117.5,105,,105,67.5,F,Виктория Балашова,1992,Yes,Raw,D
1,Lyudmila Ryamaeva,Open,62.3,,,,,,,,,,,-122.5,-122.5,122.5,122.5,,122.5,67.5,F,Людмила Рямаева,1980,Yes,Raw,D
2,Tatyana Smolyaninova,Open,66.4,,,,,,,,,,,100,110,120,120,,120,67.5,F,Татьяна Смольянинова,1991,Yes,Raw,D
1,Nina Emelyanova,Submasters 33-39,66.4,,,,,,,,,,,120,130,135,135,,135,67.5,F,Нина Емельянова,1980,Yes,Raw,D
1,Anna Panasenko,Open,73.5,,,,,,,,,,,125,130,-142.5,130,,130,75,F,Анна Панасенко,1983,Yes,Raw,D
2,Elena Garkunova,Open,73.4,,,,,,,,,,,70,75,80,80,,80,75,F,Елена Гаркунова,1987,Yes,Raw,D
1,Natalya Lavrischeva,Masters 40-44,69.4,,,,,,,,,,,65,70,75,75,,75,75,F,Наталья Лаврищева,1974,Yes,Raw,D
1,Maksim Popov #1,Open,66.6,,,,,,,,,,,-200,207.5,217.5,217.5,,217.5,67.5,M,Максим Попов,1984,Yes,Raw,D
2,Anton Tolubaev,Open,66.1,,,,,,,,,,,190,200,-205,200,,200,67.5,M,Антон Толубаев,1991,Yes,Raw,D
3,Anton Salin,Open,64.6,,,,,,,,,,,-150,160,165,165,,165,67.5,M,Антон Салин,1987,Yes,Raw,D
1,Yuriy Zubov,Masters 75-79,65.9,,,,,,,,,,,145,150,155,155,,155,67.5,M,Юрий Зубов,1939,Yes,Raw,D
1,Rodion Tarasov,Teen 16-17,72.3,,,,,,,,,,,160,177.5,,177.5,,177.5,75,M,Родион Тарасов,1999,Yes,Raw,D
1,Andrey Kozhedub,Juniors 20-23,74.3,,,,,,,,,,,190,205,-212.5,205,,205,75,M,Андрей Кожедуб,1993,Yes,Raw,D
2,Rodion Sinitsin,Juniors 20-23,73.7,,,,,,,,,,,170,-177.5,177.5,177.5,,177.5,75,M,Родион Синицин,1992,Yes,Raw,D
1,Dmitriy Arkadyev,Open,69,,,,,,,,,,,-230,230,-240,230,,230,75,M,Дмитрий Аркадьев,1983,Yes,Raw,D
1,Mikhail Buyanov,Masters 40-44,74.6,,,,,,,,,,,210,220,-232.5,220,,220,75,M,Михаил Буянов,1974,Yes,Raw,D
1,Mikhail Kiselev,Juniors 20-23,81.3,,,,,,,,,,,215,222.5,230,230,,230,82.5,M,Михаил Киселев,1992,Yes,Raw,D
2,Egor Potashov,Juniors 20-23,80.1,,,,,,,,,,,207.5,215,-225,215,,215,82.5,M,Егор Поташов,1993,Yes,Raw,D
3,Sergey Chernov,Juniors 20-23,80.3,,,,,,,,,,,170,185,190,190,,190,82.5,M,Сергей Чернов,1993,Yes,Raw,D
4,Kirill Terentyev,Juniors 20-23,81.8,,,,,,,,,,,-185,185,,185,,185,82.5,M,Кирилл Терентьев,1995,Yes,Raw,D
1,Sergey Evseev,Open,82.5,,,,,,,,,,,230,250,-267.5,250,,250,82.5,M,Сергей Евсеев,1990,Yes,Raw,D
2,Aleksandr Mozzhukhin,Open,80.8,,,,,,,,,,,220,227.5,232.5,232.5,,232.5,82.5,M,Александр Мозжухин,1984,Yes,Raw,D
3,Alexey Romanov,Open,78.2,,,,,,,,,,,220,-230,230,230,,230,82.5,M,Алексей Романов,1986,Yes,Raw,D
4,Aleksey Kanaev,Open,81.6,,,,,,,,,,,205,215,220,220,,220,82.5,M,Алексей Канаев,1989,Yes,Raw,D
5,Aleksandr Sadchikov,Open,80.7,,,,,,,,,,,185,195,205,205,,205,82.5,M,Александр Садчиков,1987,Yes,Raw,D
1,Sergey Taranin,Masters 40-44,76.8,,,,,,,,,,,147.5,155,-162.5,155,,155,82.5,M,Сергей Таранин,1973,Yes,Raw,D
1,Valeriy Antipov,Masters 70-74,79,,,,,,,,,,,165,180,-185,180,,180,82.5,M,Валерий Антипов,1943,Yes,Raw,D
1,Ruslan Volkov,Juniors 20-23,87.8,,,,,,,,,,,255,265,280,280,,280,90,M,Руслан Волков,1993,Yes,Raw,D
2,Ivan Vostrikov,Juniors 20-23,87.1,,,,,,,,,,,225,-235,240,240,,240,90,M,,1995,Yes,Raw,D
3,Artem Porkhachev,Juniors 20-23,85.5,,,,,,,,,,,170,195,-200,195,,195,90,M,Артем Порхачев,1993,Yes,Raw,D
1,Vitaliy Zheludev,Open,87.1,,,,,,,,,,,260,265,270,270,,270,90,M,Виталий Желудев,1986,Yes,Raw,D
2,Evgeniy Filatov,Open,89.6,,,,,,,,,,,240,-245,-245,240,,240,90,M,Евгений Филатов,1978,Yes,Raw,D
3,Nikolay Luppov,Open,88.9,,,,,,,,,,,210,220,222.5,222.5,,222.5,90,M,Николай Луппов,1979,Yes,Raw,D
1,Danil Kvaratskheliya,Masters 40-44,89,,,,,,,,,,,202.5,212.5,-222.5,212.5,,212.5,90,M,Данил Кварацхелия,1972,Yes,Raw,D
1,Mikhail Kozachuk,Masters 50-54,89.8,,,,,,,,,,,135,145,152.5,152.5,,152.5,90,M,Михаил Козачук,1963,Yes,Raw,D
1,Vladimir Kurbasov,Masters 55-59,87.8,,,,,,,,,,,185,-195,-195,185,,185,90,M,Владимир Курбасов,1959,Yes,Raw,D
2,Sergey Gnatyuk,Masters 55-59,86.7,,,,,,,,,,,160,170,175,175,,175,90,M,Сергей Гнатюк,1960,Yes,Raw,D
1,Nikolay Luppov,Submasters 33-39,88.9,,,,,,,,,,,210,220,222.5,222.5,,222.5,90,M,Николай Луппов,1979,Yes,Raw,D
1,Mikhail Ivanov,Juniors 20-23,96.2,,,,,,,,,,,190,-205,205,205,,205,100,M,Михаил Иванов,1995,Yes,Raw,D
1,Konstantin Istomin,Open,96.4,,,,,,,,,,,260,270,-275,270,,270,100,M,Константин Истомин,1989,Yes,Raw,D
2,Aleksey Smirnov,Open,96,,,,,,,,,,,235,245,-250,245,,245,100,M,Алексей Смирнов,1977,Yes,Raw,D
3,Nikolay Sharov,Open,95.2,,,,,,,,,,,220,232.5,-240,232.5,,232.5,100,M,Николай Шаров,1990,Yes,Raw,D
1,Maksim Krakovskiy,Masters 40-44,99.1,,,,,,,,,,,185,195,202.5,202.5,,202.5,100,M,Максим Краковский,1974,Yes,Raw,D
1,Aleksey Brandt,Masters 45-49,93.8,,,,,,,,,,,-200,215,-232.5,215,,215,100,M,Алексей Брандт,1968,Yes,Raw,D
1,Andrey Burakov,Masters 55-59,100,,,,,,,,,,,180,190,-200,190,,190,100,M,Андрей Бураков,1958,Yes,Raw,D
1,Gleb Averichev,Teen 16-17,108.4,,,,,,,,,,,135,145,-155,145,,145,110,M,Глеб Аверичев,1999,Yes,Raw,D
1,Dmitriy Ilyukhin,Open,102,,,,,,,,,,,220,225,235,235,,235,110,M,Дмитрий Илюхин,1982,Yes,Raw,D
2,Vasiliy Murzakov,Open,107.1,,,,,,,,,,,207.5,-215,220,220,,220,110,M,Василий Мурзаков,1985,Yes,Raw,D
1,Sergey Bulaev,Masters 40-44,104.5,,,,,,,,,,,240,250,255,255,,255,110,M,Сергей Булаев,1972,Yes,Raw,D
2,Aleksandr Smirnov,Masters 40-44,104.3,,,,,,,,,,,207.5,217.5,-222.5,217.5,,217.5,110,M,Александр Смирнов,1974,Yes,Raw,D
1,Evgeniy Prosolov,Masters 45-49,105.7,,,,,,,,,,,230,-250,-252.5,230,,230,110,M,Евгений Просолов,1968,Yes,Raw,D
1,Roman Yurasov,Submasters 33-39,108.7,,,,,,,,,,,240,255,-265,255,,255,110,M,Роман Юрасов,1976,Yes,Raw,D
1,Ivan Belokurov,Teen 18-19,120.5,,,,,,,,,,,190,-215,215,215,-220,215,125,M,Иван Белокуров,1997,Yes,Raw,D
1,Liliya Martynova,Juniors 20-23,47.9,,,,,,,,,,,90,95,100,100,,100,48,F,Лилия Мартынова,1994,No,Raw,D
1,Galina Bocharova,Juniors 20-23,57.9,,,,,,,,,,,130,-137.5,-137.5,130,,130,60,F,Галина Бочарова,1992,No,Raw,D
1,Nadezhda Talikova,Masters 55-59,66.5,,,,,,,,,,,145,160,,160,,160,67.5,F,Надежда Таликова,1960,No,Raw,D
1,Elena Terekhova,Open,70.2,,,,,,,,,,,-140,140,150,150,,150,75,F,Елена Терехова,1987,No,Raw,D
1,Nikolay Prokaev,Open,64.3,,,,,,,,,,,150,,,150,,150,67.5,M,Николай Прокаев,1987,No,Raw,D
1,Vladimir Kulakov,Open,74.3,,,,,,,,,,,85,95,,95,,95,75,M,Владимир Кулаков,1955,No,Raw,D
1,Yuriy Kolganov,Masters 40-44,74.7,,,,,,,,,,,130,145,162.5,162.5,,162.5,75,M,Юрий Колганов,1974,No,Raw,D
1,Vladimir Kulakov,Masters 55-59,74.3,,,,,,,,,,,85,95,,95,,95,75,M,Владимир Кулаков,1955,No,Raw,D
1,Nikolay Vetrov,Masters 70-74,74.1,,,,,,,,,,,150,155,160,160,,160,75,M,Николай Ветров,1945,No,Raw,D
1,Maksim Kalenkin,Open,81.7,,,,,,,,,,,260,267.5,270,270,,270,82.5,M,Максим Каленкин,1989,No,Raw,D
2,Aleksey Schekunov,Open,81,,,,,,,,,,,220,235,-255,235,,235,82.5,M,Алексей Щекунов,1984,No,Raw,D
1,Vladislav Sannikov,Masters 75-79,75.1,,,,,,,,,,,100,110,,110,,110,82.5,M,Владислав Санников,1938,No,Raw,D
1,Radiy Single-plyitsin,Open,89.8,,,,,,,,,,,285,-295,-300,285,,285,90,M,Радій Спицин,1981,No,Raw,D
2,Andrey Prusov,Open,84.5,,,,,,,,,,,200,-207.5,-207.5,200,,200,90,M,Андрей Прусов,1995,No,Raw,D
1,Dmitry Gorelikov,Masters 45-49,86.8,,,,,,,,,,,225,242.5,,242.5,,242.5,90,M,Дмитрий Гореликов,1968,No,Raw,D
DQ,Mikhail Ivanov,Juniors 20-23,96.2,,,,,,,,,,,-190,,,,,,100,M,Михаил Иванов,1995,No,Raw,D
1,Andrey Bulgar,Open,98.4,,,,,,,,,,,315,-320,,315,,315,100,M,Андрей Булгарь,1988,No,Raw,D
2,Dmitriy Kalinin,Open,97.5,,,,,,,,,,,260,280,285,285,,285,100,M,Дмитрий Калинин,1970,No,Raw,D
3,Andrey Arkhipov,Open,96.8,,,,,,,,,,,245,250,255,255,,255,100,M,Андрей Архипов,1979,No,Raw,D
1,Dmitriy Kalinin,Masters 45-49,97.5,,,,,,,,,,,260,280,285,285,,285,100,M,Дмитрий Калинин,1970,No,Raw,D
DQ,Andrey Burakov,Masters 55-59,100,,,,,,,,,,,-180,,,,,,100,M,Андрей Бураков,1958,No,Raw,D
1,Anatoliy Klyuev,Juniors 20-23,108.2,,,,,,,,,,,-250,250,-265,250,,250,110,M,Анатолий Клюев,1992,No,Raw,D
1,Aleksandr Evsyutkin,Open,106.4,,,,,,,,,,,210,230,-242.5,230,,230,110,M,Александр Евсюткин,1988,No,Raw,D
1,Dmitriy Kondratenko,Masters 40-44,105.8,,,,,,,,,,,250,-260,-260,250,,250,110,M,Дмитрий Кондратенко,1973,No,Raw,D
1,Valeriy Sytnikov,Masters 45-49,110,,,,,,,,,,,250,270,277.5,277.5,,277.5,110,M,Валерий Сытников,1970,No,Raw,D
1,Vladislav Bernetskiy,Juniors 20-23,119.2,,,,,,,,,,,-260,260,-295,260,,260,125,M,Владислав Бернецкий,1993,No,Raw,D
1,Aleksey Nemov,Open,117.7,,,,,,,,,,,280,300,310,310,,310,125,M,Алексей Немов,1990,No,Raw,D
2,Ivan Tatyannikov,Open,117,,,,,,,,,,,240,257.5,,257.5,,257.5,125,M,Иван Татьянников,1986,No,Raw,D
1,Vadim Pchelkin,Masters 40-44,121.6,,,,,,,,,,,260,280,295,295,,295,125,M,Вадим Пчелкин,1971,No,Raw,D
1,Oleg Rekun,Masters 45-49,123.2,,,,,,,,,,,247.5,257.5,262.5,262.5,,262.5,125,M,Олег Рекун,1969,No,Raw,D
1,Nina Emelyanova,Submasters 33-39,66.4,,,,,,,,,,,100,,,100,,100,67.5,F,Нина Емельянова,1980,Yes,Multi-ply,D
1,Roman Yurasov,Submasters 33-39,108.7,,,,,,,,,,,100,,,100,,100,110,M,Роман Юрасов,1976,Yes,Multi-ply,D
1,Tatyana Trushkova,Open,55.1,,,,,,,,,,,110,,,110,,110,56,F,Татьяна Трушкова,1984,Yes,Single-ply,D
1,Sergey Ulmer,Open,80.7,,,,,,,,,,,170,180,-190,180,,180,82.5,M,Сергей Ульмер,1977,Yes,Single-ply,D
1,Aleksandr Tokar,Masters 40-44,75.5,,,,,,,,,,,150,,,150,,150,82.5,M,Александр Токарь,1972,Yes,Single-ply,D
1,Sergey Kovalchuk,Open,102.9,,,,,,,,,,,290,-310,-310,290,,290,110,M,Сергей Ковальчук,1986,Yes,Single-ply,D
1,Mikhail Antsiferov,Submasters 33-39,107.6,,,,,,,,,,,200,220,230,230,,230,110,M,Михаил Анциферов,1981,Yes,Single-ply,D
1,Aleksandr Shakhov,Open,69.8,,,,,,,,,,,140,152.5,-157.5,152.5,,152.5,75,M,Александр Шахов,1988,No,Multi-ply,D
1,Sergey Suchkov,Open,80.5,,,,,,,,,,,-155,160,170,170,,170,82.5,M,Сергей Сучков,1988,No,Multi-ply,D
1,Roman Tsikolenko,Open,83.2,,,,,,,,,,,-140,140,155,155,,155,90,M,Роман Циколенко,1984,No,Multi-ply,D
1,Dmitriy Ryzhnikov,Open,90.6,,,,,,,,,,,240,255,-265,255,,255,100,M,Дмитрий Рыжников,1984,No,Multi-ply,D
1,Elena Medvedeva,Open,50,,,,,,,,,,,90,102.5,105,105,,105,52,F,Елена Медведева,1990,No,Single-ply,D
1,Marina Mishenina,Open,65.9,,,,,,,,,,,85,90,100,100,,100,67.5,F,Марина Мишенина,1978,No,Single-ply,D
1,Ekaterina Romanovskaya,Juniors 20-23,70.9,,,,,,,,,,,120,125,-130,125,,125,75,F,Екатерина Романовская,1992,No,Single-ply,D
1,Nikolay Prokaev,Open,64.3,,,,,,,,,,,160,177.5,182.5,182.5,,182.5,67.5,M,Николай Прокаев,1987,No,Single-ply,D
1,Vladimir Kulakov,Open,74.3,,,,,,,,,,,85,97.5,,97.5,,97.5,75,M,Владимир Кулаков,1955,No,Single-ply,D
1,Vladimir Kulakov,Masters 55-59,74.3,,,,,,,,,,,85,97.5,,97.5,,97.5,75,M,Владимир Кулаков,1955,No,Single-ply,D
1,Konstantin Sapunkov,Open,82.5,,,,,,,,,,,260,270,,270,,270,82.5,M,Константин Сапунков,1981,No,Single-ply,D
1,Vladislav Sannikov,Masters 75-79,75.1,,,,,,,,,,,110,,,110,,110,82.5,M,Владислав Санников,1938,No,Single-ply,D
1,Konstantin Sapunkov,Submasters 33-39,82.5,,,,,,,,,,,260,270,,270,,270,82.5,M,Константин Сапунков,1981,No,Single-ply,D
1,Ilya Katigaridi,Teen 18-19,88.8,,,,,,,,,,,180,200,210,210,,210,90,M,Илья Катигариди,1997,No,Single-ply,D
1,Sergey Mishenin,Open,97.3,,,,,,,,,,,230,250,-260,250,,250,100,M,Сергей Мишенин,1978,No,Single-ply,D
