Place,Name,Division,BodyweightKg,Squat1Kg,Squat2Kg,Squat3Kg,Best3SquatKg,Bench1Kg,Bench2Kg,Bench3Kg,Best3BenchKg,Bench4Kg,Deadlift1Kg,Deadlift2Kg,Deadlift3Kg,Best3DeadliftKg,Deadlift4Kg,TotalKg,WeightClassKg,Sex,CyrillicName,BirthYear,Tested,Equipment,Event
1,Elena Pugach,Amateur Open,47.2,-50,50,52.5,52.5,35,40,-42.5,40,,65,70,75,75,,167.5,48,F,Елена Пугач,1975,Yes,Wraps,SBD
DQ,Mariya Markova,Amateur Open,47.3,-50,-60,,,-35,,,,,-60,,,,,,48,F,Мария Маркова,1986,Yes,Wraps,SBD
1,Varvara Kosova,Amateur Juniors 20-23,50.1,80,85,-87.5,85,35,-37.5,-37.5,35,,92.5,95,-97.5,95,,215,52,F,Варвара Косова,1995,Yes,Wraps,SBD
1,Margarita Iskhakova,Amateur Open,51,70,75,-77.5,75,40,-47.5,-47.5,40,,95,100,-105,100,,215,52,F,Маргарита Исхакова,1988,Yes,Wraps,SBD
1,Olesya Shishkina,Amateur Juniors 20-23,55.6,-85,-85,85,85,60,65,-67.5,65,,125,132.5,-137.5,132.5,,282.5,56,F,Олеся Шишкина,1994,Yes,Wraps,SBD
2,Svetlana Klyauzova,Amateur Juniors 20-23,53.7,-40,40,45,45,30,-35,,30,,70,-90,,70,,145,56,F,Светлана Кляузова,1993,Yes,Wraps,SBD
1,Anna Meshkova,Amateur Open,54.5,110,-115,-115,110,50,52.5,55,55,,110,-115,120,120,,285,56,F,Анна Мешкова,1986,Yes,Wraps,SBD
2,Yuliya Golubtsova,Amateur Open,55.5,92.5,100,-110,100,60,-65,-65,60,,110,115,120,120,,280,56,F,Юлия Голубцова,1989,Yes,Wraps,SBD
3,Mariya Nekrasova,Amateur Open,55.5,80,90,95,95,-50,50,-52.5,50,,120,130,-135,130,,275,56,F,Мария Некрасова,1989,Yes,Wraps,SBD
4,Olga Pyzhova,Amateur Open,55,80,100,-110,100,50,-55,55,55,,102.5,105,-120,105,,260,56,F,Ольга Пыжова,1986,Yes,Wraps,SBD
5,Lidiya Soldatova,Amateur Open,54.8,75,80,85,85,47.5,50,-52.5,50,,110,117.5,122.5,122.5,,257.5,56,F,Лидия Солдатова,1985,Yes,Wraps,SBD
6,Natalya Levenkova,Amateur Open,54.7,72.5,77.5,-82.5,77.5,47.5,50,52.5,52.5,,95,100,105,105,,235,56,F,Наталья Левенкова,1988,Yes,Wraps,SBD
7,Varvara Klimova,Amateur Open,53.7,50,55,62.5,62.5,35,37.5,-40,37.5,,70,75,-80,75,,175,56,F,Варвара Климова,1987,Yes,Wraps,SBD
DQ,Irina Pragina,Amateur Open,54.5,85,90,-97.5,90,-52.5,-52.5,-52.5,,,-95,,,,,,56,F,Ирина Прагина,1989,Yes,Wraps,SBD
DQ,Elena Schedrina,Amateur Open,55.7,-75,-75,-75,,-55,,,,,-115,,,,,,56,F,Елена Щедрина,1987,Yes,Wraps,SBD
1,Angelina Garaeva,Amateur Juniors 20-23,59.8,70,75,80,80,42.5,45,-47.5,45,,85,95,105,105,,230,60,F,Ангелина Гараева,1994,Yes,Wraps,SBD
1,Ekaterina Sukhoverkova,Amateur Open,58.8,110,120,127.5,127.5,60,65,-67.5,65,,150,160,165,165,170,357.5,60,F,Екатерина Суховеркова,1973,Yes,Wraps,SBD
2,Irina Karpova,Amateur Open,59.5,107.5,115,120,120,67.5,-70,70,70,,120,130,135,135,,325,60,F,Ирина Карпова,1989,Yes,Wraps,SBD
3,Natalya Mironova,Amateur Open,59.2,95,-105,-105,95,55,-60,60,60,,125,135,140,140,,295,60,F,Наталья Миронова,1974,Yes,Wraps,SBD
4,Yuliya Voinova,Amateur Open,59.7,-100,100,110,110,55,-62.5,-62.5,55,,107.5,115,120,120,,285,60,F,Юлия Воинова,1986,Yes,Wraps,SBD
5,Olga Tikhonova,Amateur Open,58.8,85,92.5,95,95,55,-62.5,-62.5,55,,95,107.5,122.5,122.5,,272.5,60,F,Ольга Тихонова,1988,Yes,Wraps,SBD
6,Elena Demina,Amateur Open,60,82.5,87.5,92.5,92.5,42.5,45,47.5,47.5,,105,115,-132.5,115,,255,60,F,Елена Демина,1979,Yes,Wraps,SBD
7,Svetlana Dragunova,Amateur Open,58.6,80,90,-100,90,40,50,-55,50,,100,110,-115,110,,250,60,F,Светлана Драгунова,1991,Yes,Wraps,SBD
1,Natalya Mironova,Amateur Masters 40-44,59.2,95,-105,-105,95,55,-60,60,60,,125,135,140,140,,295,60,F,Наталья Миронова,1974,Yes,Wraps,SBD
2,Elena Kononova,Amateur Masters 40-44,58.8,90,95,100,100,47.5,50,-52.5,50,,90,95,-100,95,,245,60,F,Елена Кононова,1971,Yes,Wraps,SBD
1,Svetlana Tekhan,Amateur Juniors 20-23,64.7,85,90,95,95,47.5,-50,50,50,,95,100,105,105,,250,67.5,F,Светлана Техан,1993,Yes,Wraps,SBD
2,Olesya Platova,Amateur Juniors 20-23,66.2,70,75,80,80,-35,37.5,-40,37.5,,95,-102.5,105,105,,222.5,67.5,F,Олеся Платова,1992,Yes,Wraps,SBD
1,Anastasiya Pykhova,Amateur Open,67.4,95,100,105,105,55,60,-65,60,,152.5,162.5,167.5,167.5,,332.5,67.5,F,Анастасия Пыхова,1989,Yes,Wraps,SBD
2,Oksana Fomenko,Amateur Open,66.6,-107.5,112.5,-115,112.5,60,65,-70,65,,130,-142.5,142.5,142.5,,320,67.5,F,Оксана Фоменко,1988,Yes,Wraps,SBD
3,Anastasiya Marchenko,Amateur Open,64.9,90,95,100,100,55,-60,-60,55,,120,125,130,130,,285,67.5,F,Анастасія Марченко,1988,Yes,Wraps,SBD
4,Svetlana Grigoryeva,Amateur Open,64.4,80,90,-100,90,60,65,-67.5,65,,110,120,,120,,275,67.5,F,Светлана Григорьева,1982,Yes,Wraps,SBD
5,Anna Makarovskaya,Amateur Open,65.4,-70,70,80,80,37.5,40,42.5,42.5,,95,100,105,105,,227.5,67.5,F,Анна Макаровская,1989,Yes,Wraps,SBD
6,Mariya Brazhinskaya,Amateur Open,65,-80,80,90,90,37.5,42.5,45,45,,90,-97.5,-97.5,90,,225,67.5,F,Мария Бражинская,1983,Yes,Wraps,SBD
1,Ekaterina Pozdnyakova,Amateur Juniors 20-23,72.1,120,-130,-132.5,120,65,-70,-72.5,65,,135,-150,-150,135,,320,75,F,Екатерина Позднякова,1991,Yes,Wraps,SBD
1,Oksana Novikova,Amateur Open,74.1,-117.5,-120,120,120,62.5,67.5,70,70,,135,145,150,150,,340,75,F,Оксана Новикова,1984,Yes,Wraps,SBD
2,Mariya Tsybulskaya,Amateur Open,73.2,-100,-105,105,105,55,-60,-60,55,,120,125,130,130,,290,75,F,Мария Цыбульская,1990,Yes,Wraps,SBD
3,Kseniya Chebotnikova,Amateur Open,74.5,87.5,90,-95,90,47.5,50,52.5,52.5,,127.5,135,140,140,,282.5,75,F,Ксения Чеботникова,1988,Yes,Wraps,SBD
4,Lyudmila Gil,Amateur Open,72.2,90,97.5,102.5,102.5,40,42.5,45,45,,102.5,110,117.5,117.5,,265,75,F,Людмила Гиль,1976,Yes,Wraps,SBD
1,Veronika Ukolova,Amateur Teen 18-19,111.3,-150,-150,150,150,75,80,82.5,82.5,,127.5,135,142.5,142.5,,375,90+,F,Вероника Уколова,1997,Yes,Wraps,SBD
1,Evgeniy Pleshkov,Amateur Teen 18-19,58.3,110,115,120,120,65,70,75,75,,130,140,150,150,,345,60,M,Евгений Плешков,1995,Yes,Wraps,SBD
1,Grigoriy Kapustin,Amateur Teen 16-17,65.7,110,120,-125,120,-70,70,-75,70,,135,145,152.5,152.5,,342.5,67.5,M,Григорий Капустин,1998,Yes,Wraps,SBD
2,Vadim Unkunov,Amateur Teen 16-17,65,90,97.5,105,105,72.5,75,-80,75,,-100,-110,110,110,,290,67.5,M,Вадим Ункунов,1998,Yes,Wraps,SBD
DQ,Grigoriy Laptev,Amateur Teen 18-19,67,-115,-115,115,115,-100,-100,-100,,,-145,,,,,,67.5,M,Григорий Лаптев,1996,Yes,Wraps,SBD
1,Boris Belousov,Amateur Juniors 20-23,62.4,140,145,152.5,152.5,100,107.5,-110,107.5,,150,160,165,165,,425,67.5,M,Борис Белоусов,1992,Yes,Wraps,SBD
2,Anton Tolubaev,Amateur Juniors 20-23,67.5,120,125,130,130,70,75,80,80,,170,180,190,190,,400,67.5,M,Антон Толубаев,1991,Yes,Wraps,SBD
1,Aleksey Yushin,Amateur Open,67.5,145,150,155,155,130,137.5,142.5,142.5,,195,202.5,210,210,,507.5,67.5,M,Алексей Юшин,1982,Yes,Wraps,SBD
2,Shirur Ragimov,Amateur Open,66.6,-150,150,-160,150,110,120,122.5,122.5,,180,-190,190,190,,462.5,67.5,M,,1985,Yes,Wraps,SBD
3,Aleksandr Scherbakov,Amateur Open,66.3,125,132.5,-135,132.5,82.5,87.5,-90,87.5,,155,165,-172.5,165,,385,67.5,M,Александр Щербаков,1987,Yes,Wraps,SBD
1,Mikhail Kafash,Amateur Teen 18-19,71.8,120,130,140,140,90,100,105,105,,150,165,180,180,,425,75,M,Михаил Кафаш,1996,Yes,Wraps,SBD
1,Aleksandr Smelyy,Amateur Juniors 20-23,72.9,135,145,147.5,147.5,90,100,-105,100,,175,187.5,190,190,,437.5,75,M,Александр Смелый,1993,Yes,Wraps,SBD
2,Dmitriy Ernestov,Amateur Juniors 20-23,70.6,110,115,120,120,75,80,-82.5,80,,-170,172.5,180,180,,380,75,M,Дмитрий Эрнестов,1993,Yes,Wraps,SBD
DQ,Dmitriy Troshin,Amateur Juniors 20-23,72.7,-140,-155,-155,,-105,,,,,-200,,,,,,75,M,Дмитрий Трошин,1993,Yes,Wraps,SBD
1,Arsen Dallakyan,Amateur Open,73,170,-180,180,180,112.5,117.5,-122.5,117.5,,180,190,197.5,197.5,,495,75,M,Арсен Даллакян,1988,Yes,Wraps,SBD
2,Kirill Vovchuk,Amateur Open,73.3,135,145,150,150,-100,115,120,120,,190,210,220,220,,490,75,M,Кирилл Вовчук,1990,Yes,Wraps,SBD
3,Egor Baranov,Amateur Open,73,160,-170,-170,160,100,105,-110,105,,190,200,-215,200,,465,75,M,Егор Баранов,1987,Yes,Wraps,SBD
4,Petr Kutilov,Amateur Open,73.3,142.5,155,165,165,95,100,-105,100,,147.5,162.5,170,170,,435,75,M,Петр Кутилов,1986,Yes,Wraps,SBD
5,Denis Karpenya,Amateur Open,71.55,-130,-135,135,135,90,97.5,100,100,,160,167.5,175,175,,410,75,M,Денис Карпеня,1982,Yes,Wraps,SBD
6,Igor Frolov,Amateur Open,75,110,120,127.5,127.5,75,85,-87.5,85,,152.5,-160,160,160,,372.5,75,M,Игорь Фролов,1986,Yes,Wraps,SBD
DQ,Anton Balashov,Amateur Open,73.7,-120,-120,120,120,85,-92.5,-92.5,85,,-120,,,,,,75,M,Антон Балашов,1989,Yes,Wraps,SBD
1,Daniil Nasyrov,Amateur Teen 13-15,77.35,-110,120,127.5,127.5,92.5,100,-105,100,,125,145,152.5,152.5,,380,82.5,M,Даниил Насыров,1999,Yes,Wraps,SBD
1,Aleksey Tanaev,Amateur Teen 16-17,80.2,-150,160,165,165,-95,-100,100,100,,150,160,170,170,,435,82.5,M,Алексей Танаев,1999,Yes,Wraps,SBD
1,Aleksey Smirnov,Amateur Teen 18-19,80.8,195,205,215,215,125,130,135,135,,225,235,240,240,,590,82.5,M,Алексей Смирнов,1995,Yes,Wraps,SBD
2,Anton Drynin,Amateur Teen 18-19,80,-170,-170,180,180,115,-125,-125,115,,170,177.5,-185,177.5,,472.5,82.5,M,Антон Дрынин,1996,Yes,Wraps,SBD
1,Maksim Koval,Amateur Juniors 20-23,80.2,200,220,-235,220,120,130,140,140,,210,235,250,250,,610,82.5,M,Максим Коваль,1991,Yes,Wraps,SBD
2,Yuriy Kokarev,Amateur Juniors 20-23,77.4,145,-150,-150,145,-120,120,-122.5,120,,175,180,190,190,,455,82.5,M,Юрий Кокарев,1994,Yes,Wraps,SBD
1,Vasiliy Perov,Amateur Open,81.5,200,215,225,225,145,155,-162.5,155,,240,255,265,265,,645,82.5,M,Василий Перов,1979,Yes,Wraps,SBD
2,Andrey Popov,Amateur Open,82.35,205,215,-220,215,140,147.5,-152.5,147.5,,-242.5,242.5,-255,242.5,,605,82.5,M,Андрей Попов,1990,Yes,Wraps,SBD
3,Dmitriy Shelukhin,Amateur Open,81.5,-190,190,210,210,130,140,145,145,,220,240,-245,240,,595,82.5,M,Дмитрий Шелухин,1985,Yes,Wraps,SBD
4,Egor Opichenok,Amateur Open,77.8,-177.5,-185,185,185,135,137.5,140,140,,235,-242.5,-242.5,235,,560,82.5,M,Егор Опиченок,1981,Yes,Wraps,SBD
5,Sergey Myakishev,Amateur Open,79.4,-185,185,195,195,140,-145,-145,140,,215,-232.5,-232.5,215,,550,82.5,M,Сергей Мякишев,1985,Yes,Wraps,SBD
6,Dmitriy Karpeev,Amateur Open,80.8,180,-190,-195,180,130,135,-140,135,,195,205,-210,205,,520,82.5,M,Дмитрий Карпеев,1984,Yes,Wraps,SBD
7,Vadim Malov,Amateur Open,81.2,165,-177.5,180,180,97.5,-105,-105,97.5,,217.5,235,-240,235,,512.5,82.5,M,Вадим Малов,1990,Yes,Wraps,SBD
8,Andrey Zharov,Amateur Open,80.6,150,160,167.5,167.5,115,122.5,130,130,,185,200,-212.5,200,,497.5,82.5,M,Андрей Жаров,1983,Yes,Wraps,SBD
9,Aleksey Kozachek,Amateur Open,80.3,160,165,-172.5,165,-125,125,-127.5,125,,180,190,200,200,,490,82.5,M,Алексей Козачек,1988,Yes,Wraps,SBD
10,Nikolay Mikhaylov,Amateur Open,80.4,135,-145,-145,135,100,105,-110,105,,180,185,190,190,,430,82.5,M,Николай Михайлов,1986,Yes,Wraps,SBD
11,Sergey Zhilin,Amateur Open,80.7,90,95,100,100,75,-80,-80,75,,105,112.5,-117.5,112.5,,287.5,82.5,M,Сергей Жилин,1987,Yes,Wraps,SBD
DQ,Ruslan Umrikhin,Amateur Open,81.6,-212.5,,,,,,,,,,,,,,,82.5,M,Руслан Умрихин,1988,Yes,Wraps,SBD
1,Daniil Zhigulin,Amateur Teen 16-17,86.5,125,140,160,160,105,122.5,132.5,132.5,,-167.5,182.5,205,205,,497.5,90,M,Даниил Жигулин,1997,Yes,Wraps,SBD
2,Aleksandr Sabadysh,Amateur Teen 16-17,87.4,-80,-90,100,100,65,80,-90,80,,-100,100,110,110,,290,90,M,Александр Сабадыш,1997,Yes,Wraps,SBD
1,Sergey Bronzov,Amateur Teen 18-19,88.4,180,-200,-200,180,140,150,-152.5,150,,240,252.5,-260,252.5,,582.5,90,M,Сергей Бронзов,1996,Yes,Wraps,SBD
2,Georgiy Mikanadze,Amateur Teen 18-19,89.7,170,180,-195,180,-115,120,125,125,,225,232.5,-240,232.5,,537.5,90,M,Георгий Миканадзе,1996,Yes,Wraps,SBD
3,Svyatoslav Tarasov,Amateur Teen 18-19,86.5,-160,160,-170,160,115,120,125,125,,190,200,-210,200,,485,90,M,Святослав Тарасов,1997,Yes,Wraps,SBD
1,Aleksandr Yudaev,Amateur Juniors 20-23,87.9,190,200,205,205,130,137.5,142.5,142.5,,210,225,230,230,,577.5,90,M,Александр Юдаев,1994,Yes,Wraps,SBD
1,Aleksey Kuznetsov,Amateur Open,85.4,205,215,-217.5,215,160,170,175,175,,260,275,285,285,,675,90,M,Алексей Кузнецов,1980,Yes,Wraps,SBD
2,Igor Startsev,Amateur Open,89.3,185,195,205,205,140,150,157.5,157.5,,215,225,235,235,,597.5,90,M,Игорь Старцев,1983,Yes,Wraps,SBD
3,Vladimir Orlov,Amateur Open,89.4,190,200,-207.5,200,120,-127.5,-127.5,120,,250,260,265,265,,585,90,M,Владимир Орлов,1977,Yes,Wraps,SBD
4,Sergey Klyauzov,Amateur Open,88.45,200,215,-220,215,135,140,-142.5,140,,220,-242.5,-242.5,220,,575,90,M,Сергей Кляузов,1990,Yes,Wraps,SBD
5,Igor Fushkalyuk,Amateur Open,88.8,170,180,-190,180,135,142.5,-150,142.5,,210,225,240,240,,562.5,90,M,,1986,Yes,Wraps,SBD
6,Andrey Pivovar,Amateur Open,87.7,170,180,-190,180,117.5,130,132.5,132.5,,170,185,195,195,,507.5,90,M,Андрей Пивовар,1978,Yes,Wraps,SBD
7,Nikolay Salenkov,Amateur Open,87.8,145,-155,155,155,-110,-110,110,110,,170,180,185,185,,450,90,M,Николай Саленков,1989,Yes,Wraps,SBD
8,Yuriy Bubentsov,Amateur Open,85,135,142.5,150,150,107.5,-115,-115,107.5,,-180,180,190,190,,447.5,90,M,Юрий Бубенцов,1988,Yes,Wraps,SBD
9,Aleksandr Guschin,Amateur Open,86.1,115,125,130,130,-95,95,100,100,,127.5,135,145,145,,375,90,M,Александр Гущин,1989,Yes,Wraps,SBD
DQ,Roman Pragin,Amateur Open,88.8,-180,-180,-180,,,,,,,,,,,,,90,M,Роман Прагин,1986,Yes,Wraps,SBD
1,Eduard Lesnikov,Amateur Masters 45-49,85.35,135,-142.5,152.5,152.5,90,-100,100,100,,170,180,190,190,,442.5,90,M,Эдуард Лесников,1969,Yes,Wraps,SBD
1,Sergey Rubin,Amateur Open,98.1,200,215,222.5,222.5,135,142.5,150,150,,215,235,-257.5,235,,607.5,100,M,Сергей Рубин,1989,Yes,Wraps,SBD
2,Pavel Rodin,Amateur Open,97.2,190,205,210,210,135,140,145,145,,215,225,-230,225,,580,100,M,Павел Родин,1985,Yes,Wraps,SBD
3,Vladimir Kulgin,Amateur Open,99.8,175,185,192.5,192.5,145,-155,-155,145,,200,215,-230,215,,552.5,100,M,Владимир Кульгин,1988,Yes,Wraps,SBD
4,Stanislav Pyalinok,Amateur Open,93.6,170,175,-182.5,175,120,-125,125,125,,-210,215,-220,215,,515,100,M,Станислав Пялинок,1989,Yes,Wraps,SBD
DQ,Vitaliy Zaytsev,Amateur Open,95.9,150,160,170,170,-140,-140,-140,,,,,,,,,100,M,Виталий Зайцев,1970,Yes,Wraps,SBD
1,Aleksandr Mishustin,Amateur Masters 50-54,98,160,170,175,175,130,140,-145,140,,175,195,202.5,202.5,,517.5,100,M,Александр Мишустин,1964,Yes,Wraps,SBD
1,Aleksandr Gezhenko,Amateur Masters 60-64,99.7,-110,-110,110,110,100,107.5,110,110,,150,160,170,170,,390,100,M,Александр Геженко,1953,Yes,Wraps,SBD
1,Maksim Belogurov,Amateur Teen 18-19,106.5,-185,185,200,200,135,150,-155,150,,215,-240,240,240,,590,110,M,Максим Белогуров,1996,Yes,Wraps,SBD
1,Sergey Bindyukov,Amateur Juniors 20-23,106.5,225,-235,235,235,140,150,160,160,,255,265,275,275,,670,110,M,Сергей Биндюков,1994,Yes,Wraps,SBD
2,Denis Kopryantsev,Amateur Juniors 20-23,104.9,180,190,200,200,140,155,-165,155,,250,270,285,285,,640,110,M,Денис Копрянцев,1991,Yes,Wraps,SBD
3,Aleksey Averyanov,Amateur Juniors 20-23,105.5,212.5,-222.5,222.5,222.5,150,155,-160,155,,240,252.5,260,260,,637.5,110,M,Алексей Аверьянов,1993,Yes,Wraps,SBD
1,Stanislav Karpov,Amateur Open,103.1,197.5,205,210,210,150,-160,-160,150,,252.5,265,270,270,,630,110,M,Станислав Карпов,1982,Yes,Wraps,SBD
2,Sergey Pereskokov,Amateur Open,104,200,210,220,220,147.5,-157.5,-157.5,147.5,,207.5,-217.5,217.5,217.5,,585,110,M,Сергей Перескоков,1987,Yes,Wraps,SBD
3,Vladimir Yaroslavtsev,Amateur Open,100.1,-160,160,-170,160,130,-142.5,-142.5,130,,-180,190,202.5,202.5,,492.5,110,M,Владимир Ярославцев,1981,Yes,Wraps,SBD
4,Anton Morin,Amateur Open,103.5,-140,-150,150,150,120,-130,130,130,,190,200,-212.5,200,,480,110,M,Антон Морин,1988,Yes,Wraps,SBD
1,Sergey Sventitskiy,Amateur Juniors 20-23,122.3,-200,-200,200,200,170,180,190,190,,235,255,270,270,,660,125,M,Сергей Свентицкий,1994,Yes,Wraps,SBD
1,Sergey Oleynikov,Amateur Open,114.1,200,215,-222.5,215,165,175,180,180,,230,250,257.5,257.5,,652.5,125,M,Сергей Олейников,1981,Yes,Wraps,SBD
2,Daniil Shikuts,Amateur Open,124.3,240,-260,-260,240,155,-165,-165,155,,220,230,240,240,,635,125,M,Даниил Шикуц,1983,Yes,Wraps,SBD
3,Nikolay Markin,Amateur Open,116.1,205,215,-225,215,142.5,-152.5,152.5,152.5,,237.5,-250,-250,237.5,,605,125,M,Николай Маркин,1981,Yes,Wraps,SBD
1,Aleksandr Smirnov,Amateur Masters 40-44,120,-170,170,180,180,120,125,130,130,,200,210,220,220,,530,125,M,Александр Смирнов,1972,Yes,Wraps,SBD
2,Sergey Ushakov,Amateur Masters 40-44,110.6,170,180,-185,180,130,-135,-135,130,,195,205,,205,,515,125,M,Сергей Ушаков,1971,Yes,Wraps,SBD
1,Mikhail Kondratenko,Amateur Open,153.6,-255,255,265,265,160,-165,-165,160,,-280,-280,280,280,,705,140+,M,Михаил Кондратенко,1987,Yes,Wraps,SBD
1,Konstantin Sapunkov,Amateur Open,82,270,-285,-292.5,270,180,190,-202.5,190,,-260,260,-275,260,,720,82.5,M,Константин Сапунков,1981,Yes,Multi-ply,SBD
1,Olga Savritskaya,Amateur Open,55.3,110,120,-130,120,67.5,72.5,-77.5,72.5,,110,125,-130,125,,317.5,56,F,Ольга Саврицкая,1979,Yes,Single-ply,SBD
1,Natalya Guzenina,Amateur Open,65.7,150,-160,-160,150,80,90,100,100,,150,162.5,170,170,,420,67.5,F,Наталья Гузенина,1989,Yes,Single-ply,SBD
2,Elena Sizikova,Amateur Open,65.3,130,-140,140,140,-60,60,-67.5,60,,140,-147.5,-147.5,140,,340,67.5,F,Елена Сизикова,1987,Yes,Single-ply,SBD
1,Igor Filippov,Amateur Open,80.2,185,-200,-210,185,140,150,155,155,,210,225,240,240,,580,82.5,M,Игорь Филиппов,1984,Yes,Single-ply,SBD
DQ,Aleksey Selischev,Amateur Open,85.2,190,200,-210,200,-120,120,-122.5,120,,-200,-200,-200,,,,90,M,Алексей Селищев,1978,Yes,Single-ply,SBD
1,Andrey Karpov,Amateur Open,98.1,240,250,260,260,175,182.5,-187.5,182.5,,220,230,235,235,,677.5,100,M,Андрей Карпов,1985,Yes,Single-ply,SBD
1,Olga Lebedeva,Amateur Open,43.1,,,,,42.5,45,47.5,47.5,,,,,,,47.5,44,F,Ольга Лебедева,1984,Yes,Raw,B
1,Yana Timonina,Amateur Juniors 20-23,47.3,,,,,35,40,45,45,,,,,,,45,48,F,Яна Тимонина,1993,Yes,Raw,B
DQ,Marina Smirnova,Amateur Juniors 20-23,46.35,,,,,-30,-32.5,-32.5,,,,,,,,,48,F,Марина Смирнова,1992,Yes,Raw,B
1,Irina Bryukhanova,Amateur Open,48,,,,,-57.5,57.5,-60,57.5,,,,,,,57.5,48,F,Ирина Брюханова,1984,Yes,Raw,B
2,Kseniya Kuznetsova,Amateur Open,47.5,,,,,50,52.5,-55,52.5,,,,,,,52.5,48,F,Ксения Кузнецова,1989,Yes,Raw,B
1,Kseniya Nikitina,Amateur Teen 18-19,48.4,,,,,52.5,55,57.5,57.5,,,,,,,57.5,52,F,Ксения Никитина,1996,Yes,Raw,B
DQ,Natalya Pykina,Amateur Teen 18-19,51.7,,,,,-40,,,,,,,,,,,52,F,Наталья Пыкина,1995,Yes,Raw,B
1,Ekaterina Potekhina,Amateur Open,51.6,,,,,57.5,-60,62.5,62.5,,,,,,,62.5,52,F,Екатерина Потехина,1988,Yes,Raw,B
2,Anastasiya Yozhikova,Amateur Open,50.95,,,,,-45,45,50,50,,,,,,,50,52,F,Анастасия Ёжикова,1983,Yes,Raw,B
1,Irina Trefilova,Amateur Masters 50-54,51.5,,,,,45,-50,-50,45,,,,,,,45,52,F,Ирина Трефилова,1962,Yes,Raw,B
1,Margarita Mishlova,Amateur Juniors 20-23,55.5,,,,,62.5,67.5,-70.5,67.5,,,,,,,67.5,56,F,Маргарита Мишлова,1994,Yes,Raw,B
2,Mariya Voropaeva,Amateur Juniors 20-23,54.75,,,,,47.5,50,-55,50,,,,,,,50,56,F,Мария Воропаева,1991,Yes,Raw,B
1,Margarita Mishlova,Amateur Open,55.5,,,,,62.5,67.5,-70.5,67.5,,,,,,,67.5,56,F,Маргарита Мишлова,1994,Yes,Raw,B
2,Mariya Avdeeva,Amateur Open,54.55,,,,,55,60,65,65,,,,,,,65,56,F,Мария Авдеева,1990,Yes,Raw,B
3,Marina Antropova,Amateur Open,55.3,,,,,55,57.5,-62.5,57.5,,,,,,,57.5,56,F,Марина Антропова,1981,Yes,Raw,B
4,Svetlana Cherkasova,Amateur Open,55.05,,,,,-55,-55,55,55,,,,,,,55,56,F,Светлана Черкасова,1989,Yes,Raw,B
5,Vera Baybikova,Amateur Open,54,,,,,-45,50,-55,50,,,,,,,50,56,F,Вера Байбикова,1976,Yes,Raw,B
6,Marina Almukova,Amateur Open,54.45,,,,,40,-47.5,47.5,47.5,,,,,,,47.5,56,F,Марина Альмукова,1986,Yes,Raw,B
7,Irina Ryazanova,Amateur Open,54.7,,,,,37.5,-42.5,-42.5,37.5,,,,,,,37.5,56,F,Ирина Рязанова,1982,Yes,Raw,B
DQ,Anzhelika Odintsova,Amateur Open,54.65,,,,,-57.5,-57.5,-57.5,,,,,,,,,56,F,Анжелика Одинцова,1990,Yes,Raw,B
1,Olga Pavlova,Amateur Masters 40-44,54.95,,,,,-45,45,-47.5,45,,,,,,,45,56,F,Ольга Павлова,1974,Yes,Raw,B
1,Irina Lapshova,Amateur Masters 50-54,55.5,,,,,57.5,62.5,-65,62.5,,,,,,,62.5,56,F,Ирина Лапшова,1964,Yes,Raw,B
1,Ekaterina Dudareva,Amateur Juniors 20-23,59.4,,,,,67.5,70,-72.5,70,,,,,,,70,60,F,Екатерина Дударева,1993,Yes,Raw,B
1,Marina Lukyanova,Amateur Open,59.9,,,,,87.5,92.5,97.5,97.5,,,,,,,97.5,60,F,Марина Лукьянова,1972,Yes,Raw,B
2,Olga Krichmar,Amateur Open,59,,,,,57.5,60,-62.5,60,,,,,,,60,60,F,Ольга Кричмар,1982,Yes,Raw,B
3,Evgeniya Prokhorenko,Amateur Open,58.05,,,,,55,57.5,-62.5,57.5,,,,,,,57.5,60,F,Евгения Прохоренко,1985,Yes,Raw,B
4,Olga Timokhina,Amateur Open,58.9,,,,,50,-52.5,52.5,52.5,,,,,,,52.5,60,F,Ольга Тимохина,1984,Yes,Raw,B
DQ,Evgeniya Gavrilova,Amateur Open,59.15,,,,,-55,-55,-57.5,,,,,,,,,60,F,Евгения Гаврилова,1991,Yes,Raw,B
DQ,Nadezhda Gaydo,Amateur Open,60,,,,,-50,-50,-50,,,,,,,,,60,F,Надежда Гайдо,1989,Yes,Raw,B
1,Irina Shelomanova,Amateur Juniors 20-23,67.2,,,,,42.5,-45,47.5,47.5,,,,,,,47.5,67.5,F,Ирина Шеломанова,1994,Yes,Raw,B
2,Margarita Velkhieva,Amateur Juniors 20-23,65.85,,,,,-42.5,-45,45,45,,,,,,,45,67.5,F,Маргарита Вельхиева,1995,Yes,Raw,B
1,Mariya Savkina,Amateur Open,66.3,,,,,72.5,75,-77.5,75,,,,,,,75,67.5,F,Мария Савкина,1989,Yes,Raw,B
2,Nadin Anufrieva,Amateur Open,61,,,,,60,67.5,70,70,,,,,,,70,67.5,F,Надин Ануфриева,1984,Yes,Raw,B
3,Svetlana Grigoryeva,Amateur Open,65.85,,,,,60,65,67.5,67.5,,,,,,,67.5,67.5,F,Светлана Григорьева,1982,Yes,Raw,B
DQ,Dzhamilya Mirzaeva,Amateur Juniors 20-23,68.8,,,,,-57.5,-57.5,-57.5,,,,,,,,,75,F,Джамиля Мирзаева,1993,Yes,Raw,B
1,Irina Dorofeeva,Amateur Masters 50-54,75,,,,,57.5,60,-65,60,,,,,,,60,75,F,Ирина Дорофеева,1963,Yes,Raw,B
1,Irina Ogir,Amateur Open,78.6,,,,,80,85,-90,85,,,,,,,85,82.5,F,Ирина Огирь,1985,Yes,Raw,B
1,Tatyana Sivkovich,Amateur Masters 45-49,104.65,,,,,82.5,85,-87.5,85,,,,,,,85,90+,F,Татьяна Сивкович,1965,Yes,Raw,B
1,Aleksandr Mogilin,Amateur Teen 13-15,55.5,,,,,-70,-70,70,70,,,,,,,70,56,M,Александр Могилин,1999,Yes,Raw,B
2,Dmitriy Akimenko,Amateur Teen 13-15,55.25,,,,,-42.5,42.5,47.5,47.5,,,,,,,47.5,56,M,Дмитрий Акименко,2001,Yes,Raw,B
1,Egor Pashkov,Amateur Teen 16-17,54.7,,,,,70,75,-77.5,75,,,,,,,75,56,M,Егор Пашков,1998,Yes,Raw,B
1,Maksim Mitrofanovskiy,Amateur Open,55.35,,,,,90,-102.5,-102.5,90,,,,,,,90,56,M,Максим Митрофановский,1981,Yes,Raw,B
DQ,Vasiliy Pozdnyakov,Amateur Open,53.95,,,,,-75,-75,-75,,,,,,,,,56,M,Василий Поздняков,1989,Yes,Raw,B
1,Egor Gurkin,Amateur Open,56.45,,,,,85,90,92.5,92.5,,,,,,,92.5,60,M,Егор Гуркин,1988,Yes,Raw,B
1,Vlad Baranov,Amateur Teen 13-15,65.3,,,,,90,-92.5,92.5,92.5,,,,,,,92.5,67.5,M,Влад Баранов,2000,Yes,Raw,B
1,Suleyman Suleymanov,Amateur Teen 18-19,66.05,,,,,125,130,-132.5,130,,,,,,,130,67.5,M,Сулейман Сулейманов,1996,Yes,Raw,B
2,Aleksandr Bubnov,Amateur Teen 18-19,66,,,,,100,105,-107.5,105,,,,,,,105,67.5,M,Александр Бубнов,1996,Yes,Raw,B
DQ,Aleksey Kholin,Amateur Teen 18-19,64.8,,,,,-100,-107.5,-107.5,,,,,,,,,67.5,M,Алексей Холин,1996,Yes,Raw,B
1,Aleksey Gritsan,Amateur Juniors 20-23,65.4,,,,,115,120,-125,120,,,,,,,120,67.5,M,Алексей Грицан,1992,Yes,Raw,B
2,Nikita Vorontsov,Amateur Juniors 20-23,66.2,,,,,-107.5,107.5,112.5,112.5,,,,,,,112.5,67.5,M,Никита Воронцов,1993,Yes,Raw,B
3,Dmitriy Gashenyuk,Amateur Juniors 20-23,63.1,,,,,107.5,,,107.5,,,,,,,107.5,67.5,M,Дмитрий Гашенюк,1993,Yes,Raw,B
1,Aleksandr Gapuzin,Amateur Open,66.2,,,,,127.5,137.5,140,140,,,,,,,140,67.5,M,Александр Гапузин,1988,Yes,Raw,B
2,Dmitriy Mitin,Amateur Open,65.45,,,,,132.5,-135,-135,132.5,,,,,,,132.5,67.5,M,Дмитрий Митин,1984,Yes,Raw,B
3,Roman Trukhin,Amateur Open,66.3,,,,,-125,-125,125,125,,,,,,,125,67.5,M,Роман Трухин,1985,Yes,Raw,B
4,Andrey Poklonskiy,Amateur Open,63.7,,,,,107.5,115,-125,115,,,,,,,115,67.5,M,Андрей Поклонский,1988,Yes,Raw,B
5,Aleksandr Kristal,Amateur Open,65.05,,,,,110,115,-117.5,115,,,,,,,115,67.5,M,Александр Кристаль,1991,Yes,Raw,B
6,Denis Tishkov,Amateur Open,65.7,,,,,115,-125,-125,115,,,,,,,115,67.5,M,Денис Тишков,1988,Yes,Raw,B
7,Ivan Gurkin,Amateur Open,64.15,,,,,100,107.5,112.5,112.5,,,,,,,112.5,67.5,M,Иван Гуркин,1988,Yes,Raw,B
8,Sergey Sementsov,Amateur Open,65.2,,,,,85,97.5,-107.5,97.5,,,,,,,97.5,67.5,M,Сергей Семенцов,1989,Yes,Raw,B
DQ,Igor Namestnikov,Amateur Open,64.85,,,,,-107.5,-107.5,-107.5,,,,,,,,,67.5,M,Игорь Наместников,1987,Yes,Raw,B
DQ,Dmitriy Shesterov,Amateur Open,67.5,,,,,-120,-120,-120,,,,,,,,,67.5,M,Дмитрий Шестеров,1987,Yes,Raw,B
1,German Khodov,Amateur Masters 80+,62.9,,,,,70,75,-80,75,,,,,,,75,67.5,M,Герман Ходов,1932,Yes,Raw,B
1,Viktor Fedotov,Amateur Teen 13-15,75,,,,,60,65,70,70,,,,,,,70,75,M,Виктор Федотов,2002,Yes,Raw,B
2,Dmitriy Fursov,Amateur Teen 13-15,73,,,,,55,60,-65,60,,,,,,,60,75,M,Дмитрий Фурсов,2002,Yes,Raw,B
1,Denis Somov,Amateur Teen 16-17,73.95,,,,,-95,-100,100,100,,,,,,,100,75,M,Денис Сомов,1998,Yes,Raw,B
2,Dmitriy Dobryanskiy,Amateur Teen 16-17,71.25,,,,,82.5,87.5,92.5,92.5,,,,,,,92.5,75,M,Дмитрий Добрянский,1999,Yes,Raw,B
3,Vladimir Rysev,Amateur Teen 16-17,69.2,,,,,80,85,87.5,87.5,,,,,,,87.5,75,M,Владимир Рысев,1998,Yes,Raw,B
1,Mikhail Lobzov,Amateur Teen 18-19,73.8,,,,,107.5,117.5,122.5,122.5,,,,,,,122.5,75,M,Михаил Лобзов,1996,Yes,Raw,B
2,Nikolay Bagdasarov,Amateur Teen 18-19,72.5,,,,,120,-130,-135,120,,,,,,,120,75,M,Николай Багдасаров,1995,Yes,Raw,B
3,Denis Dmitriev,Amateur Teen 18-19,70.8,,,,,110,-117.5,117.5,117.5,,,,,,,117.5,75,M,Денис Дмитриев,1996,Yes,Raw,B
4,Azimzhon Azimov,Amateur Teen 18-19,73.8,,,,,110,117.5,-122.5,117.5,,,,,,,117.5,75,M,Азимжон Азимов,1995,Yes,Raw,B
5,Aleksey Gerasimov,Amateur Teen 18-19,72.55,,,,,110,-117.5,-117.5,110,,,,,,,110,75,M,Алексей Герасимов,1997,Yes,Raw,B
6,Roman Apokorin,Amateur Teen 18-19,71.55,,,,,-75,95,105,105,,,,,,,105,75,M,Роман Апокорин,1995,Yes,Raw,B
1,Stanislav Kalyendo,Amateur Juniors 20-23,72.7,,,,,125,-135,-135,125,,,,,,,125,75,M,Станислав Кальендо,1994,Yes,Raw,B
2,Dmitriy Murzintsev,Amateur Juniors 20-23,73.8,,,,,117.5,-122.5,-122.5,117.5,,,,,,,117.5,75,M,Дмитрий Мурзинцев,1993,Yes,Raw,B
3,Sergey Yanchenko,Amateur Juniors 20-23,72.45,,,,,-112.5,112.5,-117.5,112.5,,,,,,,112.5,75,M,Сергей Янченко,1993,Yes,Raw,B
4,Vladislav Shurygin,Amateur Juniors 20-23,71.3,,,,,-110,110,-117.5,110,,,,,,,110,75,M,Владислав Шурыгин,1993,Yes,Raw,B
5,David Barsegyan,Amateur Juniors 20-23,72.25,,,,,95,105,-110,105,,,,,,,105,75,M,Давид Барсегян,1992,Yes,Raw,B
1,Vladislav Atlashkin,Amateur Open,74.85,,,,,140,142.5,145,145,,,,,,,145,75,M,Владислав Атлашкин,1985,Yes,Raw,B
2,Pavel Galkin,Amateur Open,72.25,,,,,135,137.5,-142.5,137.5,,,,,,,137.5,75,M,Павел Галкин,1987,Yes,Raw,B
3,Aleksey Shostak,Amateur Open,73.25,,,,,137.5,-142.5,-142.5,137.5,,,,,,,137.5,75,M,Алексей Шостак,1989,Yes,Raw,B
4,Nikolay Shatrov,Amateur Open,70.3,,,,,135,-137.5,-140,135,,,,,,,135,75,M,Николай Шатров,1990,Yes,Raw,B
5,Vitaliy Zharinov,Amateur Open,71.5,,,,,135,-140,-140,135,,,,,,,135,75,M,Виталий Жаринов,1986,Yes,Raw,B
6,Denis Rusu,Amateur Open,71.65,,,,,135,-137.5,-137.5,135,,,,,,,135,75,M,Денис Русу,1984,Yes,Raw,B
7,Vladimir Solozobov,Amateur Open,73.95,,,,,135,-142.5,-142.5,135,,,,,,,135,75,M,Владимир Солозобов,1989,Yes,Raw,B
8,Valeriy Ruban,Amateur Open,74.7,,,,,130,135,-140,135,,,,,,,135,75,M,Валерий Рубан,1990,Yes,Raw,B
9,Dmitriy Kasyanov,Amateur Open,71.3,,,,,110,117.5,120,120,,,,,,,120,75,M,Дмитрий Касьянов,1986,Yes,Raw,B
10,Aleksandr Belyaev,Amateur Open,72.15,,,,,110,-117.5,120,120,,,,,,,120,75,M,Александр Беляев,1989,Yes,Raw,B
11,Baatar Baskhamdzhiev,Amateur Open,72.8,,,,,105,117.5,120,120,,,,,,,120,75,M,Баатар Басхамджиев,1987,Yes,Raw,B
12,Aleksey Zavertkin,Amateur Open,75,,,,,120,-135,-135,120,,,,,,,120,75,M,Алексей Заверткин,1983,Yes,Raw,B
13,Anton Kalinin,Amateur Open,72,,,,,-105,-110,117.5,117.5,,,,,,,117.5,75,M,Антон Калинин,1988,Yes,Raw,B
14,Dmitriy Ustinin,Amateur Open,73.55,,,,,110,117.5,-122.5,117.5,,,,,,,117.5,75,M,Дмитрий Устинин,1983,Yes,Raw,B
15,Evgeniy Batyaev,Amateur Open,72.75,,,,,107.5,112.5,-117.5,112.5,,,,,,,112.5,75,M,Евгений Батяев,1986,Yes,Raw,B
16,Dmitriy Rydanov,Amateur Open,72.4,,,,,110,-112.5,-112.5,110,,,,,,,110,75,M,Дмитрий Рыданов,1991,Yes,Raw,B
17,Timofey Grishkov,Amateur Open,73.95,,,,,105,110,-117.5,110,,,,,,,110,75,M,Тимофей Гришков,1990,Yes,Raw,B
18,Vadim Grischenko,Amateur Open,70.35,,,,,95,105,-117.5,105,,,,,,,105,75,M,Вадим Грищенко,1990,Yes,Raw,B
DQ,Vitaliy Titarenko,Amateur Open,72.5,,,,,-105,-117.5,-117.5,,,,,,,,,75,M,Віталій Титаренко,1990,Yes,Raw,B
1,Aleksey Alekseev,Amateur Masters 40-44,72.75,,,,,115,117.5,-120,117.5,,,,,,,117.5,75,M,Алексей Алексеев,1972,Yes,Raw,B
1,Sergey Shityakov,Amateur Teen 13-15,81.6,,,,,82.5,-87.5,-87.5,82.5,,,,,,,82.5,82.5,M,Сергей Шитяков,2000,Yes,Raw,B
1,Evgeniy Gorshkov,Amateur Teen 16-17,79.8,,,,,92.5,97.5,105,105,,,,,,,105,82.5,M,Евгений Горшков,1999,Yes,Raw,B
DQ,Maksim Zolotov,Amateur Teen 16-17,75.6,,,,,-92.5,-95,-102.5,,,,,,,,,82.5,M,Максим Золотов,1997,Yes,Raw,B
1,Mikhail Pavlenko,Amateur Teen 18-19,82.5,,,,,132.5,145,-150,145,,,,,,,145,82.5,M,Михаил Павленко,1995,Yes,Raw,B
2,Aleksandr Tereshin,Amateur Teen 18-19,80.4,,,,,-130,130,135,135,,,,,,,135,82.5,M,Александр Терешин,1997,Yes,Raw,B
1,Roman Kholopov,Amateur Juniors 20-23,79.4,,,,,135,142.5,-145,142.5,,,,,,,142.5,82.5,M,Роман Холопов,1993,Yes,Raw,B
2,Valentin Snisar,Amateur Juniors 20-23,77.2,,,,,125,127.5,130,130,,,,,,,130,82.5,M,Валентин Снисарь,1995,Yes,Raw,B
1,Ivan Grigoryev,Amateur Open,81.35,,,,,150,155,-160,155,,,,,,,155,82.5,M,Иван Григорьев,1990,Yes,Raw,B
2,Nikita Baksheev,Amateur Open,80.65,,,,,145,152.5,-160,152.5,,,,,,,152.5,82.5,M,Никита Бакшеев,1989,Yes,Raw,B
3,Maksim Baukin,Amateur Open,81.3,,,,,-152.5,152.5,-160,152.5,,,,,,,152.5,82.5,M,Максим Баукин,1981,Yes,Raw,B
4,Aleksandr Vasilyev,Amateur Open,79.7,,,,,140,145,-152.5,145,,,,,,,145,82.5,M,Александр Васильев,1986,Yes,Raw,B
5,Aleksey Shulgin,Amateur Open,80.85,,,,,130,140,145,145,,,,,,,145,82.5,M,Алексей Шульгин,1988,Yes,Raw,B
6,Evgeniy Erokhin,Amateur Open,81.8,,,,,137.5,145,-150,145,,,,,,,145,82.5,M,Евгений Ерохин,1982,Yes,Raw,B
7,Nikita Shkurikhin,Amateur Open,79.85,,,,,140,142.5,-145,142.5,,,,,,,142.5,82.5,M,Никита Шкурихин,1987,Yes,Raw,B
8,Nikolay Mishin,Amateur Open,79.65,,,,,127.5,135,140,140,,,,,,,140,82.5,M,Николай Мишин,1982,Yes,Raw,B
9,Aleksey Vorontsov,Amateur Open,80.1,,,,,140,-142.5,,140,,,,,,,140,82.5,M,Алексей Воронцов,1977,Yes,Raw,B
10,Isam Arabiya,Amateur Open,80,,,,,127.5,-135,-135,127.5,,,,,,,127.5,82.5,M,Исам Арабия,1988,Yes,Raw,B
11,Ruslan Tsidaev,Amateur Open,81.55,,,,,127.5,-132.5,-132.5,127.5,,,,,,,127.5,82.5,M,Руслан Цидаев,1986,Yes,Raw,B
12,Sergey Stepanov,Amateur Open,81.1,,,,,115,120,122.5,122.5,,,,,,,122.5,82.5,M,Сергей Степанов,1988,Yes,Raw,B
13,Petr Kolesnikov,Amateur Open,80.1,,,,,112.5,-117.5,-117.5,112.5,,,,,,,112.5,82.5,M,Петр Колесников,1980,Yes,Raw,B
DQ,Sergey Zvonarev,Amateur Open,77,,,,,-115,-115,-115,,,,,,,,,82.5,M,Сергей Звонарев,1991,Yes,Raw,B
DQ,Roman Tsikolenko,Amateur Open,80.55,,,,,-115,-115,-115,,,,,,,,,82.5,M,Роман Циколенко,1984,Yes,Raw,B
DQ,Aleksandr Kapustin,Amateur Open,80.65,,,,,-135,-135,-135,,,,,,,,,82.5,M,Александр Капустин,1984,Yes,Raw,B
DQ,Aleksey Korolev,Amateur Open,81.2,,,,,-145,-145,-145,,,,,,,,,82.5,M,Алексей Королев,1981,Yes,Raw,B
1,Vladimir Vrinchan,Amateur Masters 60-64,78.4,,,,,100,107.5,,107.5,,,,,,,107.5,82.5,M,Владимир Вринчан,1954,Yes,Raw,B
1,Ilya Alekhin,Amateur Teen 16-17,90,,,,,120,132.5,-142.5,132.5,,,,,,,132.5,90,M,Илья Алехин,1998,Yes,Raw,B
2,Vladislav Drozdov,Amateur Teen 16-17,85.15,,,,,100,110,-112.5,110,,,,,,,110,90,M,Владислав Дроздов,1998,Yes,Raw,B
3,Nikita Antonenko,Amateur Teen 16-17,89.2,,,,,100,105,-110,105,,,,,,,105,90,M,Никита Антоненко,1998,Yes,Raw,B
1,Islam Pardaev,Amateur Juniors 20-23,88.1,,,,,132.5,135,-137.5,135,,,,,,,135,90,M,Ислам Пардаев,1992,Yes,Raw,B
DQ,Nikolay Silkin,Amateur Juniors 20-23,87.6,,,,,-140,-152.5,-152.5,,,,,,,,,90,M,Николай Силкин,1992,Yes,Raw,B
1,Dmitriy Petrov,Amateur Open,88.85,,,,,170,177.5,180,180,,,,,,,180,90,M,Дмитрий Петров,1986,Yes,Raw,B
2,Lev Drozdenko,Amateur Open,88.75,,,,,155,162.5,170,170,,,,,,,170,90,M,Лев Дрозденко,1985,Yes,Raw,B
3,Andrey Litvishko,Amateur Open,87.8,,,,,155,162.5,-167.5,162.5,,,,,,,162.5,90,M,Андрей Литвишко,1984,Yes,Raw,B
4,Aleksandr Lebedev,Amateur Open,89.1,,,,,162.5,-165,-170,162.5,,,,,,,162.5,90,M,Александр Лебедев,1986,Yes,Raw,B
5,Aleksandr Volkov,Amateur Open,87.5,,,,,152.5,157.5,-162.5,157.5,,,,,,,157.5,90,M,Александр Волков,1987,Yes,Raw,B
6,Vladimir Pervago,Amateur Open,87.1,,,,,-152.5,152.5,-155,152.5,,,,,,,152.5,90,M,Владимир Перваго,1984,Yes,Raw,B
7,Maksim Biryukov,Amateur Open,87.7,,,,,152.5,-157.5,-157.5,152.5,,,,,,,152.5,90,M,Максим Бирюков,1985,Yes,Raw,B
8,Savr Andzhaev,Amateur Open,88.15,,,,,132.5,152.5,-160,152.5,,,,,,,152.5,90,M,Савр Анджаев,1982,Yes,Raw,B
9,Pavel Vasilyev,Amateur Open,88.6,,,,,140,-152.5,152.5,152.5,,,,,,,152.5,90,M,Павел Васильев,1985,Yes,Raw,B
10,Sergey Asryan,Amateur Open,88.6,,,,,145,-152.5,152.5,152.5,,,,,,,152.5,90,M,Сергей Асрян,1986,Yes,Raw,B
11,Roman Shikhaleev,Amateur Open,87.9,,,,,150,-160,-160,150,,,,,,,150,90,M,Роман Шихалеев,1990,Yes,Raw,B
12,Kirill Oleynik,Amateur Open,88.2,,,,,130,140,150,150,,,,,,,150,90,M,Кирилл Олейник,1986,Yes,Raw,B
13,Nazar Trindyuk,Amateur Open,87.8,,,,,145,-152.5,-152.5,145,,,,,,,145,90,M,Назар Триндюк,1987,Yes,Raw,B
14,Vladimir Yaroshetskiy,Amateur Open,88.95,,,,,145,-152.5,-152.5,145,,,,,,,145,90,M,Владимир Ярошецкий,1982,Yes,Raw,B
15,Petr Maday,Amateur Open,84.45,,,,,140,-152.5,-152.5,140,,,,,,,140,90,M,Петр Мадай,1991,Yes,Raw,B
16,Maksim Lozovoy,Amateur Open,87.3,,,,,130,137.5,-142.5,137.5,,,,,,,137.5,90,M,Максим Лозовой,1977,Yes,Raw,B
17,Nikita Shirokov,Amateur Open,89.1,,,,,132.5,135,137.5,137.5,,,,,,,137.5,90,M,Никита Широков,1989,Yes,Raw,B
18,Konstantin Zlotin,Amateur Open,88.8,,,,,-135,135,-140,135,,,,,,,135,90,M,Константин Злотин,1978,Yes,Raw,B
19,Andrey Pivovar,Amateur Open,88,,,,,120,-132.5,132.5,132.5,,,,,,,132.5,90,M,Андрей Пивовар,1978,Yes,Raw,B
20,Sergey Merzlikin,Amateur Open,88.55,,,,,125,132.5,-135,132.5,,,,,,,132.5,90,M,Сергей Мерзликин,1983,Yes,Raw,B
21,Kirill Emelyanov,Amateur Open,86.3,,,,,130,-135,-135,130,,,,,,,130,90,M,Кирилл Емельянов,1986,Yes,Raw,B
22,Ruslan Dzhabarov,Amateur Open,86.1,,,,,115,,-132.5,115,,,,,,,115,90,M,Руслан Джабаров,1989,Yes,Raw,B
23,Oleg Lyazin,Amateur Open,87.4,,,,,-110,-110,110,110,,,,,,,110,90,M,Олег Лязин,1983,Yes,Raw,B
24,Vitaliy Kozlenko,Amateur Open,83,,,,,92.5,100,-107.5,100,,,,,,,100,90,M,Виталий Козленко,1986,Yes,Raw,B
DQ,Sergey Lilev,Amateur Open,84.65,,,,,-127.5,-132.5,-132.5,,,,,,,,,90,M,Сергей Лилев,1989,Yes,Raw,B
DQ,Maksim Sadykov,Amateur Open,87.75,,,,,-140,-145,-152.5,,,,,,,,,90,M,Максим Садыков,1990,Yes,Raw,B
1,Kirill Ponomarev,Amateur Masters 40-44,88.8,,,,,122.5,127.5,-132.5,127.5,,,,,,,127.5,90,M,Кирилл Пономарев,1970,Yes,Raw,B
1,Vladimir Postnov,Amateur Masters 45-49,88.8,,,,,160,170,180,180,,,,,,,180,90,M,Владимир Постнов,1970,Yes,Raw,B
2,Igor Polunin,Amateur Masters 45-49,88.3,,,,,145,-152.5,-152.5,145,,,,,,,145,90,M,Игорь Полунин,1966,Yes,Raw,B
1,Yuriy Lavrich,Amateur Teen 16-17,92.25,,,,,130,-140,140,140,,,,,,,140,100,M,Юрий Лаврич,1998,Yes,Raw,B
DQ,Egor Levit,Amateur Teen 18-19,96.4,,,,,-110,-110,,,,,,,,,,100,M,Егор Левит,1996,Yes,Raw,B
1,Pavel Koltsov,Amateur Juniors 20-23,98.1,,,,,130,-140,142.5,142.5,,,,,,,142.5,100,M,Павел Кольцов,1993,Yes,Raw,B
2,Aleksandr Makhatkov,Amateur Juniors 20-23,96.7,,,,,125,132.5,-140,132.5,,,,,,,132.5,100,M,Александр Махатков,1993,Yes,Raw,B
3,Vitaliy Titov,Amateur Juniors 20-23,98.5,,,,,-125,125,-140,125,,,,,,,125,100,M,Виталий Титов,1994,Yes,Raw,B
DQ,Anton Bakurov,Amateur Juniors 20-23,99.9,,,,,-125,-125,-130,,,,,,,,,100,M,Антон Бакуров,1993,Yes,Raw,B
1,Vitaliy Parmut,Amateur Open,99.05,,,,,170,180,187.5,187.5,,,,,,,187.5,100,M,Виталий Пармут,1987,Yes,Raw,B
2,Artur Zenkin,Amateur Open,98.65,,,,,175,180,-185,180,,,,,,,180,100,M,Артур Зенкин,1982,Yes,Raw,B
3,Aleksandr Blokhin,Amateur Open,96.9,,,,,142.5,152.5,162.5,162.5,,,,,,,162.5,100,M,Александр Блохин,1981,Yes,Raw,B
4,Aleksey Kolenko,Amateur Open,97,,,,,150,157.5,-162.5,157.5,,,,,,,157.5,100,M,Алексей Коленько,1990,Yes,Raw,B
5,Aleksandr Mokin,Amateur Open,98.25,,,,,-140,140,150,150,,,,,,,150,100,M,Александр Мокин,1978,Yes,Raw,B
6,Aleksey Borisov,Amateur Open,94.35,,,,,140,-145,145,145,,,,,,,145,100,M,Алексей Борисов,1987,Yes,Raw,B
7,Magomed Belikov,Amateur Open,96.3,,,,,140,-162.5,-162.5,140,,,,,,,140,100,M,Магомед Беликов,1990,Yes,Raw,B
8,Maksim Bugrimov,Amateur Open,97.7,,,,,125,140,-145,140,,,,,,,140,100,M,Максим Бугримов,1980,Yes,Raw,B
9,Pavel Fateev,Amateur Open,97.95,,,,,130,140,-145,140,,,,,,,140,100,M,Павел Фатеев,1990,Yes,Raw,B
10,Roman Kulakov,Amateur Open,97.95,,,,,140,-145,-145,140,,,,,,,140,100,M,Роман Кулаков,1990,Yes,Raw,B
DQ,Kirill Onopko,Amateur Open,94.8,,,,,125,130,-140,130,,,,,,,,100,M,Кирилл Онопко,1990,Yes,Raw,B
11,Mikhail Melkov,Amateur Open,94.4,,,,,125,130,-140,130,,,,,,,130,100,M,Михаил Мелков,1983,Yes,Raw,B
DQ,Viktor Puzanov,Amateur Open,95.95,,,,,-135,-140,-140,,,,,,,,,100,M,Виктор Пузанов,1985,Yes,Raw,B
DQ,Evgeniy Filatov,Amateur Open,96.7,,,,,-140,-150,-150,,,,,,,,,100,M,Евгений Филатов,1978,Yes,Raw,B
DQ,Sargis Egiazaryan,Amateur Open,97.95,,,,,-140,-150,-162.5,,,,,,,,,100,M,Саргис Егиазарян,1985,Yes,Raw,B
DQ,Anton Tarasov,Amateur Open,98.6,,,,,-162.5,-162.5,-162.5,,,,,,,,,100,M,Антон Тарасов,1986,Yes,Raw,B
1,Aleksey Lileev,Amateur Masters 40-44,99,,,,,145,152.5,160,160,,,,,,,160,100,M,Алексей Лилеев,1972,Yes,Raw,B
2,Andrey Korneychuk,Amateur Masters 40-44,94.7,,,,,140,150,157.5,157.5,,,,,,,157.5,100,M,Андрей Корнейчук,1971,Yes,Raw,B
3,Dmitriy Galakhov,Amateur Masters 40-44,95,,,,,105,112.5,117.5,117.5,,,,,,,117.5,100,M,Дмитрий Галахов,1972,Yes,Raw,B
1,Sergey Verzhanovskiy,Amateur Masters 45-49,97.9,,,,,-175,175,-180,175,,,,,,,175,100,M,Сергей Вержановский,1967,Yes,Raw,B
2,Igors Grinberg,Amateur Masters 45-49,93.4,,,,,120,140,155,155,,,,,,,155,100,M,Игорс Гринберг,1969,Yes,Raw,B
1,Natig Aliev,Amateur Masters 50-54,97.6,,,,,170,177.5,182.5,182.5,,,,,,,182.5,100,M,,1964,Yes,Raw,B
1,Sergey Kundus,Amateur Masters 60-64,94.7,,,,,120,125,,125,,,,,,,125,100,M,Сергей Кундус,1953,Yes,Raw,B
1,Dmitriy Obletov,Amateur Juniors 20-23,108,,,,,-147.5,-147.5,147.5,147.5,,,,,,,147.5,110,M,Дмитрий Облетов,1994,Yes,Raw,B
2,Rostislav Bakharev,Amateur Juniors 20-23,106.7,,,,,132.5,135,-140,135,,,,,,,135,110,M,Ростислав Бахарев,1993,Yes,Raw,B
1,Viorel Bulgak,Amateur Open,108.4,,,,,195,205,-210,205,,,,,,,205,110,M,Виорел Булгак,1985,Yes,Raw,B
2,Oleg Sychev,Amateur Open,101.8,,,,,145,155,167.5,167.5,,,,,,,167.5,110,M,Олег Сычев,1979,Yes,Raw,B
3,Roman Yurasov,Amateur Open,105.3,,,,,150,160,167.5,167.5,,,,,,,167.5,110,M,Роман Юрасов,1976,Yes,Raw,B
4,Viktor Zheltushko,Amateur Open,107.8,,,,,-167.5,167.5,-170,167.5,,,,,,,167.5,110,M,Виктор Желтушко,1978,Yes,Raw,B
5,Aleksey Gerasimov,Amateur Open,107.9,,,,,147.5,155,-167.5,155,,,,,,,155,110,M,Алексей Герасимов,1980,Yes,Raw,B
6,Denis Demkin,Amateur Open,107.15,,,,,125,132.5,-137.5,132.5,,,,,,,132.5,110,M,Денис Демкин,1979,Yes,Raw,B
1,Aleksey Kutyrin,Amateur Masters 40-44,108.3,,,,,160,-167.5,167.5,167.5,,,,,,,167.5,110,M,Алексей Кутырин,1972,Yes,Raw,B
2,Denis Favorskiy,Amateur Masters 40-44,107.6,,,,,140,150,-155,150,,,,,,,150,110,M,Денис Фаворский,1971,Yes,Raw,B
1,Evgeniy Prosolov,Amateur Masters 45-49,107.9,,,,,170,-175,,170,,,,,,,170,110,M,Евгений Просолов,1968,Yes,Raw,B
2,Dmitriy Kireev,Amateur Masters 45-49,105,,,,,140,-150,-152.5,140,,,,,,,140,110,M,Дмитрий Киреев,1969,Yes,Raw,B
3,Dmitriy Kalinovskiy,Amateur Masters 45-49,107.2,,,,,135,-137.5,-137.5,135,,,,,,,135,110,M,Дмитрий Калиновский,1967,Yes,Raw,B
1,Marsel Talipov,Amateur Juniors 20-23,117.5,,,,,190,200,210,210,,,,,,,210,125,M,Марсель Талипов,1991,Yes,Raw,B
1,Mikhail Nikitenko,Amateur Open,117.25,,,,,180,200,212.5,212.5,,,,,,,212.5,125,M,Михаил Никитенко,1987,Yes,Raw,B
2,Igor Golovanov,Amateur Open,118.55,,,,,180,190,195,195,,,,,,,195,125,M,Игорь Голованов,1983,Yes,Raw,B
3,Denis Ogloblin,Amateur Open,120.7,,,,,195,-200,-200,195,,,,,,,195,125,M,Денис Оглоблин,1967,Yes,Raw,B
4,Aleksandr Yanichev,Amateur Open,122.85,,,,,-155,155,160,160,,,,,,,160,125,M,Александр Яничев,1977,Yes,Raw,B
5,Sergey Gurov,Amateur Open,114.05,,,,,-120,120,155,155,,,,,,,155,125,M,Сергей Гуров,1976,Yes,Raw,B
DQ,Artem Popov,Amateur Open,124.1,,,,,-145,-152.5,-152.5,,,,,,,,,125,M,Артем Попов,1988,Yes,Raw,B
1,Vladimir Kotov,Amateur Masters 40-44,117.35,,,,,160,170,175,175,,,,,,,175,125,M,Владимир Котов,1973,Yes,Raw,B
2,Denis Plenkin,Amateur Masters 40-44,114.15,,,,,150,-160,-160,150,,,,,,,150,125,M,Денис Пленкин,1974,Yes,Raw,B
1,Denis Ogloblin,Amateur Masters 45-49,120.7,,,,,195,-200,-200,195,,,,,,,195,125,M,Денис Оглоблин,1967,Yes,Raw,B
1,Daniil Kaymak,Amateur Teen 18-19,140,,,,,170,175,182.5,182.5,-183,,,,,,182.5,140,M,Даниил Каймак,1995,Yes,Raw,B
1,Mikhail Mazurkevich,Amateur Open,129.05,,,,,152.5,157.5,-162.5,157.5,,,,,,,157.5,140,M,Михаил Мазуркевич,1982,Yes,Raw,B
1,Aleksandr Shalgachev,Amateur Masters 40-44,127.6,,,,,150,160,-165,160,,,,,,,160,140,M,Александр Шалгачев,1971,Yes,Raw,B
1,Sergey Kozlovskiy,Amateur Masters 50-54,133.05,,,,,185,-190,,185,,,,,,,185,140,M,Сергей Козловский,1963,Yes,Raw,B
DQ,Ruslan Muruzhev,Amateur Open,143.8,,,,,-170,-170,-170,,,,,,,,,140+,M,Руслан Муружев,1979,Yes,Raw,B
1,Konstantin Sapunkov,Amateur Open,82,,,,,180,200,,200,,,,,,,200,82.5,M,Константин Сапунков,1981,Yes,Multi-ply,B
1,Maksim Kirilin,Amateur Open,107.65,,,,,-175,175,-180,175,,,,,,,175,110,M,Максим Кирилин,1983,Yes,Multi-ply,B
1,Elena Pugach,Amateur Open,47.2,,,,,50,-55,55,55,,,,,,,55,48,F,Елена Пугач,1975,Yes,Single-ply,B
1,Alena Sotnikova,Amateur Open,60,,,,,95,-102.5,102.5,102.5,-107.5,,,,,,102.5,60,F,Алена Сотникова,1989,Yes,Single-ply,B
1,Irina Smolentseva,Amateur Open,65.7,,,,,60,-65,65,65,,,,,,,65,67.5,F,Ирина Смоленцева,1988,Yes,Single-ply,B
1,Aleksey Schipanov,Amateur Open,72.4,,,,,140,-150,-150,140,,,,,,,140,75,M,Алексей Щипанов,1980,Yes,Single-ply,B
2,Yuriy Kolesnikov,Amateur Open,74.75,,,,,120,130,-135,130,,,,,,,130,75,M,Юрий Колесников,1981,Yes,Single-ply,B
1,Denis Piklyaev,Amateur Open,89.15,,,,,230,-240.5,-240.5,230,,,,,,,230,90,M,Денис Пикляев,1981,Yes,Single-ply,B
DQ,Denis Dobryanskiy,Amateur Open,86.55,,,,,-200,-200,-200,,,,,,,,,90,M,Денис Добрянский,1977,Yes,Single-ply,B
1,Gennadiy Obmelyukhin,Amateur Masters 65-69,87.8,,,,,112.5,117.5,122.5,122.5,,,,,,,122.5,90,M,Геннадий Обмелюхин,1948,Yes,Single-ply,B
1,Aleksandr Dorofeev,Amateur Open,99.35,,,,,195,205,210,210,,,,,,,210,100,M,Александр Дорофеев,1981,Yes,Single-ply,B
2,Denis Karpov,Amateur Open,98.3,,,,,187.5,-195,-195,187.5,,,,,,,187.5,100,M,Денис Карпов,1981,Yes,Single-ply,B
DQ,Ivan Rak,Amateur Masters 40-44,106.45,,,,,-197.5,-200,-200,,,,,,,,,110,M,Иван Рак,1974,Yes,Single-ply,B
1,Vasiliy Filatov,Amateur Open,128.8,,,,,272.5,282.5,-292.5,282.5,,,,,,,282.5,140,M,Василий Филатов,1986,Yes,Single-ply,B
1,Elizaveta Spiridonova,Amateur Open,47.65,,,,,,,,,,75,82.5,85,85,,85,48,F,Елизавета Спиридонова,1987,Yes,Raw,D
2,Darya Timkina,Amateur Open,47.35,,,,,,,,,,70,75,82.5,82.5,,82.5,48,F,Дарья Тимкина,1989,Yes,Raw,D
3,Elena Pugach,Amateur Open,47.2,,,,,,,,,,67.5,72.5,75,75,,75,48,F,Елена Пугач,1975,Yes,Raw,D
1,Leyla Abasova,Amateur Juniors 20-23,49.65,,,,,,,,,,105,-115,-115,105,,105,52,F,Лейла Абасова,1995,Yes,Raw,D
1,Ekaterina Gaydina,Amateur Open,51.35,,,,,,,,,,100,-110,115,115,,115,52,F,Екатерина Гайдина,1986,Yes,Raw,D
2,Anna Ivanova #6,Amateur Open,51.75,,,,,,,,,,95,105,115,115,,115,52,F,Анна Иванов,1984,Yes,Raw,D
3,Ekaterina Vladimirova,Amateur Open,51.45,,,,,,,,,,100,105,110,110,,110,52,F,Екатерина Владимирова,1985,Yes,Raw,D
4,Irina Golovunina,Amateur Open,49.8,,,,,,,,,,100,-105,,100,,100,52,F,Ирина Головунина,1981,Yes,Raw,D
DQ,Viktoriya Reshetnikova,Amateur Open,50.9,,,,,,,,,,-100,-100,-100,,,,52,F,Виктория Решетникова,1990,Yes,Raw,D
1,Olga Kostyrya,Amateur Teen 16-17,55,,,,,,,,,,95,-100,-105,95,,95,56,F,Ольга Костыря,1998,Yes,Raw,D
1,Aleksandra Chizh,Amateur Juniors 20-23,54.1,,,,,,,,,,127.5,132.5,-140,132.5,,132.5,56,F,Александра Чиж,1992,Yes,Raw,D
1,Aleksandra Chizh,Amateur Open,54.1,,,,,,,,,,127.5,132.5,-140,132.5,,132.5,56,F,Александра Чиж,1992,Yes,Raw,D
2,Anna Ratnikova,Amateur Open,54.6,,,,,,,,,,112.5,117.5,-122.5,117.5,,117.5,56,F,Анна Ратникова,1982,Yes,Raw,D
3,Svetlana Cherkasova,Amateur Open,55.05,,,,,,,,,,85,95,105,105,,105,56,F,Светлана Черкасова,1989,Yes,Raw,D
4,Anna Shutova,Amateur Open,53.1,,,,,,,,,,75,-80,-80,75,,75,56,F,Анна Шутова,1989,Yes,Raw,D
DQ,Kira Sedova,Amateur Open,55.4,,,,,,,,,,-100,-100,,,,,56,F,Кира Седова,1987,Yes,Raw,D
1,Viktoriya Dorofeeva,Amateur Teen 16-17,59.35,,,,,,,,,,-92.5,92.5,-95,92.5,,92.5,60,F,Виктория Дорофеева,1998,Yes,Raw,D
1,Galina Bocharova,Amateur Juniors 20-23,58,,,,,,,,,,120,127.5,132.5,132.5,,132.5,60,F,Галина Бочарова,1992,Yes,Raw,D
1,Elena Demina,Amateur Open,59.1,,,,,,,,,,110,115,117.5,117.5,,117.5,60,F,Елена Демина,1979,Yes,Raw,D
2,Svetlana Dragunova,Amateur Open,58.9,,,,,,,,,,100,110,115,115,,115,60,F,Светлана Драгунова,1991,Yes,Raw,D
3,Anna Kotlyarova,Amateur Open,59.95,,,,,,,,,,90,100,110,110,,110,60,F,Анна Котлярова,1990,Yes,Raw,D
1,Alina Istomina,Amateur Teen 18-19,66.45,,,,,,,,,,90,100,105,105,,105,67.5,F,Алина Истомина,1997,Yes,Raw,D
1,Nadezhda Talikova,Amateur Open,65.85,,,,,,,,,,145,155,160,160,,160,67.5,F,Надежда Таликова,1960,Yes,Raw,D
2,Oksana Fomenko,Amateur Open,66.6,,,,,,,,,,135,145,150,150,,150,67.5,F,Оксана Фоменко,1988,Yes,Raw,D
3,Mariya Savkina,Amateur Open,66.3,,,,,,,,,,135,137.5,140,140,,140,67.5,F,Мария Савкина,1989,Yes,Raw,D
4,Ekaterina Golomazova,Amateur Open,63.1,,,,,,,,,,-127.5,127.5,135,135,,135,67.5,F,Екатерина Голомазова,1977,Yes,Raw,D
5,Kristina Isaeva,Amateur Open,67.25,,,,,,,,,,-120,130,135,135,,135,67.5,F,Кристина Исаева,1988,Yes,Raw,D
6,Svetlana Grigoryeva,Amateur Open,65.85,,,,,,,,,,110,120,-125,120,,120,67.5,F,Светлана Григорьева,1982,Yes,Raw,D
1,Nadezhda Talikova,Amateur Masters 55-59,65.85,,,,,,,,,,145,155,160,160,,160,67.5,F,Надежда Таликова,1960,Yes,Raw,D
1,Anastasiya Pykhova,Amateur Open,69.55,,,,,,,,,,155,165,170,170,,170,75,F,Анастасия Пыхова,1989,Yes,Raw,D
2,Elena Terekhova,Amateur Open,71.65,,,,,,,,,,130,142.5,147.5,147.5,,147.5,75,F,Елена Терехова,1987,Yes,Raw,D
3,Irina Gorvat,Amateur Open,70.85,,,,,,,,,,85,92.5,95,95,,95,75,F,Ирина Горват,1975,Yes,Raw,D
DQ,Elena Davydova,Amateur Open,73.2,,,,,,,,,,-130,-130,,,,,75,F,Елена Давыдова,1973,Yes,Raw,D
1,Ulyana Stebeleva,Amateur Open,101.05,,,,,,,,,,125,135,-140,135,,135,90+,F,Ульяна Стебелева,1986,Yes,Raw,D
1,Anton Tolubaev,Amateur Juniors 20-23,67.25,,,,,,,,,,170,185,-200,185,,185,67.5,M,Антон Толубаев,1991,Yes,Raw,D
1,Dmitriy Arkadyev,Amateur Open,67.05,,,,,,,,,,230,240,-247.5,240,,240,67.5,M,Дмитрий Аркадьев,1983,Yes,Raw,D
2,Maksim Popov #1,Amateur Open,65.2,,,,,,,,,,180,190,202.5,202.5,,202.5,67.5,M,Максим Попов,1984,Yes,Raw,D
3,Ivan Kyurkchu,Amateur Open,61.4,,,,,,,,,,180,190,-200,190,,190,67.5,M,Иван Кюркчу,1989,Yes,Raw,D
4,Igor Oreshin,Amateur Open,66.2,,,,,,,,,,-180,180,-190,180,,180,67.5,M,Игорь Орешин,1991,Yes,Raw,D
1,Yuriy Zubov,Amateur Masters 75-79,64.2,,,,,,,,,,140,145,,145,,145,67.5,M,Юрий Зубов,1939,Yes,Raw,D
1,Viktor Fedotov,Amateur Teen 13-15,74.7,,,,,,,,,,100,110,115,115,,115,75,M,Виктор Федотов,2002,Yes,Raw,D
1,Ruslan Shafiullin,Amateur Teen 16-17,73.7,,,,,,,,,,-160,170,-177.5,170,,170,75,M,Руслан Шафиуллин,1998,Yes,Raw,D
1,Vyacheslav Kapitonov,Amateur Teen 18-19,70.85,,,,,,,,,,140,155,165,165,,165,75,M,Вячеслав Капитонов,1996,Yes,Raw,D
2,Vasiliy Gaschak,Amateur Teen 18-19,74.75,,,,,,,,,,130,140,145,145,,145,75,M,Василий Гащак,1996,Yes,Raw,D
1,Andrey Kozhedub,Amateur Juniors 20-23,74.9,,,,,,,,,,180,190,205,205,,205,75,M,Андрей Кожедуб,1993,Yes,Raw,D
2,David Barsegyan,Amateur Juniors 20-23,72.25,,,,,,,,,,162.5,177.5,190,190,,190,75,M,Давид Барсегян,1992,Yes,Raw,D
1,Mikhail Morozov,Amateur Open,69.9,,,,,,,,,,180,202.5,-207.5,202.5,,202.5,75,M,Михаил Морозов,1981,Yes,Raw,D
2,Sergey Goldin,Amateur Open,72.15,,,,,,,,,,-190,190,-202.5,190,,190,75,M,Сергей Голдин,1988,Yes,Raw,D
3,Beslan Bakhaev,Amateur Open,68.5,,,,,,,,,,-160,160,177.5,177.5,,177.5,75,M,Беслан Бахаев,1988,Yes,Raw,D
4,Igor Mitrofanov,Amateur Open,74.7,,,,,,,,,,155,177.5,-182.5,177.5,,177.5,75,M,Игорь Митрофанов,1978,Yes,Raw,D
5,Mikhail Kostikov,Amateur Open,74.05,,,,,,,,,,160,-170,-177.5,160,,160,75,M,Михаил Костиков,1975,Yes,Raw,D
1,Aleksey Shalunov,Amateur Masters 45-49,73.4,,,,,,,,,,162.5,167.5,172.5,172.5,,172.5,75,M,Алексей Шалунов,1969,Yes,Raw,D
1,Kirill Dudchenko,Amateur Teen 16-17,79.05,,,,,,,,,,120,140,150,150,,150,82.5,M,Кирилл Дудченко,1997,Yes,Raw,D
1,Gevorg Papoyan,Amateur Juniors 20-23,81.05,,,,,,,,,,185,-192.5,195,195,,195,82.5,M,Геворг Папоян,1994,Yes,Raw,D
2,Stanislav Kartavyy,Amateur Juniors 20-23,81.5,,,,,,,,,,-170,-177.5,177.5,177.5,,177.5,82.5,M,Станислав Картавый,1992,Yes,Raw,D
1,Vasiliy Perov,Amateur Open,82.3,,,,,,,,,,250,260,265,265,,265,82.5,M,Василий Перов,1979,Yes,Raw,D
2,Sergey Evseev,Amateur Open,82.3,,,,,,,,,,230,250,260,260,,260,82.5,M,Сергей Евсеев,1990,Yes,Raw,D
3,Aleksandr Khobotov,Amateur Open,81.15,,,,,,,,,,230,245,-252.5,245,,245,82.5,M,Александр Хоботов,1988,Yes,Raw,D
4,Aleksandr Fomin,Amateur Open,80.95,,,,,,,,,,-205,215,222.5,222.5,,222.5,82.5,M,Александр Фомин,1987,Yes,Raw,D
5,Vyacheslav Danilchuk,Amateur Open,81.6,,,,,,,,,,185,205,215,215,,215,82.5,M,Вячеслав Данильчук,1989,Yes,Raw,D
6,Vasiliy Dukhov,Amateur Open,78.5,,,,,,,,,,190,210,-220,210,,210,82.5,M,Василий Духов,1988,Yes,Raw,D
7,Vitaliy Fedorov,Amateur Open,80.45,,,,,,,,,,-200,200,205,205,,205,82.5,M,Виталий Федоров,1987,Yes,Raw,D
8,Nikita Akimov,Amateur Open,80.5,,,,,,,,,,170,185,200,200,,200,82.5,M,Никита Акимов,1988,Yes,Raw,D
9,Artem Nemchinov,Amateur Open,82.5,,,,,,,,,,190,195,200,200,,200,82.5,M,Артем Немчинов,1989,Yes,Raw,D
10,Sergey Tereschenko,Amateur Open,82.35,,,,,,,,,,187.5,195,-200,195,,195,82.5,M,Сергей Терещенко,1988,Yes,Raw,D
11,Pavel Barkovskiy,Amateur Open,77.4,,,,,,,,,,185,-192.5,192.5,192.5,,192.5,82.5,M,Павел Барковский,1988,Yes,Raw,D
12,Dmitriy Volkov,Amateur Open,80.4,,,,,,,,,,175,185,-187.5,185,,185,82.5,M,Дмитрий Волков,1989,Yes,Raw,D
13,Roman Khrulev,Amateur Open,77.6,,,,,,,,,,100,110,130,130,,130,82.5,M,Роман Хрулев,1987,Yes,Raw,D
1,Daniil Kononov,Amateur Teen 16-17,90,,,,,,,,,,-180,180,205,205,,205,90,M,Даниил Кононов,1997,Yes,Raw,D
2,Daniil Buslaev,Amateur Teen 16-17,90,,,,,,,,,,-195,195,200,200,-207.5,200,90,M,Даниил Буслаев,1999,Yes,Raw,D
1,Stanislav Motorykin,Amateur Juniors 20-23,84.4,,,,,,,,,,205,222.5,-230,222.5,,222.5,90,M,Станислав Моторыкин,1992,Yes,Raw,D
2,Danila Krapivenko,Amateur Juniors 20-23,88.7,,,,,,,,,,195,210,222.5,222.5,,222.5,90,M,Данила Крапивенко,1993,Yes,Raw,D
3,Dmitriy Lomakin,Amateur Juniors 20-23,90,,,,,,,,,,195,202.5,-210,202.5,,202.5,90,M,Дмитрий Ломакин,1993,Yes,Raw,D
4,Sergey Gavrish,Amateur Juniors 20-23,88,,,,,,,,,,185,195,-205,195,,195,90,M,Сергей Гавриш,1993,Yes,Raw,D
5,Kirill Matveev,Amateur Juniors 20-23,89.2,,,,,,,,,,190,-200,-205,190,,190,90,M,Кирилл Матвеев,1991,Yes,Raw,D
6,Pavel Kanischev,Amateur Juniors 20-23,84,,,,,,,,,,170,180,-195,180,,180,90,M,Павел Канищев,1992,Yes,Raw,D
1,Kirill Lomanov,Amateur Open,89.2,,,,,,,,,,282.5,297.5,-302.5,297.5,,297.5,90,M,Кирилл Ломанов,1987,Yes,Raw,D
2,Sergey Bronzov,Amateur Open,89,,,,,,,,,,250,260,-265,260,,260,90,M,Сергей Бронзов,1996,Yes,Raw,D
3,Yuriy Shirobokov,Amateur Open,88.4,,,,,,,,,,245,-255,255,255,,255,90,M,Юрий Широбоков,1988,Yes,Raw,D
4,Damir Yambaev,Amateur Open,87,,,,,,,,,,210,225,-230,225,,225,90,M,Дамир Ямбаев,1986,Yes,Raw,D
5,Robert Akhmetshin,Amateur Open,85.15,,,,,,,,,,200,222.5,-235,222.5,,222.5,90,M,Роберт Ахметшин,1977,Yes,Raw,D
6,Aleksandr Krizhanovskiy,Amateur Open,88.6,,,,,,,,,,215,222.5,-227.5,222.5,,222.5,90,M,Александр Крижановский,1983,Yes,Raw,D
7,Evgeniy Pavlov,Amateur Open,87.35,,,,,,,,,,-195,195,205,205,,205,90,M,Євгеній Павлов,1981,Yes,Raw,D
8,Petr Dorosh,Amateur Open,87.4,,,,,,,,,,195,200,205,205,,205,90,M,Петр Дорош,1986,Yes,Raw,D
9,Petr Samko,Amateur Open,90,,,,,,,,,,200,-222.5,,200,,200,90,M,Петр Самко,1987,Yes,Raw,D
10,Pavel Silin,Amateur Open,88.85,,,,,,,,,,180,190,-205,190,,190,90,M,Павел Силин,1986,Yes,Raw,D
1,Vladimir Dergachev,Amateur Masters 40-44,89.3,,,,,,,,,,-182.5,182.5,-195,182.5,,182.5,90,M,Владимир Дергачев,1972,Yes,Raw,D
1,Aleksandr Dudchenko,Amateur Masters 65-69,83.95,,,,,,,,,,-130,140,-150,140,,140,90,M,Александр Дудченко,1946,Yes,Raw,D
1,Dmitriy Moskalenko,Amateur Teen 18-19,97.8,,,,,,,,,,-205,205,215,215,,215,100,M,Дмитрий Москаленко,1996,Yes,Raw,D
1,Pavel Koltsov,Amateur Juniors 20-23,98.1,,,,,,,,,,230,240,250,250,,250,100,M,Павел Кольцов,1993,Yes,Raw,D
1,Vitaliy Parmut,Amateur Open,99.05,,,,,,,,,,210,240,250,250,,250,100,M,Виталий Пармут,1987,Yes,Raw,D
2,Evgeniy Filatov,Amateur Open,96.7,,,,,,,,,,202.5,232.5,240,240,,240,100,M,Евгений Филатов,1978,Yes,Raw,D
3,Pavel Bychkov,Amateur Open,97.95,,,,,,,,,,235,-245,-245,235,,235,100,M,Павел Бычков,1975,Yes,Raw,D
4,Ruslan Novikov,Amateur Open,96.7,,,,,,,,,,215,222.5,232.5,232.5,,232.5,100,M,Руслан Новиков,1988,Yes,Raw,D
5,Dmitriy Schetkin,Amateur Open,98.1,,,,,,,,,,202.5,222.5,-235,222.5,,222.5,100,M,Дмитрий Щеткин,1982,Yes,Raw,D
6,Pavel Samsonov,Amateur Open,98.9,,,,,,,,,,210,217.5,-222.5,217.5,,217.5,100,M,Павел Самсонов,1977,Yes,Raw,D
7,Aleksandr Mokin,Amateur Open,98.25,,,,,,,,,,202.5,210,-220,210,,210,100,M,Александр Мокин,1978,Yes,Raw,D
1,Danil Kvaratskheliya,Amateur Masters 40-44,96.7,,,,,,,,,,200,210,-220,210,,210,100,M,Данил Кварацхелия,1972,Yes,Raw,D
DQ,Maksim Krakovskiy,Amateur Masters 40-44,98.15,,,,,,,,,,-202.5,-202.5,,,,,100,M,Максим Краковский,1974,Yes,Raw,D
1,Aleksandr Scherbak,Amateur Masters 45-49,97.7,,,,,,,,,,225,237.5,240,240,,240,100,M,Александр Щербак,1966,Yes,Raw,D
1,Andrey Dyachev,Amateur Open,104,,,,,,,,,,215,220,230,230,,230,110,M,Андрей Дьячев,1984,Yes,Raw,D
2,Aleksandr Evsyutkin,Amateur Open,101.4,,,,,,,,,,215,-220,220,220,,220,110,M,Александр Евсюткин,1988,Yes,Raw,D
3,Vladimir Yaroslavtsev,Amateur Open,100.5,,,,,,,,,,190,207.5,-212.5,207.5,,207.5,110,M,Владимир Ярославцев,1981,Yes,Raw,D
4,Roman Moiseev,Amateur Open,101.1,,,,,,,,,,200,-207.5,-215,200,,200,110,M,Роман Моисеев,1990,Yes,Raw,D
1,Ivan Rak,Amateur Masters 40-44,106.5,,,,,,,,,,220,240,250,250,,250,110,M,Иван Рак,1974,Yes,Raw,D
DQ,Sergey Bulaev,Amateur Masters 40-44,103.7,,,,,,,,,,-250,-250,,,,,110,M,Сергей Булаев,1972,Yes,Raw,D
1,Cheslav Targonskiy,Amateur Masters 55-59,102,,,,,,,,,,260,270,,270,,270,110,M,Чеслав Таргонский,1958,Yes,Raw,D
2,Andrey Burakov,Amateur Masters 55-59,102.1,,,,,,,,,,180,190,200,200,,200,110,M,Андрей Бураков,1958,Yes,Raw,D
1,Vladimir Borisov,Amateur Juniors 20-23,114,,,,,,,,,,160,180,182.5,182.5,,182.5,125,M,Владимир Борисов,1995,Yes,Raw,D
1,Aleksandr Kirichenko,Amateur Open,116.5,,,,,,,,,,-247.5,247.5,260,260,,260,125,M,Александр Кириченко,1987,Yes,Raw,D
2,Ilya Naroditskiy,Amateur Open,113.7,,,,,,,,,,-215,220,230,230,,230,125,M,Илья Народицкий,1989,Yes,Raw,D
3,Ivan Belokurov,Amateur Open,114.4,,,,,,,,,,180,200,-215,200,,200,125,M,Иван Белокуров,1997,Yes,Raw,D
1,Denis Plenkin,Amateur Masters 40-44,114.15,,,,,,,,,,225,240,-250,240,,240,125,M,Денис Пленкин,1974,Yes,Raw,D
1,Dmitriy Skachkov,Amateur Open,138.2,,,,,,,,,,260,-280,,260,,260,140,M,Дмитрий Скачков,1977,Yes,Raw,D
DQ,Denis Krasnorutskiy,Amateur Open,128.65,,,,,,,,,,-245,-245,,,,,140,M,Денис Красноруцкий,1983,Yes,Raw,D
1,Aleksandr Bogachev,Amateur Masters 40-44,140,,,,,,,,,,250,260,265,265,,265,140,M,Александр Богачев,1972,Yes,Raw,D
1,Nikolay Prokaev,Amateur Open,65.3,,,,,,,,,,140,170,-175,170,,170,67.5,M,Николай Прокаев,1987,Yes,Multi-ply,D
1,Vadim Arendaruk,Amateur Open,74.3,,,,,,,,,,210,-220,-220,210,,210,75,M,Вадим Арендарук,1982,Yes,Multi-ply,D
1,Konstantin Sapunkov,Amateur Open,82,,,,,,,,,,250,-260,,250,,250,82.5,M,Константин Сапунков,1981,Yes,Multi-ply,D
1,Aleksey Surenskiy,Amateur Open,88.9,,,,,,,,,,210,230,245,245,,245,90,M,Алексей Суренский,1986,Yes,Multi-ply,D
2,Petr Samko,Amateur Open,90,,,,,,,,,,-220,235,-237.5,235,,235,90,M,Петр Самко,1987,Yes,Multi-ply,D
1,Dmitriy Ryzhnikov,Amateur Open,92.9,,,,,,,,,,225,240,255,255,,255,100,M,Дмитрий Рыжников,1984,Yes,Multi-ply,D
DQ,Egor Makarov,Amateur Open,96,,,,,,,,,,-225,-225,,,,,100,M,Егор Макаров,1984,Yes,Multi-ply,D
1,Sergey Kovalchuk,Amateur Open,103.4,,,,,,,,,,290,-310,-310,290,,290,110,M,Сергей Ковальчук,1986,Yes,Multi-ply,D
1,Elena Ochirova,Pro Open,54.4,80,85,90,90,62.5,-65,65,65,67.5,105,110,-115,110,,265,56,F,Елена Очирова,1975,No,Wraps,SBD
DQ,Olga Kamenschik,Pro Open,64.7,-70,-70,70,70,40,-45,-45,40,,-90,-90,-90,,,,67.5,F,Ольга Каменьщик,1985,No,Wraps,SBD
1,Ekaterina Shaeva,Pro Open,75,122.5,-127.5,-127.5,122.5,55,60,-62.5,60,,127.5,-132.5,132.5,132.5,,315,75,F,Екатерина Шаева,1985,No,Wraps,SBD
1,Olga Kostrova,Pro Masters 40-44,72.45,-135,135,145,145,80,90,95,95,,140,160,-170,160,,400,75,F,Ольга Кострова,1974,No,Wraps,SBD
1,Ivan Eginov,Pro Teen 16-17,68.6,110,120,130,130,85,90,95,95,,120,130,140,140,,365,75,M,Иван Егинов,1999,No,Wraps,SBD
1,Pavel Zubkov,Pro Open,74.2,180,190,195,195,120,130,-135,130,,250,260,265,265,,590,75,M,Павел Зубков,1985,No,Wraps,SBD
DQ,Viktor Kopaev,Pro Open,73,-180,-180,-190,,,,,,,,,,,,,75,M,Виктор Копаев,1990,No,Wraps,SBD
1,Sergey Aleksandrov,Pro Juniors 20-23,81.5,180,190,192.5,192.5,140,-145,-145,140,,205,220,-222.5,220,,552.5,82.5,M,Сергей Александров,1993,No,Wraps,SBD
1,Ilya Starostin,Pro Open,81.55,170,180,185,185,130,-140,-140,130,,200,-210,215,215,,530,82.5,M,Илья Старостин,1990,No,Wraps,SBD
1,Yaroslav Dikun,Pro Teen 18-19,89.05,200,-220,-220,200,150,160,-170,160,,230,250,-270,250,,610,90,M,Ярослав Дикун,1995,No,Wraps,SBD
1,Evgeniy Yaskov,Pro Juniors 20-23,88.3,210,220,230,230,145,155,162.5,162.5,,255,-265,,255,,647.5,90,M,Евгений Яськов,1991,No,Wraps,SBD
2,Anton Arzhanov,Pro Juniors 20-23,84.25,-175,180,-190,180,105,110,-112.5,110,,195,-210,,195,,485,90,M,Антон Аржанов,1994,No,Wraps,SBD
3,Ivan Korochkin,Pro Juniors 20-23,85.2,110,-115,115,115,85,95,-105,95,,-140,140,155,155,,365,90,M,Иван Корочкин,1992,No,Wraps,SBD
1,Anton Anikanov,Pro Open,88.8,240,-255,260,260,190,197.5,-202.5,197.5,,-280,280,-290,280,,737.5,90,M,Антон Аниканов,1985,No,Wraps,SBD
2,Bakhtovar Dzhabarov,Pro Open,86.2,220,240,-260,240,180,-195,-197.5,180,,230,250,270,270,,690,90,M,Бахтовар Джабаров,1985,No,Wraps,SBD
3,Radiy Spitsin,Pro Open,88.2,210,220,230,230,145,150,157.5,157.5,,280,295,-305,295,,682.5,90,M,Радій Спицин,1981,No,Wraps,SBD
4,Viktor Vasilyev,Pro Open,88.45,-210,215,-225,215,160,165,-170,165,,247.5,267.5,,267.5,,647.5,90,M,Виктор Васильев,1987,No,Wraps,SBD
5,Leonid Korsunskiy,Pro Open,89.6,-195,195,210,210,145,152.5,-157.5,152.5,,210,220,,220,,582.5,90,M,Леонид Корсунский,1981,No,Wraps,SBD
6,Aleksandr Polyakov,Pro Open,86.6,165,175,-180,175,105,-115,125,125,,-185,200,215,215,,515,90,M,Александр Поляков,1986,No,Wraps,SBD
7,Nikolay Afanasov,Pro Open,85.35,-170,-170,170,170,135,140,142.5,142.5,,180,195,-205,195,,507.5,90,M,Николай Афанасов,1989,No,Wraps,SBD
8,Tochiddin Abdurokhmonov,Pro Open,85.7,120,130,135,135,115,120,-125,120,,165,175,180,180,,435,90,M,,1982,No,Wraps,SBD
DQ,Vladimir Kvasov,Pro Open,87.35,-230,-232.5,,,,,,,,,,,,,,90,M,Владимир Квасов,1991,No,Wraps,SBD
1,Ilya Obraztsov,Pro Juniors 20-23,94.65,-190,190,-200,190,160,167.5,172.5,172.5,,220,230,237.5,237.5,,600,100,M,Илья Образцов,1991,No,Wraps,SBD
DQ,Andrey Salaman,Pro Juniors 20-23,99,-250,-250,,,,,,,,,,,,,,100,M,,1993,No,Wraps,SBD
1,Aleksandr Dombrovskiy,Pro Open,94.65,-240,-250,250,250,170,180,-190,180,,-250,-250,255,255,,685,100,M,Александр Домбровский,1981,No,Wraps,SBD
2,Dmitriy Melikhov,Pro Open,98.4,205,220,230,230,145,152.5,157.5,157.5,,220,237.5,250,250,,637.5,100,M,Дмитрий Мелихов,1979,No,Wraps,SBD
3,Maksim Podolyak,Pro Open,96,-200,215,220,220,135,155,160,160,,210,235,-260,235,,615,100,M,Максим Подоляк,1979,No,Wraps,SBD
4,Nikolay Kotov,Pro Open,96.7,190,200,207.5,207.5,-150,150,-157.5,150,,240,250,-257.5,250,,607.5,100,M,Николай Котов,1975,No,Wraps,SBD
5,Kirill Mishukov,Pro Open,99.8,-185,-185,185,185,-160,160,-170,160,,240,250,-260,250,,595,100,M,Кирилл Мишуков,1990,No,Wraps,SBD
1,Vladimir Oleksenko,Pro Masters 40-44,91.05,200,220,-230,220,170,180,-185,180,,220,240,260,260,,660,100,M,Владимир Олексенко,1971,No,Wraps,SBD
2,Valeriy Churzin,Pro Masters 40-44,97.7,140,145,150,150,150,155,160,160,,-200,200,210,210,,520,100,M,Валерий Чурзин,1973,No,Wraps,SBD
1,Vitaliy Ryabykh,Pro Juniors 20-23,106,210,220,225,225,170,180,185,185,,250,265,270,270,,680,110,M,Виталий Рябых,1992,No,Wraps,SBD
1,Mikhail Seregin,Pro Juniors 20-23,116.9,210,220,230,230,160,170,,170,,265,275,280,280,,680,125,M,Михаил Серегин,1995,No,Wraps,SBD
1,Vladimir Aleksandrov,Pro Open,115.7,-260,-260,260,260,170,180,-190,180,,250,260,270,270,,710,125,M,Владимир Александров,1977,No,Wraps,SBD
2,Aleksey Nemov,Pro Open,119,220,-240,-240,220,190,-200,-200,190,,270,290,-302.5,290,,700,125,M,Алексей Немов,1990,No,Wraps,SBD
3,Aleksey Oleshko,Pro Open,110.7,200,-212.5,215,215,162.5,170,177.5,177.5,,212.5,-232.5,-237.5,212.5,,605,125,M,Алексей Олешко,1980,No,Wraps,SBD
1,Aleksey Ivanov,Pro Masters 40-44,120.7,245,250,255,255,165,170,-175,170,,260,270,-280,270,,695,125,M,Алексей Иванов,1972,No,Wraps,SBD
1,Irina Yaroshenko,Pro Open,99,220,235,245,245,110,120,125,125,,220,-240,-240,220,,590,90+,F,Ирина Ярошенко,1986,No,Single-ply,SBD
1,Vladimir Gurenkov,Pro Juniors 20-23,81.6,220,232.5,240,240,135,-142.5,152.5,152.5,,240,255,-270,255,,647.5,82.5,M,Владимир Гуреньков,1992,No,Single-ply,SBD
1,Oleg Gorinkin,Pro Open,89.35,-260,270,-280,270,180,195,-205,195,,-250,260,-285,260,,725,90,M,Олег Горинкин,1987,No,Single-ply,SBD
1,Dmitriy Postnov,Pro Masters 40-44,89.8,150,,,150,110,,,110,,170,,,170,,430,90,M,Дмитрий Постнов,1971,No,Single-ply,SBD
1,Pavel Sudakov,Pro Juniors 20-23,95.1,250,270,,270,160,175,-185,175,,250,260,265,265,,710,100,M,Павел Судаков,1991,No,Single-ply,SBD
1,Sergey Nikolskiy,Pro Open,97.65,250,265,275,275,200,210,,210,,250,265,275,275,,760,100,M,Сергей Никольский,1977,No,Single-ply,SBD
1,Andrey Drozhzhin,Pro Open,105,310,330,350,350,200,210,,210,,280,290,-300,290,,850,110,M,Андрей Дрожжин,1977,No,Single-ply,SBD
1,Daniil Lazarev,Pro Juniors 20-23,123.6,270,-285,-285,270,210,-220,-220,210,,-280,280,,280,,760,125,M,Даниил Лазарев,1995,No,Single-ply,SBD
1,Dmitriy Dolgov,Pro Open,114.55,280,300,310,310,220,230,240,240,,280,300,310,310,,860,125,M,Дмитрий Долгов,1986,No,Single-ply,SBD
2,Igor Ivanov #11,Pro Open,122.4,280,290,300,300,185,-195,-195,185,,300,315,-320,315,,800,125,M,Игорь Иванов,1989,No,Single-ply,SBD
1,Aleksandra Gavrilova,Pro Open,49.6,,,,,40,42.5,45,45,47.5,,,,,,45,52,F,Александра Гаврилова,1979,No,Raw,B
1,Ekaterina Golubeva,Pro Juniors 20-23,59,,,,,45,-47.5,47.5,47.5,,,,,,,47.5,60,F,Екатерина Голубева,1991,No,Raw,B
1,Nadezhda Vlasova,Pro Open,60,,,,,100,105,-107.5,105,,,,,,,105,60,F,Надежда Власова,1982,No,Raw,B
1,Kseniya Schekina,Pro Teen 18-19,67.5,,,,,62.5,67.5,70,70,,,,,,,70,67.5,F,Ксения Щекина,1995,No,Raw,B
1,Kseniya Kozlova,Pro Juniors 20-23,61.8,,,,,55,60,67.5,67.5,,,,,,,67.5,67.5,F,,1992,No,Raw,B
2,Marina Kozhukhantseva,Pro Juniors 20-23,64.8,,,,,40,45,-47.5,45,,,,,,,45,67.5,F,Марина Кожуханцева,1992,No,Raw,B
1,Tatyana Dalnikova,Pro Open,74.3,,,,,57.5,60,62.5,62.5,,,,,,,62.5,75,F,Татьяна Дальникова,1982,No,Raw,B
1,Darya Kogadeeva,Pro Open,81.45,,,,,120,125,132.5,132.5,,,,,,,132.5,82.5,F,Дарья Когадеева,1978,No,Raw,B
2,Irina Derkacheva,Pro Open,79.2,,,,,112.5,115,120,120,,,,,,,120,82.5,F,Ирина Деркачева,1980,No,Raw,B
1,Yustina Boryu,Pro Open,89.5,,,,,90,95,100,100,,,,,,,100,90,F,Юстина Борю,1987,No,Raw,B
1,Aleksandr Tyshkevich,Pro Juniors 20-23,66.7,,,,,-70,75,-90,75,,,,,,,75,67.5,M,Александр Тышкевич,1991,No,Raw,B
1,Nikolay Obukhov,Pro Masters 60-64,67.5,,,,,92.5,-97.5,-97.5,92.5,,,,,,,92.5,67.5,M,Николай Обухов,1953,No,Raw,B
1,Eduard Kazmin,Pro Open,75,,,,,-145,145,-152.5,145,,,,,,,145,75,M,Эдуард Казьмин,1985,No,Raw,B
2,Yuriy Knyazev,Pro Open,74.8,,,,,130,140,-150,140,,,,,,,140,75,M,Юрий Князев,1983,No,Raw,B
1,Yuriy Churin,Pro Masters 40-44,74.2,,,,,140,145,150,150,,,,,,,150,75,M,Юрий Чурин,1971,No,Raw,B
2,Nikolay Lysenkov,Pro Masters 40-44,71.9,,,,,100,105,110,110,,,,,,,110,75,M,Николай Лысенков,1973,No,Raw,B
1,Yuriy Ermolin,Pro Masters 60-64,72.3,,,,,90,-100,100,100,,,,,,,100,75,M,Юрий Ермолин,1952,No,Raw,B
1,Nikolay Ionov,Pro Masters 65-69,72.5,,,,,100,105,107.5,107.5,,,,,,,107.5,75,M,Николай Ионов,1949,No,Raw,B
1,Andrey Scherbanev,Pro Teen 18-19,80.6,,,,,85,95,-100,95,,,,,,,95,82.5,M,Андрей Щербанев,1996,No,Raw,B
DQ,Daniil Arzhakov,Pro Teen 18-19,80.7,,,,,-162.5,-162.5,-162.5,,,,,,,,,82.5,M,Даниил Аржаков,1995,No,Raw,B
1,Rinat Khusainov,Pro Juniors 20-23,81.8,,,,,120,130,-137.5,130,,,,,,,130,82.5,M,Ринат Хусаинов,1993,No,Raw,B
1,Aleksandr Yakovskiy,Pro Open,80.6,,,,,170,180,-190,180,,,,,,,180,82.5,M,Александр Яковский,1988,No,Raw,B
2,Aleksey Syuta,Pro Open,80.2,,,,,165,170,-175,170,,,,,,,170,82.5,M,Алексей Сюта,1979,No,Raw,B
3,Oleg Tikhonovskiy,Pro Open,81.3,,,,,155,-160,-160,155,,,,,,,155,82.5,M,,1978,No,Raw,B
4,Pavel Sleptsov,Pro Open,78.9,,,,,-147.5,-147.5,147.5,147.5,,,,,,,147.5,82.5,M,Павел Слепцов,1991,No,Raw,B
5,Nikolay Petrakovich,Pro Open,75.8,,,,,125,132.5,-137.5,132.5,,,,,,,132.5,82.5,M,Николай Петракович,1979,No,Raw,B
1,Vladimir Ermokhin,Pro Masters 50-54,81,,,,,100,105,107.5,107.5,,,,,,,107.5,82.5,M,Владимир Ермохин,1961,No,Raw,B
1,Vladimir Kulakov,Pro Masters 55-59,78.5,,,,,57.5,65,,65,,,,,,,65,82.5,M,Владимир Кулаков,1955,No,Raw,B
1,Sergey Goncharov,Pro Masters 60-64,81,,,,,100,110,115,115,,,,,,,115,82.5,M,Сергей Гончаров,1952,No,Raw,B
1,Aleksey Stikhanov,Pro Teen 18-19,89,,,,,160,165,170,170,,,,,,,170,90,M,Алексей Стиханов,1996,No,Raw,B
1,Vjačeslavs Letlans,Pro Open,84.6,,,,,205,212.5,-222.5,212.5,,,,,,,212.5,90,M,,1987,No,Raw,B
2,Aleksey Nikolaenko,Pro Open,87.4,,,,,185,-195,195,195,,,,,,,195,90,M,Алексей Николаенко,1989,No,Raw,B
3,Anton Doroshenkov,Pro Open,89.8,,,,,170,180,-190,180,,,,,,,180,90,M,Антон Дорошенков,1979,No,Raw,B
4,Sergey Khitrov,Pro Open,86.1,,,,,140,-150,150,150,,,,,,,150,90,M,Сергей Хитров,1979,No,Raw,B
1,Vyacheslav Nechpal,Pro Masters 40-44,87.2,,,,,160,170,-182.5,170,,,,,,,170,90,M,Вячеслав Нечпал,1973,No,Raw,B
2,Yuriy Pavlov,Pro Masters 40-44,84.1,,,,,140,150,160,160,,,,,,,160,90,M,Юрий Павлов,1972,No,Raw,B
1,Andrey Kochetkov,Pro Teen 18-19,95.3,,,,,140,150,152.5,152.5,,,,,,,152.5,100,M,Андрей Кочетков,1996,No,Raw,B
1,Aleksandr Glushnev,Pro Juniors 20-23,98.4,,,,,212.5,222.5,225,225,,,,,,,225,100,M,Александр Глушнев,1992,No,Raw,B
2,Nikita Melnikov,Pro Juniors 20-23,94.1,,,,,180,-190,-190,180,,,,,,,180,100,M,Никита Мельников,1992,No,Raw,B
1,Aleksandr Glushnev,Pro Open,98.4,,,,,212.5,222.5,225,225,,,,,,,225,100,M,Александр Глушнев,1992,No,Raw,B
2,Semen Shagov,Pro Open,98.5,,,,,192.5,200,205,205,,,,,,,205,100,M,Семен Шагов,1987,No,Raw,B
3,Aleksandr Tyschenko,Pro Open,99.1,,,,,190,195,197.5,197.5,,,,,,,197.5,100,M,Александр Тыщенко,1986,No,Raw,B
4,Maksim Gornastalev,Pro Open,90.5,,,,,180,190,-200,190,,,,,,,190,100,M,Максим Горнасталев,1983,No,Raw,B
5,Kirill Artemov,Pro Open,95.3,,,,,190,-200,-200,190,,,,,,,190,100,M,Кирилл Артемов,1982,No,Raw,B
6,Dmitriy Gusev,Pro Open,96.2,,,,,180,190,-200,190,,,,,,,190,100,M,Дмитрий Гусев,1985,No,Raw,B
7,Sergey Timchenko,Pro Open,100,,,,,170,180,-192.5,180,,,,,,,180,100,M,Сергей Тимченко,1979,No,Raw,B
8,Andrey Berezko,Pro Open,96.9,,,,,-150,165,,165,,,,,,,165,100,M,Андрей Березко,1983,No,Raw,B
9,Ilya Karabanov,Pro Open,98.2,,,,,155,165,-170,165,,,,,,,165,100,M,Илья Карабанов,1989,No,Raw,B
10,Konstantin Gromov,Pro Open,94.8,,,,,-160,160,-165,160,,,,,,,160,100,M,Константин Громов,1989,No,Raw,B
11,Konstantin Kozlov,Pro Open,94.9,,,,,110,-120,120,120,,,,,,,120,100,M,Константин Козлов,1990,No,Raw,B
1,Vladislav Duminika,Pro Masters 40-44,95.6,,,,,190,195,-197.5,195,,,,,,,195,100,M,Владислав Думиника,1972,No,Raw,B
2,Konstantin Pasechnik,Pro Masters 40-44,97.9,,,,,180,185,-190,185,,,,,,,185,100,M,Константин Пасечник,1972,No,Raw,B
1,Dmitriy Frank,Pro Juniors 20-23,108.3,,,,,187.5,-197.5,197.5,197.5,,,,,,,197.5,110,M,Дмитрий Франк,1994,No,Raw,B
2,Artem Riznik,Pro Juniors 20-23,108.6,,,,,170,-185,,170,,,,,,,170,110,M,Артем Ризник,1994,No,Raw,B
1,Yuriy Gavryushin,Pro Open,107.3,,,,,205,215,222.5,222.5,,,,,,,222.5,110,M,Юрий Гаврюшин,1983,No,Raw,B
2,Nazim Ayubov,Pro Open,102.9,,,,,195,-202.5,202.5,202.5,,,,,,,202.5,110,M,Назим Аюбов,1985,No,Raw,B
3,Dmitriy Kobelev,Pro Open,106.3,,,,,185,197.5,-200,197.5,,,,,,,197.5,110,M,Дмитрий Кобелев,1984,No,Raw,B
4,Artem Nikandrov,Pro Open,109.9,,,,,187.5,197.5,-200,197.5,,,,,,,197.5,110,M,Артем Никандров,1983,No,Raw,B
5,Igor Radchenko,Pro Open,106.7,,,,,192.5,-200,-200,192.5,,,,,,,192.5,110,M,Игорь Радченко,1982,No,Raw,B
6,Ruslan Breus,Pro Open,103.4,,,,,172.5,-185,190,190,,,,,,,190,110,M,Руслан Бреус,1983,No,Raw,B
7,Anton Rudanov,Pro Open,109.7,,,,,160,170,175,175,,,,,,,175,110,M,Антон Руданов,1988,No,Raw,B
8,Sergey Yakovlev,Pro Open,107.8,,,,,165,-172.5,-172.5,165,,,,,,,165,110,M,Сергей Яковлев,1983,No,Raw,B
1,Eduard Dmitriev,Pro Masters 40-44,108.1,,,,,200,215,-220,215,,,,,,,215,110,M,Эдуард Дмитриев,1972,No,Raw,B
2,Sergey Lisitsyn,Pro Masters 40-44,107.7,,,,,180,190,200,200,,,,,,,200,110,M,Сергей Лисицын,1970,No,Raw,B
1,Vyacheslav Filin,Pro Masters 50-54,103,,,,,185,192.5,197.5,197.5,,,,,,,197.5,110,M,Вячеслав Филин,1961,No,Raw,B
1,Aleksandr Vorontsov,Pro Juniors 20-23,122.8,,,,,200,-207.5,-207.5,200,,,,,,,200,125,M,Александр Воронцов,1994,No,Raw,B
1,Dmitriy Kostin,Pro Open,119.1,,,,,225,230,-232.5,230,,,,,,,230,125,M,Дмитрий Костин,1985,No,Raw,B
2,Evgeniy Vasilyev,Pro Open,112.95,,,,,220,-227.5,-230,220,,,,,,,220,125,M,Евгений Васильев,1982,No,Raw,B
3,Ivan Arsentyev,Pro Open,112.3,,,,,200,210,-220,210,,,,,,,210,125,M,Иван Арсентьев,1976,No,Raw,B
4,Aleksey Lebed,Pro Open,113.8,,,,,180,190,-195,190,,,,,,,190,125,M,Алексей Лебедь,1989,No,Raw,B
1,Sergey Rykov,Pro Masters 45-49,115.8,,,,,170,175,180,180,,,,,,,180,125,M,Сергей Рыков,1965,No,Raw,B
1,Aleksandr Pirogov #2,Pro Open,134.8,,,,,225,242.5,250,250,,,,,,,250,140,M,Александр Пирогов,1984,No,Raw,B
2,Sergey Zimin,Pro Open,128.5,,,,,225,235,-242.5,235,,,,,,,235,140,M,Сергей Зимин,1972,No,Raw,B
1,Mikhail Nikolaev,Pro Masters 50-54,126.9,,,,,200,210,215,215,,,,,,,215,140,M,Михаил Николаев,1961,No,Raw,B
1,Yuriy Mishta,Pro Masters 55-59,128.8,,,,,160,170,180,180,,,,,,,180,140,M,Юрий Мишта,1958,No,Raw,B
1,Vitaliy Elchaninov,Pro Open,88.7,,,,,-170,170,180,180,,,,,,,180,90,M,Виталий Ельчанинов,1991,No,Multi-ply,B
1,Igor Kalyta,Pro Open,99,,,,,280,-290,-290,280,,,,,,,280,100,M,Игорь Калыта,1982,No,Multi-ply,B
2,Aleksandr Nosov,Pro Open,97.9,,,,,205,210,-217.5,210,,,,,,,210,100,M,Александр Носов,1985,No,Multi-ply,B
1,Grigoriy Lysov,Pro Open,104.5,,,,,225,230,-235,230,,,,,,,230,110,M,Григорий Лысов,1976,No,Multi-ply,B
1,Viktoriya Lavrischeva,Pro Open,67.1,,,,,82.5,90,-97.5,90,,,,,,,90,67.5,F,Виктория Лаврищева,1989,No,Single-ply,B
DQ,Kirill Kotov,Pro Juniors 20-23,81.15,,,,,-180,-180,-180,,,,,,,,,82.5,M,Кирилл Котов,1994,No,Single-ply,B
1,Andrey Volchkov,Pro Open,81.5,,,,,100,115,-125,115,,,,,,,115,82.5,M,Андрей Волчков,1979,No,Single-ply,B
2,Vladimir Kulakov,Pro Open,78.5,,,,,60,67.5,,67.5,,,,,,,67.5,82.5,M,Владимир Кулаков,1955,No,Single-ply,B
1,Vladimir Kulakov,Pro Masters 55-59,78.5,,,,,60,67.5,,67.5,,,,,,,67.5,82.5,M,Владимир Кулаков,1955,No,Single-ply,B
1,Dmitriy Obrazumov,Pro Open,98.9,,,,,215,-222.5,222.5,222.5,,,,,,,222.5,100,M,Дмитрий Образумов,1980,No,Single-ply,B
1,Dmitriy Bubyr,Pro Open,105.6,,,,,-200,-200,200,200,,,,,,,200,110,M,Дмитрий Бубырь,1981,No,Single-ply,B
1,Elena Medvedeva,Pro Open,46.6,,,,,,,,,,55,65,70,70,,70,48,F,Елена Медведева,1990,No,Raw,D
1,Viktoriya Ablaeva,Pro Open,60,,,,,,,,,,150,-160,-160,150,,150,60,F,Виктория Аблаева,1983,No,Raw,D
1,Inessa Kabetova,Pro Masters 45-49,59.2,,,,,,,,,,85,90,95,95,,95,60,F,Инесса Кабетова,1967,No,Raw,D
1,Ekaterina Romanovskaya,Pro Juniors 20-23,67.45,,,,,,,,,,-105,105,110,110,,110,67.5,F,Екатерина Романовская,1992,No,Raw,D
2,Marina Kozhukhantseva,Pro Juniors 20-23,64.8,,,,,,,,,,85,95,100,100,,100,67.5,F,Марина Кожуханцева,1992,No,Raw,D
1,Tatyana Dalnikova,Pro Open,74.3,,,,,,,,,,110,115,120,120,,120,75,F,Татьяна Дальникова,1982,No,Raw,D
1,Andrey Yankovskiy,Pro Teen 13-15,56.3,,,,,,,,,,100,110,120,120,,120,60,M,Андрей Янковский,2001,No,Raw,D
1,Aleksandr Tyshkevich,Pro Juniors 20-23,66.7,,,,,,,,,,125,150,-160,150,,150,67.5,M,Александр Тышкевич,1991,No,Raw,D
2,Dmitriy Postnikov,Pro Juniors 20-23,64.5,,,,,,,,,,130,135,137.5,137.5,,137.5,67.5,M,Дмитрий Постников,1994,No,Raw,D
1,Aleksandr Shakhov,Pro Open,66.3,,,,,,,,,,115,-125,-125,115,,115,67.5,M,Александр Шахов,1988,No,Raw,D
1,Anton Doronin,Pro Juniors 20-23,72.4,,,,,,,,,,137.5,145,,145,,145,75,M,Антон Доронин,1991,No,Raw,D
2,Igor Gorshenin,Pro Juniors 20-23,71.9,,,,,,,,,,120,132.5,137.5,137.5,,137.5,75,M,Игорь Горшенин,1995,No,Raw,D
3,Dmitriy Ilinykh,Pro Juniors 20-23,68,,,,,,,,,,120,-130,130,130,,130,75,M,Дмитрий Ильиных,1992,No,Raw,D
1,Kamil Sultanov,Pro Open,71.5,,,,,,,,,,105,110,115,115,,115,75,M,Камиль Султанов,1988,No,Raw,D
1,Ilya Fedorov,Pro Juniors 20-23,82,,,,,,,,,,235,245,255,255,257.5,255,82.5,M,Илья Фёдоров,1992,No,Raw,D
2,Sergey Trubnikov,Pro Juniors 20-23,77.9,,,,,,,,,,140,145,,145,,145,82.5,M,Сергей Трубников,1994,No,Raw,D
1,Aleksey Ovchinnikov,Pro Open,82.4,,,,,,,,,,280,292.5,300,300,,300,82.5,M,Алексей Овчинников,1986,No,Raw,D
2,Sergey Goryunov,Pro Open,81.2,,,,,,,,,,235,245,255,255,,255,82.5,M,Сергей Горюнов,1987,No,Raw,D
3,Maksim Kalenkin,Pro Open,79.9,,,,,,,,,,-230,230,250,250,,250,82.5,M,Максим Каленкин,1989,No,Raw,D
4,Evgeniy Shuvalov,Pro Open,80.2,,,,,,,,,,227.5,-232.5,-232.5,227.5,,227.5,82.5,M,Евгений Шувалов,1983,No,Raw,D
5,Vladimir Ermokhin,Pro Open,81,,,,,,,,,,185,-195,195,195,,195,82.5,M,Владимир Ермохин,1961,No,Raw,D
1,Vladimir Ermokhin,Pro Masters 50-54,81,,,,,,,,,,185,-195,195,195,,195,82.5,M,Владимир Ермохин,1961,No,Raw,D
1,Vladimir Kulakov,Pro Masters 55-59,78.5,,,,,,,,,,70,,,70,,70,82.5,M,Владимир Кулаков,1955,No,Raw,D
1,Denis Sorokin,Pro Juniors 20-23,87.9,,,,,,,,,,200,215,-225,215,,215,90,M,Денис Сорокин,1995,No,Raw,D
1,Radiy Spitsin,Pro Open,88.2,,,,,,,,,,270,285,,285,,285,90,M,Радій Спицин,1981,No,Raw,D
2,Yuriy Pavlov,Pro Open,84.1,,,,,,,,,,180,210,230,230,,230,90,M,Юрий Павлов,1972,No,Raw,D
3,Aleksey Karev,Pro Open,88.5,,,,,,,,,,-210,-210,210,210,,210,90,M,Алексей Карев,1979,No,Raw,D
1,Yuriy Pavlov,Pro Masters 40-44,84.1,,,,,,,,,,180,210,230,230,,230,90,M,Юрий Павлов,1972,No,Raw,D
1,Maksim Kurchaev,Pro Teen 16-17,92.8,,,,,,,,,,-160,-160,160,160,,160,100,M,Максим Курчаев,1998,No,Raw,D
1,Vladimir Eskov,Pro Open,94.4,,,,,,,,,,230,240,-250,240,,240,100,M,Владимир Еськов,1981,No,Raw,D
2,Vladimir Letyaev,Pro Open,95.2,,,,,,,,,,-160,170,180,180,,180,100,M,Владимир Летяев,1976,No,Raw,D
1,Vladimir Marchenko,Pro Open,108.8,,,,,,,,,,300,-320,-320,300,,300,110,M,Владимир Марченко,1978,No,Raw,D
2,Marat Savosin,Pro Open,105.9,,,,,,,,,,290,-300,,290,,290,110,M,Марат Савосин,1990,No,Raw,D
3,Aleksey Smirnov,Pro Open,100.5,,,,,,,,,,275,285,-295,285,,285,110,M,Алексей Смирнов,1977,No,Raw,D
DQ,Dmitriy Yakovlev,Pro Open,104,,,,,,,,,,-250,,,,,,110,M,Дмитрий Яковлев,1984,No,Raw,D
DQ,Maksim Kuznetsov,Pro Open,105.5,,,,,,,,,,-270,-270,-270,,,,110,M,Максим Кузнецов,1989,No,Raw,D
1,Roman Fedorov,Pro Juniors 20-23,117.3,,,,,,,,,,215,237.5,257.5,257.5,,257.5,125,M,Роман Федоров,1992,No,Raw,D
1,Ivan Chesnokov,Pro Open,117.7,,,,,,,,,,310,-320,-320,310,,310,125,M,Иван Чесноков,1990,No,Raw,D
2,Aleksey Lebed,Pro Open,113.8,,,,,,,,,,230,250,-260,250,,250,125,M,Алексей Лебедь,1989,No,Raw,D
1,Viktor Krylov,Pro Open,127.4,,,,,,,,,,300,-310,315,315,,315,140,M,Виктор Крылов,1985,No,Raw,D
1,Sergey Lomov,Pro Juniors 20-23,146.2,,,,,,,,,,210,240,270,270,,270,140+,M,Сергей Ломов,1994,No,Raw,D
1,Kristina Chudnova,Pro Juniors 20-23,54.2,,,,,,,,,,152.5,160,-165,160,,160,56,F,Кристина Чуднова,1994,No,Multi-ply,D
1,Nina Emelyanova,Pro Open,61.6,,,,,,,,,,-105,105,110,110,,110,67.5,F,Нина Емельянова,1980,No,Multi-ply,D
1,Dmitriy Postnikov,Pro Juniors 20-23,64.5,,,,,,,,,,130,137.5,142.5,142.5,,142.5,67.5,M,Дмитрий Постников,1994,No,Multi-ply,D
1,Aleksandr Shakhov,Pro Open,66.3,,,,,,,,,,115,-120,,115,,115,67.5,M,Александр Шахов,1988,No,Multi-ply,D
1,Igor Gorshenin,Pro Juniors 20-23,71.9,,,,,,,,,,120,140,145,145,,145,75,M,Игорь Горшенин,1995,No,Multi-ply,D
2,Anton Doronin,Pro Juniors 20-23,72.4,,,,,,,,,,137.5,142.5,,142.5,,142.5,75,M,Антон Доронин,1991,No,Multi-ply,D
3,Dmitriy Ilinykh,Pro Juniors 20-23,68,,,,,,,,,,120,132.5,137.5,137.5,,137.5,75,M,Дмитрий Ильиных,1992,No,Multi-ply,D
1,Ilkin Mekhtiev,Pro Open,75,,,,,,,,,,210,225,-232.5,225,,225,75,M,Илькин Мехтиев,1986,No,Multi-ply,D
2,Kamil Sultanov,Pro Open,71.5,,,,,,,,,,110,-120,-120,110,,110,75,M,Камиль Султанов,1988,No,Multi-ply,D
1,Sergey Trubnikov,Pro Juniors 20-23,77.9,,,,,,,,,,140,-145,,140,,140,82.5,M,Сергей Трубников,1994,No,Multi-ply,D
1,Sergey Dolnikov,Pro Open,79.9,,,,,,,,,,-250,250,260,260,,260,82.5,M,Сергей Дольников,1986,No,Multi-ply,D
2,Vladimir Kulakov,Pro Open,78.5,,,,,,,,,,70,,,70,,70,82.5,M,Владимир Кулаков,1955,No,Multi-ply,D
1,Vladimir Kulakov,Pro Masters 55-59,78.5,,,,,,,,,,70,,,70,,70,82.5,M,Владимир Кулаков,1955,No,Multi-ply,D
1,Dmitriy Pershin,Pro Open,92.5,,,,,,,,,,200,220,230,230,,230,100,M,Дмитрий Першин,1990,No,Multi-ply,D
1,Vitaliy Nikiforov,Pro Open,106.6,,,,,,,,,,170,180,190,190,,190,110,M,Виталий Никифоров,1983,No,Multi-ply,D
1,Ivan Kudryashov,Pro Juniors 20-23,122.6,,,,,,,,,,150,165,180,180,,180,125,M,Иван Кудряшов,1994,No,Multi-ply,D
