Division,WeightClassKg,Place,Name,Team,BodyweightKg,Best3SquatKg,Best3BenchKg,Best3DeadliftKg,TotalKg,Equipment,Event,Sex
Girls,44.23,1,Erica Rico,Kennedale,40.73,90.72,45.36,106.59,242.67,Single-ply,SBD,F
Girls,44.23,2,Imelda Hernandez,Gainesville,43.73,72.57,31.75,90.72,195.04,Single-ply,SBD,F
Girls,44.23,3,Lisa Cardenas,Pottsboro,44.18,70.31,31.75,70.31,172.37,Single-ply,SBD,F
Girls,44.23,DQ,Julie Rico,Kennedale,41.1,,,,,Single-ply,SBD,F
Girls,47.85,1,Belen Fuentes,Plano,47.45,117.93,58.97,108.86,285.76,Single-ply,SBD,F
Girls,47.85,2,Genesis Zamora,Sherman,44.54,92.99,49.9,117.93,260.82,Single-ply,SBD,F
Girls,47.85,3,Rebekah Roberts,Anna,45.81,83.91,54.43,86.18,224.53,Single-ply,SBD,F
Girls,47.85,4,Rosario Labrada,Whitesboro,45.09,70.31,52.16,81.65,204.12,Single-ply,SBD,F
Girls,47.85,5,Erica Ortega,Valley View,45.99,72.57,34.02,79.38,185.97,Single-ply,SBD,F
Girls,47.85,6,Emily Davis,Lindsay,46.99,61.23,36.29,77.11,174.63,Single-ply,SBD,F
Girls,47.85,7,Giselle Garcia,Bridgeport,45.63,49.9,24.95,43.09,117.93,Single-ply,SBD,F
Girls,51.94,1,Jazmin Tejeda,Gainesville,51.53,102.06,47.63,145.15,294.84,Single-ply,SBD,F
Girls,51.94,2,Kennedy Blackmon,Plano,50.26,102.06,61.23,115.67,278.96,Single-ply,SBD,F
Girls,51.94,3,Anna Raby,Bridgeport,51.17,83.91,47.63,102.06,233.6,Single-ply,SBD,F
Girls,51.94,4,Kirklyn Bedwell,Anna,48.99,79.38,47.63,99.79,226.8,Single-ply,SBD,F
Girls,51.94,5,Kenya Gomez,Bridgeport,49.9,70.31,43.09,86.18,199.58,Single-ply,SBD,F
Girls,51.94,6,Brooke Daniel,Nevada Community,50.62,68.04,45.36,86.18,199.58,Single-ply,SBD,F
Girls,51.94,7,Ashlie Lennard,Bridgeport,51.44,61.23,38.56,83.91,183.7,Single-ply,SBD,F
Girls,51.94,8,Hannah Metzler,Lindsay,49.35,61.23,31.75,81.65,174.63,Single-ply,SBD,F
Girls,51.94,9,Prestynn Williams,Anna,51.26,65.77,34.02,68.04,167.83,Single-ply,SBD,F
Girls,51.94,10,Kayla Davis,Whitesboro,50.17,56.7,31.75,68.04,156.49,Single-ply,SBD,F
Girls,51.94,11,Megan Irion,Pottsboro,48.63,49.9,24.95,52.16,127.01,Single-ply,SBD,F
Girls,56.02,1,Nalyn Koenig,Anna,54.52,95.25,52.16,127.01,274.42,Single-ply,SBD,F
Girls,56.02,2,Maddi Curry,Plano,55.34,106.59,52.16,104.33,263.08,Single-ply,SBD,F
Girls,56.02,3,Brooke Hodge,Anna,54.25,102.06,56.7,102.06,260.82,Single-ply,SBD,F
Girls,56.02,4,Jazmin Pender,Anna,53.71,95.25,56.7,102.06,254.01,Single-ply,SBD,F
Girls,56.02,5,Mattie Sherwin,Gainesville,55.38,86.18,43.09,106.59,235.87,Single-ply,SBD,F
Girls,56.02,6,Abri Davison,Plano,54.79,83.91,43.09,83.91,210.92,Single-ply,SBD,F
Girls,56.02,7,Yelena Martinez,Gainesville,54.43,79.38,34.02,92.99,206.38,Single-ply,SBD,F
Girls,56.02,8,Lee Scibelli,Anna,55.34,52.16,34.02,77.11,163.29,Single-ply,SBD,F
Girls,56.02,9,Becca Jarrett,Nevada Community,55.43,43.09,34.02,83.91,161.03,Single-ply,SBD,F
Girls,56.02,10,Kiersten Moore,Castleberry,53.16,49.9,27.22,65.77,142.88,Single-ply,SBD,F
Girls,56.02,DQ,Mi Nguyen,Kennedale,54.88,,,,,Single-ply,SBD,F
Girls,60.1,1,Maddie Graham,Plano,59.06,158.76,106.59,147.42,412.77,Single-ply,SBD,F
Girls,60.1,2,Emily Tapia,Nevada Community,59.42,115.67,52.16,124.74,292.57,Single-ply,SBD,F
Girls,60.1,3,Allison Raby,Bridgeport,58.33,111.13,54.43,115.67,281.23,Single-ply,SBD,F
Girls,60.1,4,Ruth Mitchell #1,Kennedale,59.24,106.59,52.16,115.67,274.42,Single-ply,SBD,F
Girls,60.1,5,Beka Powers,Bridgeport,56.7,113.4,49.9,108.86,272.16,Single-ply,SBD,F
Girls,60.1,6,Kendra Smith,Bridgeport,59.06,86.18,58.97,102.06,247.21,Single-ply,SBD,F
Girls,60.1,7,Miely Colon,Kennedale,60.06,86.18,49.9,106.59,242.67,Single-ply,SBD,F
Girls,60.1,8,Delanie Hamilton,Anna,59.69,92.99,54.43,83.91,231.33,Single-ply,SBD,F
Girls,60.1,9,Edith Castillo,Pilot Point,59.69,90.72,45.36,92.99,229.06,Single-ply,SBD,F
Girls,60.1,10,Hannah George,Pottsboro,59.51,90.72,38.56,97.52,226.8,Single-ply,SBD,F
Girls,60.1,11,Racheal Price,Castleberry,58.69,88.45,40.82,92.99,222.26,Single-ply,SBD,F
Girls,60.1,12,Keyana Collier,Sherman,59.24,72.57,43.09,77.11,192.78,Single-ply,SBD,F
Girls,60.1,13,Virginia Mar,Gainesville,58.51,61.23,31.75,92.99,185.97,Single-ply,SBD,F
Girls,60.1,14,Molly Willingham,Nevada Community,56.15,68.04,29.48,86.18,183.7,Single-ply,SBD,F
Girls,60.1,DQ,Paxtyn Booker,Kennedale,56.52,,,,,Single-ply,SBD,F
Girls,60.1,DQ,Mady Taylor,Bridgeport,58.69,,,,,Single-ply,SBD,F
Girls,60.1,DQ,Sabina Torres,Bridgeport,59.96,72.57,40.82,,,Single-ply,SBD,F
Girls,60.1,DQ,Maren Bubeck,Argyle,57.33,,,,,Single-ply,SBD,F
Girls,67.36,1,Dreanna McAdams,Howe,65.86,145.15,86.18,161.03,392.36,Single-ply,SBD,F
Girls,67.36,2,Hannah Scott,Plano,63.5,113.4,61.23,124.74,299.37,Single-ply,SBD,F
Girls,67.36,3,Jessica Vogel,Nocona,61.6,113.4,65.77,113.4,292.57,Single-ply,SBD,F
Girls,67.36,4,Ally Carraway,Lucas Lovejoy,63.78,113.4,52.16,117.93,283.5,Single-ply,SBD,F
Girls,67.36,5,Olivia Jones,Gainesville,62.14,97.52,45.36,117.93,260.82,Single-ply,SBD,F
Girls,67.36,6,Kierra Robertson,Prosper,61.6,86.18,58.97,113.4,258.55,Single-ply,SBD,F
Girls,67.36,7,Diana Alonso,Prosper,65.95,102.06,52.16,102.06,256.28,Single-ply,SBD,F
Girls,67.36,8,Jaci Stickley,Pottsboro,63.23,83.91,47.63,90.72,222.26,Single-ply,SBD,F
Girls,67.36,9,Alex Droge,Lucas Lovejoy,64.41,83.91,47.63,90.72,222.26,Single-ply,SBD,F
Girls,67.36,10,Raelyn Lemon,Nocona,66.13,72.57,45.36,90.72,208.65,Single-ply,SBD,F
Girls,67.36,11,Nadia Williams,Kennedale,62.05,77.11,34.02,88.45,199.58,Single-ply,SBD,F
Girls,67.36,12,Lindsey Farrell,Lucas Lovejoy,61.23,70.31,47.63,79.38,197.31,Single-ply,SBD,F
Girls,67.36,13,Montana Griffin,Krum,66.95,65.77,27.22,92.99,185.97,Single-ply,SBD,F
Girls,67.36,14,Taylor Roland,Lucas Lovejoy,66.13,72.57,38.56,70.31,181.44,Single-ply,SBD,F
Girls,67.36,DQ,Kylee Howard,Kennedale,65.23,149.69,,,,Single-ply,SBD,F
Girls,67.36,DQ,Ashley Boatright,Sherman,64.86,,,,,Single-ply,SBD,F
Girls,67.36,DQ,Savanna Hodnett,Pilot Point,60.42,,,,,Single-ply,SBD,F
Girls,67.36,DQ,Julie Salazar,Bridgeport,66.22,,,,,Single-ply,SBD,F
Girls,67.36,DQ,Briana Romero,Bridgeport,65.05,,,,,Single-ply,SBD,F
Girls,75.07,1,Carlee Gearinger,Pottsboro,72.57,131.54,74.84,136.08,342.46,Single-ply,SBD,F
Girls,75.07,2,Amaya Robertson,Plano,72.76,142.88,70.31,122.47,335.66,Single-ply,SBD,F
Girls,75.07,3,Jeannette Santos,Castleberry,70.4,122.47,61.23,142.88,326.59,Single-ply,SBD,F
Girls,75.07,4,Lexi Towery,Nocona,73.75,133.81,65.77,124.74,324.32,Single-ply,SBD,F
Girls,75.07,5,Sindi Ortiz,Bridgeport,75.07,131.54,56.7,120.2,308.44,Single-ply,SBD,F
Girls,75.07,6,Rosario Trejo,Pilot Point,74.84,124.74,58.97,113.4,297.1,Single-ply,SBD,F
Girls,75.07,7,Taylor Richards,Nocona,72.12,111.13,54.43,115.67,281.23,Single-ply,SBD,F
Girls,75.07,8,Eliza Gilliam,Whitesboro,69.49,108.86,61.23,106.59,276.69,Single-ply,SBD,F
Girls,75.07,9,Nicole Pring,Prosper,69.13,111.13,47.63,113.4,272.16,Single-ply,SBD,F
Girls,75.07,10,Morgan Cantrell,Whitesboro,72.94,111.13,54.43,97.52,263.08,Single-ply,SBD,F
Girls,75.07,11,Sheika Dominguez,Whitesboro,71.3,88.45,49.9,97.52,235.87,Single-ply,SBD,F
Girls,75.07,12,Kylee Thacker,Valley View,74.03,79.38,43.09,99.79,222.26,Single-ply,SBD,F
Girls,75.07,13,Mya Stradley,Gainesville,74.84,81.65,34.02,81.65,197.31,Single-ply,SBD,F
Girls,75.07,DQ,Ivy White,Krum,67.77,,,,,Single-ply,SBD,F
Girls,75.07,DQ,Kendall Daniel,Kennedale,72.48,,,,,Single-ply,SBD,F
Girls,75.07,DQ,Savannah Taylor,Pilot Point,67.68,79.38,,,,Single-ply,SBD,F
Girls,75.07,DQ,Savana Rovlette,Lucas Lovejoy,74.75,,,,,Single-ply,SBD,F
Girls,75.07,DQ,Karissa Sanders,Lucas Lovejoy,72.21,74.84,,,,Single-ply,SBD,F
Girls,75.07,DQ,Blenda Torres,Bridgeport,73.75,,,,,Single-ply,SBD,F
Girls,82.33,1,Brianna Sims,Castleberry,80.56,136.08,77.11,140.61,353.8,Single-ply,SBD,F
Girls,82.33,2,Krissy Fibiger-Hjortnaes,Plano,79.74,129.27,65.77,127.01,322.05,Single-ply,SBD,F
Girls,82.33,3,Ally Woodruff,Anna,78.2,124.74,65.77,124.74,315.25,Single-ply,SBD,F
Girls,82.33,4,Stefani Norton,Nevada Community,77.75,127.01,63.5,117.93,308.44,Single-ply,SBD,F
Girls,82.33,5,Adriana Ramirez,Bridgeport,78.02,104.33,52.16,104.33,260.82,Single-ply,SBD,F
Girls,82.33,6,Kaleigh Cochran,Whitesboro,75.39,97.52,54.43,95.25,247.21,Single-ply,SBD,F
Girls,82.33,7,Lizbeth Olmos,Bridgeport,80.2,90.72,45.36,106.59,242.67,Single-ply,SBD,F
Girls,82.33,8,Hannah Weaver,Krum,75.75,83.91,34.02,97.52,215.46,Single-ply,SBD,F
Girls,82.33,9,Haley Frank,Whitesboro,79.2,77.11,43.09,90.72,210.92,Single-ply,SBD,F
Girls,82.33,10,Sam Puente,Gainesville,82.1,79.38,38.56,90.72,208.65,Single-ply,SBD,F
Girls,82.33,11,Erin Longoria,Whitesboro,81.1,68.04,38.56,77.11,183.7,Single-ply,SBD,F
Girls,82.33,DQ,Lupe Rodriguez #1,Gainesville,82.1,104.33,52.16,,,Single-ply,SBD,F
Girls,82.33,DQ,Kallie Flowers,Gainesville,82.1,,,,,Single-ply,SBD,F
Girls,82.33,DQ,Courtney Reed,Kennedale,82.1,,,,,Single-ply,SBD,F
Girls,82.33,DQ,Macy Davis,Anna,78.2,149.69,95.25,,,Single-ply,SBD,F
Girls,82.33,DQ,Birkleigh Hall,Gainesville,77.11,81.65,,,,Single-ply,SBD,F
Girls,90.04,1,Hailee Anderson,Anna,88.9,172.37,99.79,170.1,442.25,Single-ply,SBD,F
Girls,90.04,2,Morgan Moore,Valley View,89.36,113.4,52.16,113.4,278.96,Single-ply,SBD,F
Girls,90.04,3,Lizeth Olmos,Bridgeport,89.99,90.72,52.16,106.59,249.48,Single-ply,SBD,F
Girls,90.04,4,Sarah Chavez,Pilot Point,83.28,83.91,52.16,104.33,240.4,Single-ply,SBD,F
Girls,90.04,5,Hailey Pratt,Krum,89.54,74.84,36.29,113.4,224.53,Single-ply,SBD,F
Girls,100.02,1,Alissa Boubel,Kennedale,94.53,149.69,74.84,147.42,371.95,Single-ply,SBD,F
Girls,100.02,2,Taylor Brown #3,Whitesboro,92.17,140.61,74.84,142.88,358.34,Single-ply,SBD,F
Girls,100.02,3,Jenna Eugster,Whitesboro,92.17,138.35,77.11,131.54,347,Single-ply,SBD,F
Girls,100.02,4,Alicia Vazquez,Castleberry,94.08,106.59,58.97,131.54,297.1,Single-ply,SBD,F
Girls,100.02,5,Celeste Sanchez,Castleberry,94.35,111.13,47.63,117.93,276.69,Single-ply,SBD,F
Girls,100.02,6,Angie Fereer,Gainesville,96.16,102.06,40.82,115.67,258.55,Single-ply,SBD,F
Girls,100.02,DQ,Jazmin Huckstein,Sherman,95.89,142.88,,,,Single-ply,SBD,F
Girls,100.02,DQ,Samara Prim,Gainesville,98.88,,,,,Single-ply,SBD,F
Girls,117.71,1,Erlyna Morgan,Kennedale,116.21,190.51,79.38,176.9,446.79,Single-ply,SBD,F
Girls,117.71,2,Andrea Torres,Sherman,114.67,151.95,81.65,156.49,390.09,Single-ply,SBD,F
Girls,117.71,3,Macie Volcik,Pottsboro,107.14,136.08,81.65,131.54,349.27,Single-ply,SBD,F
Girls,117.71,DQ,Melissa Manjaraz,Bridgeport,108.95,,,,,Single-ply,SBD,F
Girls,117.71+,1,Deziray Graham,Nocona,119.39,208.65,97.52,149.69,455.86,Single-ply,SBD,F
Girls,117.71+,2,Alex Headley,Plano,150.14,197.31,97.52,154.22,449.06,Single-ply,SBD,F
Girls,117.71+,3,Ashley Enriquez-Castro,Anna,127.55,197.31,79.38,149.69,426.38,Single-ply,SBD,F
Girls,117.71+,4,Tori Scott,Gainesville,136.98,188.24,90.72,136.08,415.04,Single-ply,SBD,F
Girls,117.71+,DQ,Haylee McAdoo,Whitesboro,137.98,165.56,,,,Single-ply,SBD,F
Girls,117.71+,DQ,Lindsey Cain,Whitesboro,139.53,113.4,83.91,,,Single-ply,SBD,F
