Place,Name,BirthYear,Country,BodyweightKg,Squat1Kg,Squat2Kg,Squat3Kg,Best3SquatKg,Bench1Kg,Bench2Kg,Bench3Kg,Best3BenchKg,Deadlift1Kg,Deadlift2Kg,Deadlift3Kg,Best3DeadliftKg,TotalKg,WeightClassKg,Division,Event,Sex,Equipment
1,Dariusz Wszoła,1978,Poland,55.5,230,237.5,-242.5,237.5,160,165,-170,165,190,197.5,205,205,607.5,56,Open,SBD,M,Single-ply
2,Paweł Ośmiałowski,1977,Poland,55.6,130,240,-245,240,120,130,135,135,202.5,212.5,220,220,595,56,Open,SBD,M,Single-ply
3,Patrick Constantine,1969,UK,55.25,-220,-220,220,220,115,-120,120,120,220,225,227.5,227.5,567.5,56,Open,SBD,M,Single-ply
4,Frédéric Tinebra,1978,France,55.5,210,-225,225,225,130,-137.5,137.5,137.5,185,200,-205,200,562.5,56,Open,SBD,M,Single-ply
1,Konstantin Danilov,1986,Russia,59.3,250,265,275,275,150,165,-170,165,240,252.5,265,265,705,60,Open,SBD,M,Single-ply
2,Etienne Lited,1979,France,59.9,-235,235,245,245,145,152.5,-160,152.5,220,237.5,242.5,242.5,640,60,Open,SBD,M,Single-ply
3,Dominik Golak,1982,Poland,59.85,215,230,-240,230,130,-140,140,140,210,220,230,230,600,60,Open,SBD,M,Single-ply
4,Ivan Nikolov,1988,Bulgaria,58.9,210,-220,-220,210,140,-150,-150,140,200,-210,-210,200,550,60,Open,SBD,M,Single-ply
DQ,Thomas Wulffeld,1969,Sweden,59.85,-200,-200,-205,,110,-117.5,-117.5,110,210,-220,,210,,60,Open,SBD,M,Single-ply
1,Hassan El Belghiti,1975,France,67.4,275,295,300,300,155,160,-165,160,300,310,-319,310,770,67.5,Open,SBD,M,Single-ply
2,Dmitry Makarov,1988,Russia,67.3,275,285,-290,285,180,190,-197.5,190,260,275,-297.5,275,750,67.5,Open,SBD,M,Single-ply
3,Phil Richard,1971,UK,67.45,275,290,295,295,-185,185,192.5,192.5,232.5,242.5,247.5,247.5,735,67.5,Open,SBD,M,Single-ply
4,Timo Heiskanen,1970,Finland,66.85,-235,235,242.5,242.5,132.5,140,145,145,265,-277.5,-277.5,265,652.5,67.5,Open,SBD,M,Single-ply
5,Karel Ruso,1965,Czechia,67,230,250,-257.5,250,95,100,-105,100,215,235,245,245,595,67.5,Open,SBD,M,Single-ply
1,Arkadiy Shalokha,1983,Ukraine,74.65,300,-307.5,-307.5,300,210,-220,-220,210,277.5,282.5,290,290,800,75,Open,SBD,M,Single-ply
2,Aleksandr Gromov,1981,Russia,74.35,-300,300,-310,300,225,235,-240,235,250,-255,-255,250,785,75,Open,SBD,M,Single-ply
3,Irakli Mdivnishvili,1980,Ukraine,73.75,-285,285,-295,285,200,205,-207.5,205,270,280,-282.5,280,770,75,Open,SBD,M,Single-ply
4,Kader Baali,1968,France,74.5,270,-282.5,-282.5,270,-180,180,185,185,270,282.5,290,290,745,75,Open,SBD,M,Single-ply
5,Louis Preuthun,1980,Denmark,74.7,240,-255,-260,240,152.5,-160,-167.5,152.5,240,-262.5,,240,632.5,75,Open,SBD,M,Single-ply
DQ,Robert Mihailov,1977,Bulgaria,75,262.5,277.5,-292.5,277.5,182.5,192.5,-200,192.5,-275,-290,-302.5,,,75,Open,SBD,M,Single-ply
1,Andriy Naniev,1984,Ukraine,82.25,335,345,352.5,352.5,217.5,225,-230,225,300,307.5,310,310,887.5,82.5,Open,SBD,M,Single-ply
2,Volodymyr Rysiev,1982,Ukraine,81.5,340,-350,352.5,352.5,-215,-215,215,215,300,312.5,-320,312.5,880,82.5,Open,SBD,M,Single-ply
3,Evgeniy Vasyukov,1985,Russia,82.2,335,345,-352.5,345,210,-217.5,217.5,217.5,310,-322.5,-325,310,872.5,82.5,Open,SBD,M,Single-ply
4,Jacek Spychała,1978,Poland,82.3,310,325,-335,325,190,200,207.5,207.5,300,-312.5,-315,300,832.5,82.5,Open,SBD,M,Single-ply
5,Todor Vasilev,1978,Bulgaria,82.2,300,310,320,320,-187.5,190,-200,190,300,310,317.5,317.5,827.5,82.5,Open,SBD,M,Single-ply
6,Robert Palmer #2,1982,UK,80.85,290,305,315,315,220,225,230,230,280,-300,-300,280,825,82.5,Open,SBD,M,Single-ply
7,Jouni Kvist,1973,Finland,82.1,300,-315,315,315,185,192.5,197.5,197.5,300,312.5,-320,312.5,825,82.5,Open,SBD,M,Single-ply
8,Eduard Tepper,1979,Germany,81.55,-265,265,285,285,227.5,-232.5,-232.5,227.5,280,302.5,-315,302.5,815,82.5,Open,SBD,M,Single-ply
9,Miklós Fekete,1973,Hungary,82.05,-285,285,-307.5,285,192.5,200,212.5,212.5,275,292.5,-305,292.5,790,82.5,Open,SBD,M,Single-ply
10,Daniel Miller,1988,Poland,82.1,340,-357.5,-357.5,340,200,217.5,-225,217.5,170,,,170,727.5,82.5,Open,SBD,M,Single-ply
11,Pardeep Kailey,1983,Netherlands,81.2,252.5,267.5,-275,267.5,160,170,175,175,-257.5,257.5,-267.5,257.5,700,82.5,Open,SBD,M,Single-ply
12,Ovidiu Panazan,1975,Romania,81.45,220,-240,-240,220,190,195,-200,195,220,,,220,635,82.5,Open,SBD,M,Single-ply
1,Andriy Krymov,1985,Ukraine,89.75,310,325,335,335,267.5,277.5,287,287,285,292.5,-300,292.5,914.5,90,Open,SBD,M,Single-ply
2,Zdravko Sarafimov,1984,Bulgaria,89.8,330,-340,340,340,210,217.5,225,225,-325,325,332.5,332.5,897.5,90,Open,SBD,M,Single-ply
3,Jan Wegiera,1965,Poland,89.1,325,335,-340,335,260,270,-277.5,270,270,-280,285,285,890,90,Open,SBD,M,Single-ply
4,Patrik Turesson,1974,Sweden,89.1,320,335,345,345,210,-217.5,217.5,217.5,300,325,-330,325,887.5,90,Open,SBD,M,Single-ply
5,Volodymyr Bettyar,1984,Ukraine,89.7,330,345,-360,345,230,245,-255,245,280,-287.5,-287.5,280,870,90,Open,SBD,M,Single-ply
6,Vesa Mattila,1980,Finland,88.15,300,310,-315,310,220,-225,225,225,285,295,-305,295,830,90,Open,SBD,M,Single-ply
7,André Hentschel,1984,Germany,88.8,302.5,-322.5,-322.5,302.5,-230,230,-240,230,260,282.5,-290,282.5,815,90,Open,SBD,M,Single-ply
8,Jiří Horník,1978,Czechia,88.75,-280,280,302.5,302.5,220,-230,-230,220,280,-300,,280,802.5,90,Open,SBD,M,Single-ply
9,Andreas Jandorek,1985,Austria,89.35,275,-290,297.5,297.5,205,210,-217.5,210,270,290,-295,290,797.5,90,Open,SBD,M,Single-ply
10,Henrik Skov Nielsen,1984,Denmark,89.85,310,-320,320,320,190,-195,195,195,260,275,-290,275,790,90,Open,SBD,M,Single-ply
11,Jaswinder Singh,1964,UK,89.4,-275,-275,275,275,195,202.5,-207.5,202.5,270,280,-285,280,757.5,90,Open,SBD,M,Single-ply
DQ,Joe Bullock,1971,UK,89.45,290,300,-305,300,-180,-180,-180,,240,250,260,260,,90,Open,SBD,M,Single-ply
DD,Daniele Ghirardi,1969,Italy,89.7,300,320,-330,320,220,230,-240,230,320,330,342.5,342.5,,90,Open,SBD,M,Single-ply
1,Anibal Manuel Coimbra Marques,1972,Luxembourg,96.6,352.5,367.5,375,375,245,250,-255,250,330,350,-360,350,975,100,Open,SBD,M,Single-ply
2,Andrei Ivanets,1984,Belarus,97.2,330,340,-345,340,215,-222.5,-222.5,215,330,345,362.5,362.5,917.5,100,Open,SBD,M,Single-ply
3,André Peeters,1970,France,98.9,330,-340,,330,220,230,232.5,232.5,300,325,-327.5,325,887.5,100,Open,SBD,M,Single-ply
4,Christoph Erbs,1979,Germany,95.7,-310,-310,310,310,190,200,-202.5,200,320,-345,345,345,855,100,Open,SBD,M,Single-ply
5,Joakim Lakso,1975,Sweden,99.7,-325,325,337.5,337.5,190,197.5,202.5,202.5,295,307.5,-317.5,307.5,847.5,100,Open,SBD,M,Single-ply
6,Pavol Varchola,1978,Slovakia,98.4,300,320,-330,320,190,205,212.5,212.5,290,-305,-305,290,822.5,100,Open,SBD,M,Single-ply
7,Jaromír Sršeň,1974,Czechia,99.2,290,305,312.5,312.5,207.5,215,222.5,222.5,260,270,-275,270,805,100,Open,SBD,M,Single-ply
8,Mathias Kristiansen,1985,Denmark,99.7,-310,-310,310,310,205,-212.5,-212.5,205,290,-300,-300,290,805,100,Open,SBD,M,Single-ply
9,Erkki Hirsnik,1982,Estonia,96.2,275,287.5,295,295,182.5,-187.5,187.5,187.5,310,-327.5,-327.5,310,792.5,100,Open,SBD,M,Single-ply
10,Petar Balabanov,1976,Bulgaria,98.3,290,310,-325,310,-190,200,-210,200,250,270,280,280,790,100,Open,SBD,M,Single-ply
11,Floris van Melis,1981,Netherlands,98.7,270,290,-300,290,200,-210,-210,200,250,265,-270,265,755,100,Open,SBD,M,Single-ply
12,Kim Dahl Hansen,1971,Denmark,99.8,285,-300,-300,285,190,-195,-195,190,270,-290,-290,270,745,100,Open,SBD,M,Single-ply
DQ,Sergiy Pevnev,1978,Ukraine,99.2,365,377.5,-382.5,377.5,-275,-275,-275,,320,335,-352.5,335,,100,Open,SBD,M,Single-ply
DQ,Robert Spindler,1984,Austria,99.6,-300,-300,-300,,200,205,-210,205,,,,,,100,Open,SBD,M,Single-ply
DD,Grzegorz Skowroński,1985,Poland,99,320,335,-345,335,220,227.5,232.5,232.5,310,322.5,-327.5,322.5,,100,Open,SBD,M,Single-ply
1,Valeriy Karpov,1984,Ukraine,109.75,380,395,405,405,260,-267.5,267.5,267.5,337.5,347.5,352.5,352.5,1025,110,Open,SBD,M,Single-ply
2,Jacek Wiak,1975,Poland,109.45,400,-415,-415,400,262.5,-270,270,270,335,345,350,350,1020,110,Open,SBD,M,Single-ply
3,Andrey Shurbenkov,1979,Russia,109.4,370,385,-397.5,385,255,265,272.5,272.5,330,-342.5,-342.5,330,987.5,110,Open,SBD,M,Single-ply
4,Mikhail Frolov,1979,Russia,110,380,395,400,400,250,257.5,-365,257.5,330,-342.5,-342.5,330,987.5,110,Open,SBD,M,Single-ply
5,Ove Lehto,1972,Finland,109.55,325,-330,-340,325,245,255,-260,255,320,335,-342.5,335,915,110,Open,SBD,M,Single-ply
6,Sami Pullinen,1983,Finland,109.85,315,-330,-330,315,-280,-280,290.5,290.5,285,-302.5,302.5,302.5,908,110,Open,SBD,M,Single-ply
7,Zbyněk Krejča,1974,Czechia,109.75,300,312.5,320,320,250,262.5,270,270,285,297.5,-305,297.5,887.5,110,Open,SBD,M,Single-ply
8,Sune Bak,1974,Denmark,109.6,320,-335,335,335,255,-262.5,-262.5,255,290,-307.5,-307.5,290,880,110,Open,SBD,M,Single-ply
9,Kristoffer Willebrand,1975,Sweden,108.5,345,360,-365,360,210,215,-217.5,215,290,300,-305,300,875,110,Open,SBD,M,Single-ply
10,Peter Ovsonka,1982,Slovakia,107.8,330,350,360,360,-205,-205,205,205,285,300,-310,300,865,110,Open,SBD,M,Single-ply
11,Marcus Denke,1978,Sweden,108.15,320,332.5,-340,332.5,200,-207.5,-207.5,200,300,320,-330,320,852.5,110,Open,SBD,M,Single-ply
DQ,Tor-Herman Omland,1977,Norway,109,370,380,385,385,-280,-280,-280,,260,300,315,315,,110,Open,SBD,M,Single-ply
DQ,Jørgen Andreas Hansen,1986,Norway,109.3,-357.5,-365,-365,,230,-235,235,235,-300,-310,-310,,,110,Open,SBD,M,Single-ply
DQ,Aleksandrs Grigorjevs,1985,Latvia,109.5,-385,-385,-385,,-255,260,-272.5,260,320,-332.5,,320,,110,Open,SBD,M,Single-ply
1,Viktor Testsov,1989,Ukraine,124.85,390,400,407.5,407.5,310,320,327.5,327.5,335,347.5,-360,347.5,1082.5,125,Open,SBD,M,Single-ply
2,Andrey Drachev,1985,Russia,121.7,385,400,405,405,-275,275,-282.5,275,345,355,-362.5,355,1035,125,Open,SBD,M,Single-ply
3,Oleksandr Shepel,1987,Ukraine,125,400,415,427.5,427.5,250,-260,-260,250,350,-372.5,-372.5,350,1027.5,125,Open,SBD,M,Single-ply
4,Asbjørn Randen,1973,Norway,124.9,-390,-390,390,390,-270,270,-280,270,-320,320,-330,320,980,125,Open,SBD,M,Single-ply
5,David Holmberg,1973,Sweden,124.45,375,-392.5,395,395,252.5,260,267.5,267.5,-295,307.5,312.5,312.5,975,125,Open,SBD,M,Single-ply
6,Vasil Yanchev,1985,Bulgaria,114.3,345,360,-370,360,235,240,-250,240,330,347.5,-350,347.5,947.5,125,Open,SBD,M,Single-ply
7,Tomáš Šárik,1975,Czechia,117.9,360,-380,-380,360,250,260,-270,260,320,-327.5,327.5,327.5,947.5,125,Open,SBD,M,Single-ply
8,Lars Dalby Markussen,1974,Norway,125,-357.5,-357.5,357.5,357.5,-260,260,-265,260,320,-327.5,327.5,327.5,945,125,Open,SBD,M,Single-ply
9,Ben Banks,1984,UK,117.6,320,330,340,340,230,240,250,250,300,315,325,325,915,125,Open,SBD,M,Single-ply
10,Linas Palivonas,1981,Lithuania,123.4,320,332.5,-345,332.5,237.5,245,-252.5,245,300,312.5,-317.5,312.5,890,125,Open,SBD,M,Single-ply
11,Tony Cliffe,1984,UK,116.25,310,325,332.5,332.5,225,235,240,240,290,310,-317.5,310,882.5,125,Open,SBD,M,Single-ply
12,Jean-Luc Collart,1959,Belgium,122.55,320,350,-367.5,350,200,215,220,220,280,302.5,,302.5,872.5,125,Open,SBD,M,Single-ply
13,Sorin Vasile Cazacu,1973,Romania,123.15,340,-355,362.5,362.5,215,225,-232.5,225,260,-275,-275,260,847.5,125,Open,SBD,M,Single-ply
14,Dušan Cernak,1982,Slovakia,124.8,-330,330,-350,330,225,235,-242.5,235,270,-280,-280,270,835,125,Open,SBD,M,Single-ply
1,Daniel Grabowski,1984,Poland,136.2,410,430,-440,430,270,285,-292.5,285,330,345,347.5,347.5,1062.5,125+,Open,SBD,M,Single-ply
2,Milan Špingl,1980,Czechia,146,410,430,435,435,-292.5,-292.5,295,295,310,325,332.5,332.5,1062.5,125+,Open,SBD,M,Single-ply
3,Kenneth Sandvik,1975,Finland,134.2,390,405,-410,405,295,305,315,315,305,315,-322.5,315,1035,125+,Open,SBD,M,Single-ply
4,Anton Kibirev,1983,Russia,141.3,400,415,420,420,-275,275,-282.5,275,340,-347.5,-347.5,340,1035,125+,Open,SBD,M,Single-ply
5,Anders Johansson,1975,Sweden,148.2,-390,390,-405,390,285,-295,-295,285,340,355,-362.5,355,1030,125+,Open,SBD,M,Single-ply
6,Olaf Dahl,1974,Norway,145.8,360,370,380,380,255,-262.5,262.5,262.5,350,-357.5,360,360,1002.5,125+,Open,SBD,M,Single-ply
7,Andy-Elvis Dörner,1976,Germany,140.4,-415,420,432.5,432.5,240,252.5,262.5,262.5,290,-305,305,305,1000,125+,Open,SBD,M,Single-ply
8,Auðunn Jónsson,1972,Iceland,143.7,370,392.5,,392.5,260,-270,270,270,337.5,-350,-350,337.5,1000,125+,Open,SBD,M,Single-ply
9,Andrew Thompson #1,1976,UK,164.25,320,340,350,350,270,280,-285,280,310,325,-335,325,955,125+,Open,SBD,M,Single-ply
10,Árni Freyr Stefánsson,1985,Iceland,151.75,320,335,342.5,342.5,220,-227.5,-227.5,220,260,272.5,282.5,282.5,845,125+,Open,SBD,M,Single-ply
DQ,Morten Sørig,1969,Denmark,136.6,355,370,-377.5,370,-250,-255,-255,,270,-290,,270,,125+,Open,SBD,M,Single-ply
DQ,Fredrik Svensson,1979,Sweden,152.6,-350,-360,-360,,305,315,-322.5,315,275,305,-315,305,,125+,Open,SBD,M,Single-ply
1,Raija Koskinen-Jurkko,1963,Finland,47.6,-170,170,177.5,177.5,85,87.5,90,90,-155,155,160,160,427.5,48,Open,SBD,F,Single-ply
2,Anastasiya Derevyanko #1,1987,Ukraine,47.75,150,157.5,-162.5,157.5,-87.5,90,-95,90,165,-172.5,-177.5,165,412.5,48,Open,SBD,F,Single-ply
3,Sanna Apuli,1981,Finland,47.75,150,157.5,162.5,162.5,72.5,77.5,80,80,150,157.5,-160,157.5,400,48,Open,SBD,F,Single-ply
4,Bénédicte LePanse,1978,France,47.65,-147.5,147.5,-157.5,147.5,87.5,92.5,-95,92.5,142.5,150,-160,150,390,48,Open,SBD,F,Single-ply
5,Iryna Baburova,1986,Ukraine,48,145,152.5,-160,152.5,75,80,-85,80,145,155,-162.5,155,387.5,48,Open,SBD,F,Single-ply
6,Ilka Schwengl-Forsthuber,1965,Austria,47.15,125,135,-142.5,135,100,-102.5,102.5,102.5,130,137.5,142.5,142.5,380,48,Open,SBD,F,Single-ply
7,Miia Liimatainen,1986,Sweden,46.45,142.5,-152.5,-152.5,142.5,-62.5,62.5,-70,62.5,137.2,145,-155,145,350,48,Open,SBD,F,Single-ply
1,Oksana Chumak,1983,Ukraine,51.8,165,-170,170,170,90,97.5,102.5,102.5,165,-170,-170,165,437.5,52,Open,SBD,F,Single-ply
2,Kadriya Volkova,1986,Russia,50.55,150,157.5,165,165,87.5,92.5,95,95,152.5,160,162.5,162.5,422.5,52,Open,SBD,F,Single-ply
3,Leena Jokitalo,1961,Finland,51.4,160,170,175,175,72.5,77.5,-80,77.5,162.5,-167.5,-172.5,162.5,415,52,Open,SBD,F,Single-ply
4,Mervi Sirkiä,1972,Finland,51.65,157.5,162.5,-167.5,162.5,-90,90,92.5,92.5,155,-160,-162.5,155,410,52,Open,SBD,F,Single-ply
5,Vanessa Martin,1976,France,51.1,147.5,155,160,160,87.5,92.5,-95,92.5,135,-140,-140,135,387.5,52,Open,SBD,F,Single-ply
6,Sophie Guihomat,1975,France,51.4,-142.4,142.5,-152.5,142.5,72.5,80,82.5,82.5,145,152.5,-157.5,152.5,377.5,52,Open,SBD,F,Single-ply
7,Monika Gavorníková,1974,Slovakia,51.7,140,-150,-150,140,85,90,92.5,92.5,-135,135,-140,135,367.5,52,Open,SBD,F,Single-ply
1,Anna Komlaeva,1979,Russia,54.2,185,195,-200,195,97.5,105,107.5,107.5,165,172.5,175,175,477.5,56,Open,SBD,F,Single-ply
2,Mervi Anita Rantamäki,1974,Finland,55.6,-180,180,185,185,100,105,-110,105,170,-177.5,-177.5,170,460,56,Open,SBD,F,Single-ply
3,Viktoriya Abdulina,1967,Ukraine,55.65,185,192.5,-197.5,192.5,97.5,100,-102.5,100,160,-172.5,-172.5,160,452.5,56,Open,SBD,F,Single-ply
4,Maria Lindberg,1973,Finland,55.25,160,-170,-170,160,90,-97.5,-97.5,90,162.5,-170,-170,162.5,412.5,56,Open,SBD,F,Single-ply
1,Tetyana Akhmamyetyeva,1985,Ukraine,59.85,210,-220,-220,210,-120,120,-125,120,180,192.5,-197.5,192.5,522.5,60,Open,SBD,F,Single-ply
2,Kira Pavlovskaya,1983,Russia,59.9,190,-197.5,197.5,197.5,110,115,-120,115,190,-200,-212.5,190,502.5,60,Open,SBD,F,Single-ply
3,Josephine Werngren,1976,Sweden,59.7,155,-165,167.5,167.5,97.5,105,-110,105,150,160,165,165,437.5,60,Open,SBD,F,Single-ply
4,Odile Collard,1986,France,59.8,155,-162.5,162.5,162.5,82.5,87.5,90,90,155,165,-170,165,417.5,60,Open,SBD,F,Single-ply
5,Louise Watton,1986,UK,59.9,142.4,152.5,157.5,157.5,85,90,-92.5,90,157.5,165,-170,165,412.5,60,Open,SBD,F,Single-ply
DQ,Riitta Sundvall Liimatainen,1963,Sweden,58.8,177.5,187.5,192.5,192.5,-100,,,,,,,,,60,Open,SBD,F,Single-ply
1,Antonietta Orsini,1964,Italy,66.7,215,-222.5,-222.5,215,-140,140,145,145,200,210,-215,210,570,67.5,Open,SBD,F,Single-ply
2,Johanna Kankus,1984,Finland,65.7,175,182.5,-187.5,182.5,117.5,122.5,127.5,127.5,165,170,-175,170,480,67.5,Open,SBD,F,Single-ply
3,Magdalena Jablonska,1985,Poland,67.5,195,205,-212.5,205,85,92.5,95,95,162.6,172.5,-177.5,172.5,472.5,67.5,Open,SBD,F,Single-ply
4,Elisabeth Wahlander,1960,Sweden,67.2,175,185,-192.5,185,85,-90,90,90,180,192.5,-197.5,192.5,467.5,67.5,Open,SBD,F,Single-ply
5,Mariya Yermolenko,1982,Ukraine,65.75,172.5,182.5,-190,182.5,90,95,97.5,97.5,182.5,-192.5,-192.5,182.5,462.5,67.5,Open,SBD,F,Single-ply
6,Nicole Steger,1981,Germany,66.55,152.5,162.5,-170,162.5,92.5,100,-105,100,182.5,192.5,195,195,457.5,67.5,Open,SBD,F,Single-ply
7,Linda Samuelsson,1977,Sweden,67.35,160,172.5,-180,172.5,100,105,-107.5,105,150,157.5,-165,157.5,435,67.5,Open,SBD,F,Single-ply
8,Elke Schreiber,1984,Germany,64.6,177.5,-190,-192.5,177.5,85,-92.5,-92.5,85,160,170,-177.5,170,432.5,67.5,Open,SBD,F,Single-ply
9,María Guðsteinsdóttir,1970,Iceland,67.15,160,165,-170,165,97.5,-102.5,-105,97.5,165,-172.5,-172.5,165,427.5,67.5,Open,SBD,F,Single-ply
10,Kathrine Holmgaard Bak,1981,Denmark,65.15,130,137.5,-142.5,137.5,80,85,-90,85,162.5,182.5,192.5,192.5,415,67.5,Open,SBD,F,Single-ply
DQ,Veronica Opdal,1985,Norway,64.75,-177.5,-177.5,-177.5,,95,97.5,-100,97.5,160,167.5,175,175,,67.5,Open,SBD,F,Single-ply
DQ,Jana Hrabalová,1984,Czechia,67.2,-155,-160,-160,,-92.5,92.5,-102.5,92.5,155,-165,,155,,67.5,Open,SBD,F,Single-ply
1,Yelyzaveta Byruk,1988,Ukraine,72.4,-220,220,235,235,145,155,-160,155,217.5,225,-230,225,615,75,Open,SBD,F,Single-ply
2,Inger Blikra,1961,Norway,74.25,212.5,225,-232.5,225,140,-145,145,145,205,215,,215,585,75,Open,SBD,F,Single-ply
3,Ankie Timmers,1986,Netherlands,74.7,160,170,175,175,115,120,122.5,122.5,185,202.5,210,210,507.5,75,Open,SBD,F,Single-ply
4,Lucia Christensen,1985,Sweden,74.05,190,200,-205,200,112.5,-117.5,-117.5,112.5,-185,-185,192.5,192.5,505,75,Open,SBD,F,Single-ply
DQ,Lise Ejlertsen,1982,Denmark,73.8,185,195,200,200,70,,,70,160,175,-187.5,175,,75,Open,SBD,F,Single-ply
DQ,Olga Pantina,1979,Russia,74.75,-215,-220,-225,,135,142.5,147.5,147.5,180,187.5,-195,187.5,,75,Open,SBD,F,Single-ply
1,Olena Kozlova,1990,Ukraine,77.9,235,250,-260.5,250,120,130,137.5,137.5,230,-245,-245,230,617.5,82.5,Open,SBD,F,Single-ply
2,Riikka Ylitalo,1982,Finland,80.75,210,225,-230,225,145,-155,-160,145,205,-220,220,220,590,82.5,Open,SBD,F,Single-ply
3,Nadezhda Sindikas,1986,Russia,77.3,215,225,232.5,232.5,120,130,135,135,190,207.5,-210,207.5,575,82.5,Open,SBD,F,Single-ply
4,Annette Pedersen,1968,Denmark,75.15,200,210,-217.5,210,-130,130,-135,130,200,217.5,-220,217.5,557.5,82.5,Open,SBD,F,Single-ply
5,Heidi Hille Arnesen,1970,Norway,76,205,215,-220,215,127.5,-132.5,132.5,132.5,192.5,200,207.5,207.5,555,82.5,Open,SBD,F,Single-ply
6,Charlie Shotton-Gale,1983,UK,82,175,-185,-185,175,115,-120,-120,115,160,-165,-165,160,450,82.5,Open,SBD,F,Single-ply
1,Ielja Strik,1973,Netherlands,88.55,245,262.5,-272.5,262.5,160,175,183,183,215,-225,-225,215,660.5,90,Open,SBD,F,Single-ply
2,Ágnes Szabó,1988,Hungary,89.7,155,175,-185,175,130,145,-157.5,145,140,-150,-150,140,460,90,Open,SBD,F,Single-ply
3,Monika Kromek,1977,Hungary,87.9,140,155,-175,155,80,95,-102.5,95,145,160,165,165,415,90,Open,SBD,F,Single-ply
1,Olga Gemaletdinova,1986,Russia,120.95,260,280,290,290,150,157.5,-162.5,157.5,235,255,-260,255,702.5,90+,Open,SBD,F,Single-ply
2,Inna Orobets,1971,Ukraine,106.55,245,255,260,260,165,170,177.5,177.5,200,210,215,215,652.5,90+,Open,SBD,F,Single-ply
3,Katariina Nokua,1973,Finland,97.1,215,-230,235,235,140,145,150,150,175,182.5,187.5,187.5,572.5,90+,Open,SBD,F,Single-ply
4,Sandra Lönn,1974,Sweden,103.45,-190,200,-210,200,175,190,-202.5,190,150,165,-172.5,165,555,90+,Open,SBD,F,Single-ply
