Place,WeightClassKg,Sex,Event,Equipment,Name,CyrillicName,Division,BirthYear,BirthDate,BodyweightKg,Bench1Kg,Bench2Kg,Bench3Kg,Bench4Kg,Best3BenchKg,TotalKg
1,48,F,B,Raw,Ekaterina Romanova,Екатерина Романова,Pro Teen 18-19,,1990-08-28,46,37.5,42.5,45,-47.5,45,45
1,48,F,B,Raw,Roza Ovechkina,Роза Овечкина,Pro Open,,1980-06-24,47.1,40,45,52.5,,52.5,52.5
1,52,F,B,Raw,Anastasiya Mymrina,Анастасия Мымрина,Pro Open,,1990-07-10,50.5,65,72.5,75,,75,75
2,52,F,B,Raw,Mariya Dyukova,Мария Дюкова,Pro Open,,1984-06-18,50.3,55,57.5,-62.5,,57.5,57.5
3,52,F,B,Raw,Elena Krapivina,Елена Крапивина,Pro Open,,1973-01-12,52,45,50,52.5,,52.5,52.5
4,52,F,B,Raw,Elena Averyanova,Елена Аверьянова,Pro Open,,1981-04-10,49.7,40,-45,-45,,40,40
5,52,F,B,Raw,Elena Mindzhiya,Елена Минджия,Pro Open,,1983-06-14,51.8,-35,35,-40,,35,35
1,56,F,B,Raw,Irina Lutsevich,Ирина Луцевич,Pro Juniors 20-23,,1987-06-29,55.1,32.5,37.5,-40,,37.5,37.5
1,56,F,B,Raw,Zhanna Dorokhina,Жанна Дорохина,Pro Masters 40-44,,1968-11-11,54.6,37.5,40,42.5,,42.5,42.5
1,67.5,F,B,Raw,Irina Berman,Ирина Берман,Pro Open,,1975-05-06,62.2,65,-72.5,,,65,65
1,75,F,B,Raw,Elena Sheverdina,Елена Шевердина,Pro Masters 40-44,,1968-02-14,75,110,115,122.5,132.5,122.5,122.5
1,52,M,B,Raw,Seyfulla Ramazanov,Сейфулла Рамазанов,Pro Open,,1982-08-25,51.9,95,100,-105,,100,100
1,52,M,B,Raw,Ivan Dorokhin,Иван Дорохин,Pro Teen 13-15,,1996-04-24,45.3,27.5,30,32.5,,32.5,32.5
2,52,M,B,Raw,Pavel Nekrasov,Павел Некрасов,Pro Youth,,2001-07-22,29.7,25,27.5,30,,30,30
1,56,M,B,Raw,Marat Zanakhov,Марат Занахов,Pro Juniors 20-23,,1989-12-14,55.1,100,-105,-105,,100,100
1,56,M,B,Raw,Anton Yudin,Антон Юдин,Pro Open,,1976-11-02,53.4,100,105,110,,110,110
2,56,M,B,Raw,Eldar Ramazanov,Эльдар Рамазанов,Pro Open,,1983-08-17,53.7,80,85,-90,,85,85
1,56,M,B,Raw,Sergey Shershnev,Сергей Шершнев,Pro Teen 13-15,,1997-05-02,56,45,-50,-50,,45,45
1,60,M,B,Raw,Aleksandr Pitukhin,Александр Питухин,Pro Open,,1985-11-29,58.5,95,100,105,,105,105
1,60,M,B,Raw,Konstantin Yaparov,Константин Япаров,Pro Teen 16-17,,1993-12-31,58.8,70,80,82.5,,82.5,82.5
1,67.5,M,B,Raw,Sergey Aymetov,Сергей Айметов,Pro Teen 13-15,,1995-06-14,66.6,65,70,-77.5,,70,70
1,67.5,M,B,Raw,Aleksandr Grigorev,Александр Григорьев,Pro Open,,1980-06-13,63.8,95,100,105,,105,105
1,75,M,B,Raw,Aleksey Lapin,Алексей Лапин,Pro Open,,1986-05-22,74.1,140,145,150,,150,150
2,75,M,B,Raw,Ivan Kudryavtsev,Иван Кудрявцев,Pro Juniors 20-23,,1990-03-27,73.2,110,117.5,125,,125,125
3,75,M,B,Raw,Pavel Kungurtsev,Павел Кунгурцев,Pro Juniors 20-23,,1990-05-12,74.6,115,-120,120,,120,120
4,75,M,B,Raw,Dmitriy Malchenko,Дмитрий Мальченко,Pro Juniors 20-23,,1990-01-11,73.8,105,112.5,115,,115,115
1,75,M,B,Raw,Igor Dyachenko,Игорь Дьяченко,Pro Open,,1984-08-09,75,155,162.5,170,,170,170
2,75,M,B,Raw,Sergey Ovagimyan,Сергей Овагимьян,Pro Open,,1978-02-25,72.8,120,130,-135,,130,130
3,75,M,B,Raw,Vladimir Chashchin,Владимир Чащин,Pro Open,,1986-04-07,74.3,-125,125,-127.5,,125,125
4,75,M,B,Raw,Rinat Sultanov,Ринат Султанов,Pro Open,,1974-09-25,72.9,115,120,-125,,120,120
1,75,M,B,Raw,Dmitriy Beloglazov,Дмитрий Белоглазов,Pro Teen 16-17,,1993-07-16,74.9,95,100,-105,,100,100
1,82.5,M,B,Raw,Aleksey Savosin,Алексей Савосин,Pro Masters 40-44,,1969-03-21,81.5,130,140,-150,,140,140
2,82.5,M,B,Raw,Konstantin Bazhin,Константин Бажин,Pro Masters 40-44,,1967-07-26,79.1,100,105,110,,110,110
1,82.5,M,B,Raw,Roman Lepeshkin,Роман Лепешкин,Pro Open,,1978-11-25,81.3,150,162.5,-177.5,,162.5,162.5
2,82.5,M,B,Raw,Ivan Demidenko,Иван Демиденко,Pro Open,,1976-12-20,81.2,135,140,-145,,140,140
3,82.5,M,B,Raw,Aleksandr Baranov,Александр Баранов,Pro Open,,1985-11-19,79.7,125,130,132.5,,132.5,132.5
4,82.5,M,B,Raw,Aleksandr Shilko,Александр Шилько,Pro Open,,1985-12-27,75.5,125,130,,,130,130
1,82.5,M,B,Raw,Vladislav Yachnik,Владислав Ячник,Pro Teen 13-15,,1995-08-13,82.1,75,80,-82.5,,80,80
1,82.5,M,B,Raw,Aleksey Pyanov,Алексей Пьянов,Pro Teen 16-17,,1992-11-26,77.4,110,115,-120,,115,115
2,82.5,M,B,Raw,Artyom Rubtsov,Артём Рубцов,Pro Teen 16-17,,1993-06-18,81.9,105,110,,,110,110
1,90,M,B,Raw,Dmitriy Vedenin,Дмитрий Веденин,Pro Juniors 20-23,,1989-04-28,85.6,140,150,155,,155,155
2,90,M,B,Raw,Pavel Shurygin,Павел Шурыгин,Pro Juniors 20-23,,1988-11-23,90,145,-155,-155,,145,145
1,90,M,B,Raw,Artur Druzhinin,Артур Дружинин,Pro Masters 40-44,,1968-08-28,87.1,130,140,-150,,140,140
2,90,M,B,Raw,Aleksandr Zhilin,Александр Жилин,Pro Masters 40-44,,1965-10-14,85.5,130,135,-140,,135,135
1,90,M,B,Raw,Valeriy Melnikov,Валерий Мельников,Pro Masters 45-49,,1963-01-26,85.4,160,170,-175,,170,170
1,90,M,B,Raw,Evgeniy Basov,Евгений Басов,Pro Masters 55-59,,1955-02-24,86,115,120,125,,125,125
1,90,M,B,Raw,Valeriy Rusinov,Валерий Русинов,Pro Open,,1986-04-11,87.3,145,150,-155,,150,150
2,90,M,B,Raw,Sergey Badeev,Сергей Бадеев,Pro Open,,1978-03-27,84.3,140,-145,147.5,,147.5,147.5
3,90,M,B,Raw,Evgeniy Nosov,Евгений Носов,Pro Open,,1982-05-05,86.7,115,125,130,,130,130
1,100,M,B,Raw,Dmitriy Nazarov,Дмитрий Назаров,Pro Juniors 20-23,,1987-07-29,98.4,165,170,-180,,170,170
2,100,M,B,Raw,Vitaliy Tikhonov,Виталий Тихонов,Pro Juniors 20-23,,1988-10-15,97.9,142.5,147.5,152.5,,152.5,152.5
3,100,M,B,Raw,Vladimir Kirilov,Владимир Кирилов,Pro Juniors 20-23,,1989-04-14,99.6,135,140,147.5,,147.5,147.5
4,100,M,B,Raw,Vyacheslav Beltyukov,Вячеслав Бельтюков,Pro Juniors 20-23,,1987-09-09,90.3,140,145,,,145,145
1,100,M,B,Raw,Dmitriy Chertushkin,Дмитрий Чертушкин,Pro Masters 40-44,,1965-08-15,98.7,155,162.5,-167.5,,162.5,162.5
1,100,M,B,Raw,Igor Zhemelinskikh,Игорь Жемелинских,Pro Open,,1979-10-29,99.7,200,205,207.5,,207.5,207.5
2,100,M,B,Raw,Aleksandr Prozorov,Александр Прозоров,Pro Open,,1973-12-12,99.8,-185,185,-195,,185,185
3,100,M,B,Raw,Aleksandr Plaksin,Александр Плаксин,Pro Open,,1979-05-06,96.4,-170,172.5,177.5,,177.5,177.5
4,100,M,B,Raw,Evgeniy Pozdin,Евгений Поздин,Pro Open,,1981-02-11,100,165,170,-175,,170,170
5,100,M,B,Raw,Anton Lapin,Антон Лапин,Pro Open,,1985-03-16,99.6,145,150,152.5,,152.5,152.5
6,100,M,B,Raw,Svyatoslav Dobronravov,Святослав Добронравов,Pro Open,,1976-11-26,94.5,127.5,135,-137.5,,135,135
1,100,M,B,Raw,Sergey Larin,Сергей Ларин,Pro Teen 18-19,,1990-08-11,92.8,135,140,145,,145,145
1,110,M,B,Raw,Ilya Nalimov,Илья Налимов,Pro Juniors 20-23,,1988-03-03,108.1,160,167.5,-170,,167.5,167.5
1,110,M,B,Raw,Sergey Kirilov,Сергей Кирилов,Pro Masters 45-49,,1964-04-21,110,160,170,175,,175,175
2,110,M,B,Raw,Aleksandr Vakhrushev,Александр Вахрушев,Pro Masters 45-49,,1962-09-02,109.9,152.5,160,-170,,160,160
1,110,M,B,Raw,Evgeniy Matasov,Евгений Матасов,Pro Open,,1971-07-27,106.8,230,240,250,260,250,250
2,110,M,B,Raw,Evgeniy Illarionov,Евгений Илларионов,Pro Open,,1982-05-28,104.2,185,195,205,,205,205
3,110,M,B,Raw,Yakov Berman,Яков Берман,Pro Open,,1972-06-22,103.7,190,200,-202.5,,200,200
4,110,M,B,Raw,Yuriy Romanov #1,Юрий Романов,Pro Open,,1984-01-24,106.9,180,-190,-190,,180,180
5,110,M,B,Raw,Vladimir Ozhegov,Владимир Ожегов,Pro Open,,1977-05-12,101.1,150,155,160,,160,160
6,110,M,B,Raw,Ivan Bekker,Иван Беккер,Pro Open,,1982-02-15,100.7,120,130,-135,,130,130
1,125,M,B,Raw,Albert Fakhretdinov,Альберт Фахретдинов,Pro Juniors 20-23,,1987-06-23,116.1,170,180,-185,,180,180
1,125,M,B,Raw,Valeriy Novolokov,Валерий Новолоков,Pro Open,,1964-03-13,121.5,-222.5,222.5,230,,230,230
2,125,M,B,Raw,Aleksandr Saytgalin,Александр Сайтгалин,Pro Open,,1974-10-27,114.8,195,205,215,,215,215
3,125,M,B,Raw,Mikael Rzaev,Микаел Рзаев,Pro Open,,1975-11-17,117.6,190,-200,-200,,190,190
1,140,M,B,Raw,Nikolay Shchukin,Николай Щукин,Pro Open,,1974-08-25,129.6,160,170,-175,,170,170
DQ,140,M,B,Raw,Dmitriy Belyy,Дмитрий Белый,Pro Open,,1972-04-12,134.5,-207.5,-207.5,,,,
1,140+,M,B,Raw,Aleksey Kozachkov,Алексей Козачков,Pro Open,,1970-08-07,148.7,-185,-185,185,,185,185
1,75,F,B,Multi-ply,Yulia Medvedeva,Юлия Медведева,Pro Open,,1979-07-08,74,155,165,-175,,165,165
1,52,M,B,Multi-ply,Boris Anfyorov,Борис Анфёров,Pro Open,,1983-07-19,51.8,105,-110,-115,,105,105
1,56,M,B,Multi-ply,Danil Bulgakov,Данил Булгаков,Pro Juniors 20-23,,1989-11-24,55.7,115,120,125,130,125,125
1,60,M,B,Multi-ply,Vladimir Kondratev,Владимир Кондратьев,Pro Teen 13-15,,1994-05-23,60,90,100,107.5,,107.5,107.5
1,67.5,M,B,Multi-ply,Mikhail Fateev,Михаил Фатеев,Pro Juniors 20-23,,1988-03-24,67.5,145,150,155,160,155,155
1,67.5,M,B,Multi-ply,Maksim Popov #4,Максим Попов,Pro Open,,1979-09-18,67.2,130,137.5,-145,,137.5,137.5
2,67.5,M,B,Multi-ply,Andrey Kudryavtsev,Андрей Кудрявцев,Pro Open,,1983-09-14,67.2,-125,125,-135,,125,125
1,67.5,M,B,Multi-ply,Semen Filyakin,Семён Филякин,Pro Teen 18-19,,1991-06-04,66.8,155,165,,,165,165
1,75,F,B,Multi-ply,Yulia Medvedeva,Юлия Медведева,Pro Open,,1979-07-08,74,155,165,-175,,165,165
1,75,M,B,Multi-ply,Ilya Obolenskiy,Илья Оболенский,Pro Open,,1982-05-08,73.6,135,142.5,150,,150,150
2,75,M,B,Multi-ply,Ruslan Zharzhanov,Руслан Жаржанов,Pro Open,,1985-06-18,73,140,-145,147.5,,147.5,147.5
1,82.5,M,B,Multi-ply,Evgeniy Kuchin,Евгений Кучин,Pro Juniors 20-23,,1987-02-20,82.1,-180,192.5,200,,200,200
1,82.5,M,B,Multi-ply,Artush Karapetyan,Артуш Карапетян,Pro Teen 18-19,,1991-10-20,81.5,120,130,-140,,130,130
1,90,M,B,Multi-ply,Eduard Isakov,Эдуард Исаков,Pro Masters 40-44,,1966-07-18,85.9,140,150,160,,160,160
1,90,M,B,Multi-ply,Boris Zhernovnikov,Борис Жерновников,Pro Masters 45-49,,1965-03-16,88.4,-200,-200,200,,200,200
1,90,M,B,Multi-ply,Evgeniy Basov,Евгений Басов,Pro Masters 55-59,,1955-02-24,86,130,140,-150,,140,140
3,90,M,B,Multi-ply,Aleksandr Kuznetsov,Александр Кузнецов,Pro Open,,1981-12-09,89.9,-170,170,180,,180,180
2,90,M,B,Multi-ply,Konstantin Tolkachev,Константин Толкачев,Pro Open,,1981-09-29,90,190,202.5,-207.5,,202.5,202.5
1,90,M,B,Multi-ply,Rinad Nizamov,Ринад Низамов,Pro Open,,1973-09-18,90,-200,-202.5,205,,205,205
2,90,M,B,Multi-ply,Gleb Tutynin,Глеб Тутынин,Pro Teen 16-17,,1992-10-04,86.8,140,150,-155,,150,150
1,90,M,B,Multi-ply,Sergey Glazkov,Сергей Глазков,Pro Teen 16-17,,1992-07-11,86.5,140,150,152.5,,152.5,152.5
1,100,M,B,Multi-ply,Pavel Klevakin,Павел Клевакин,Pro Masters 40-44,,1969-10-19,99.8,210,-217.5,-217.5,,210,210
2,100,M,B,Multi-ply,Dmitriy Chertushkin,Дмитрий Чертушкин,Pro Masters 40-44,,1965-08-15,98.7,195,202.5,-207.5,,202.5,202.5
1,100,M,B,Multi-ply,Stanislav Alikin,Станислав Аликин,Pro Open,,1985-03-09,98.8,-260,-260,260,,260,260
2,100,M,B,Multi-ply,Eduard Khaliullin,Эдуард Халиуллин,Pro Open,,1973-05-22,99.6,-250,250,260,265,260,260
3,100,M,B,Multi-ply,Vladimir Shchukin,Владимир Щукин,Pro Open,,1980-03-15,100,222.5,232.5,242.5,,242.5,242.5
4,100,M,B,Multi-ply,Denis Chernyshev,Денис Чернышев,Pro Open,,1985-08-15,100,240,-250,-255,,240,240
5,100,M,B,Multi-ply,Vasiliy Zhilyakov,Василий Жиляков,Pro Open,,1985-02-16,95.1,-175,185,200,,200,200
6,100,M,B,Multi-ply,Dmitriy Tsymbalistyy,Дмитрий Цымбалистый,Pro Open,,1978-11-01,97.8,195,-205,-205,,195,195
1,100,M,B,Multi-ply,Dmitriy Devyatkin,Дмитрий Девяткин,Pro Teen 18-19,,1991-09-29,94,-170,175,-180,,175,175
1,110,M,B,Multi-ply,Aleksandr Ponomarev,Александр Пономарев,Pro Masters 40-44,,1967-02-27,108.5,225,232.5,237.5,,237.5,237.5
2,110,M,B,Multi-ply,Aleksey Kozlov #1,Алексей Козлов,Pro Masters 40-44,,1970-05-19,103,222.5,232.5,-242.5,,232.5,232.5
1,110,M,B,Multi-ply,Andrey Zapylikhin,Андрей Запылихин,Pro Masters 45-49,,1960-09-07,110,-190,-190,190,,190,190
1,110,M,B,Multi-ply,Nikolay Mozharovskiy,Николай Можаровский,Pro Open,,1973-07-02,106.7,205,-215,-215,,205,205
2,110,M,B,Multi-ply,Vadim Dostovalov,Вадим Достовалов,Pro Open,,1978-08-10,101.6,180,-185,-190,,180,180
DQ,110,M,B,Multi-ply,Dmitriy Khanykov,Дмитрий Ханыков,Pro Open,,1983-12-02,107.8,-265,-265,-265,,,
1,125,M,B,Multi-ply,Rinat Kabirov,Ринат Кабиров,Pro Open,,1979-11-30,118.7,275,285,-292.5,,285,285
1,140,M,B,Multi-ply,Mikhail Nekrasov,Михаил Некрасов,Pro Masters 40-44,,1969-11-19,137.1,220,-232.5,235,,235,235
DQ,140,M,B,Multi-ply,Vladimir Maksimov,Владимир Максимов,Pro Masters 40-44,1966,,130,-390,-390,-390,,,
DQ,140,M,B,Multi-ply,Vladimir Maksimov,Владимир Максимов,Pro Open,1966,,130,-390,-390,-390,,,
